<?xml version="1.0" encoding="UTF-8" standalone="no"?><svg xmlns="http://www.w3.org/2000/svg" xmlns:xlink="http://www.w3.org/1999/xlink" contentScriptType="application/ecmascript" contentStyleType="text/css" height="297px" preserveAspectRatio="none" style="width:1247px;height:297px;" version="1.1" viewBox="0 0 1247 297" width="1247px" zoomAndPan="magnify"><defs><filter height="300%" id="f9lb0w8ogzs3z" width="300%" x="-1" y="-1"><feGaussianBlur result="blurOut" stdDeviation="2.0"/><feColorMatrix in="blurOut" result="blurOut2" type="matrix" values="0 0 0 0 0 0 0 0 0 0 0 0 0 0 0 0 0 0 .4 0"/><feOffset dx="4.0" dy="4.0" in="blurOut2" result="blurOut3"/><feBlend in="SourceGraphic" in2="blurOut3" mode="normal"/></filter></defs><g><!--MD5=[ecaed46f78f8cfe1e9ce18477649be18]
class Plataforma--><rect fill="#FEFECE" filter="url(#f9lb0w8ogzs3z)" height="52.8047" id="Plataforma" style="stroke: #A80036; stroke-width: 1.5;" width="120" x="6" y="110.138"/><ellipse cx="30" cy="126.138" fill="#ADD1B2" rx="11" ry="11" style="stroke: #A80036; stroke-width: 1.0;"/><path d="M32.3438,121.8099 C31.4063,121.3724 30.8125,121.2318 29.9375,121.2318 C27.3125,121.2318 25.3125,123.3099 25.3125,126.0286 L25.3125,127.1536 C25.3125,129.7318 27.4219,131.6224 30.3125,131.6224 C31.5313,131.6224 32.6875,131.3255 33.4375,130.7786 C34.0156,130.3724 34.3438,129.9193 34.3438,129.5286 C34.3438,129.0755 33.9531,128.6849 33.4844,128.6849 C33.2656,128.6849 33.0625,128.763 32.875,128.9505 C32.4219,129.4349 32.4219,129.4349 32.2344,129.5286 C31.8125,129.7943 31.125,129.9193 30.3594,129.9193 C28.3125,129.9193 27.0156,128.8255 27.0156,127.1224 L27.0156,126.0286 C27.0156,124.2474 28.2656,122.9349 30,122.9349 C30.5781,122.9349 31.1875,123.0911 31.6563,123.3411 C32.1406,123.6224 32.3125,123.8411 32.4063,124.2474 C32.4688,124.6536 32.5,124.7786 32.6406,124.9036 C32.7813,125.0443 33.0156,125.1536 33.2344,125.1536 C33.5,125.1536 33.7656,125.013 33.9375,124.7943 C34.0469,124.638 34.0781,124.4505 34.0781,124.0286 L34.0781,122.6068 C34.0781,122.1693 34.0625,122.0443 33.9688,121.888 C33.8125,121.6224 33.5313,121.4818 33.2344,121.4818 C32.9375,121.4818 32.7344,121.5755 32.5156,121.888 L32.3438,121.8099 Z "/><text fill="#000000" font-family="sans-serif" font-size="12" lengthAdjust="spacingAndGlyphs" textLength="68" x="46" y="130.2923">Plataforma</text><line style="stroke: #A80036; stroke-width: 1.5;" x1="7" x2="125" y1="142.138" y2="142.138"/><text fill="#000000" font-family="sans-serif" font-size="11" lengthAdjust="spacingAndGlyphs" textLength="108" x="12" y="156.3484">-String designacao</text><!--MD5=[02456e6632d968d6f68141e5893c6991]
class AreaAtividade--><rect fill="#FEFECE" filter="url(#f9lb0w8ogzs3z)" height="78.4141" id="AreaAtividade" style="stroke: #A80036; stroke-width: 1.5;" width="141" x="1095" y="71.638"/><ellipse cx="1119.9" cy="87.638" fill="#ADD1B2" rx="11" ry="11" style="stroke: #A80036; stroke-width: 1.0;"/><path d="M1122.2438,83.3099 C1121.3063,82.8724 1120.7125,82.7318 1119.8375,82.7318 C1117.2125,82.7318 1115.2125,84.8099 1115.2125,87.5286 L1115.2125,88.6536 C1115.2125,91.2318 1117.3219,93.1224 1120.2125,93.1224 C1121.4313,93.1224 1122.5875,92.8255 1123.3375,92.2786 C1123.9156,91.8724 1124.2438,91.4193 1124.2438,91.0286 C1124.2438,90.5755 1123.8531,90.1849 1123.3844,90.1849 C1123.1656,90.1849 1122.9625,90.263 1122.775,90.4505 C1122.3219,90.9349 1122.3219,90.9349 1122.1344,91.0286 C1121.7125,91.2943 1121.025,91.4193 1120.2594,91.4193 C1118.2125,91.4193 1116.9156,90.3255 1116.9156,88.6224 L1116.9156,87.5286 C1116.9156,85.7474 1118.1656,84.4349 1119.9,84.4349 C1120.4781,84.4349 1121.0875,84.5911 1121.5563,84.8411 C1122.0406,85.1224 1122.2125,85.3411 1122.3063,85.7474 C1122.3688,86.1536 1122.4,86.2786 1122.5406,86.4036 C1122.6813,86.5443 1122.9156,86.6536 1123.1344,86.6536 C1123.4,86.6536 1123.6656,86.513 1123.8375,86.2943 C1123.9469,86.138 1123.9781,85.9505 1123.9781,85.5286 L1123.9781,84.1068 C1123.9781,83.6693 1123.9625,83.5443 1123.8688,83.388 C1123.7125,83.1224 1123.4313,82.9818 1123.1344,82.9818 C1122.8375,82.9818 1122.6344,83.0755 1122.4156,83.388 L1122.2438,83.3099 Z "/><text fill="#000000" font-family="sans-serif" font-size="12" lengthAdjust="spacingAndGlyphs" textLength="87" x="1136.1" y="91.7923">AreaAtividade</text><line style="stroke: #A80036; stroke-width: 1.5;" x1="1096" x2="1235" y1="103.638" y2="103.638"/><text fill="#000000" font-family="sans-serif" font-size="11" lengthAdjust="spacingAndGlyphs" textLength="79" x="1101" y="117.8484">-String codigo</text><text fill="#000000" font-family="sans-serif" font-size="11" lengthAdjust="spacingAndGlyphs" textLength="106" x="1101" y="130.6531">-String descBreve</text><text fill="#000000" font-family="sans-serif" font-size="11" lengthAdjust="spacingAndGlyphs" textLength="129" x="1101" y="143.4578">-String descDetalhada</text><!--MD5=[a322db5a7ec64d2ff8f2d6cf1831dcec]
class CompetenciaTecnica--><rect fill="#FEFECE" filter="url(#f9lb0w8ogzs3z)" height="78.4141" id="CompetenciaTecnica" style="stroke: #A80036; stroke-width: 1.5;" width="161" x="784" y="169.638"/><ellipse cx="799" cy="185.638" fill="#ADD1B2" rx="11" ry="11" style="stroke: #A80036; stroke-width: 1.0;"/><path d="M801.3438,181.3099 C800.4063,180.8724 799.8125,180.7318 798.9375,180.7318 C796.3125,180.7318 794.3125,182.8099 794.3125,185.5286 L794.3125,186.6536 C794.3125,189.2318 796.4219,191.1224 799.3125,191.1224 C800.5313,191.1224 801.6875,190.8255 802.4375,190.2786 C803.0156,189.8724 803.3438,189.4193 803.3438,189.0286 C803.3438,188.5755 802.9531,188.1849 802.4844,188.1849 C802.2656,188.1849 802.0625,188.263 801.875,188.4505 C801.4219,188.9349 801.4219,188.9349 801.2344,189.0286 C800.8125,189.2943 800.125,189.4193 799.3594,189.4193 C797.3125,189.4193 796.0156,188.3255 796.0156,186.6224 L796.0156,185.5286 C796.0156,183.7474 797.2656,182.4349 799,182.4349 C799.5781,182.4349 800.1875,182.5911 800.6563,182.8411 C801.1406,183.1224 801.3125,183.3411 801.4063,183.7474 C801.4688,184.1536 801.5,184.2786 801.6406,184.4036 C801.7813,184.5443 802.0156,184.6536 802.2344,184.6536 C802.5,184.6536 802.7656,184.513 802.9375,184.2943 C803.0469,184.138 803.0781,183.9505 803.0781,183.5286 L803.0781,182.1068 C803.0781,181.6693 803.0625,181.5443 802.9688,181.388 C802.8125,181.1224 802.5313,180.9818 802.2344,180.9818 C801.9375,180.9818 801.7344,181.0755 801.5156,181.388 L801.3438,181.3099 Z "/><text fill="#000000" font-family="sans-serif" font-size="12" lengthAdjust="spacingAndGlyphs" textLength="129" x="813" y="189.7923">CompetenciaTecnica</text><line style="stroke: #A80036; stroke-width: 1.5;" x1="785" x2="944" y1="201.638" y2="201.638"/><text fill="#000000" font-family="sans-serif" font-size="11" lengthAdjust="spacingAndGlyphs" textLength="79" x="790" y="215.8484">-String codigo</text><text fill="#000000" font-family="sans-serif" font-size="11" lengthAdjust="spacingAndGlyphs" textLength="106" x="790" y="228.6531">-String descBreve</text><text fill="#000000" font-family="sans-serif" font-size="11" lengthAdjust="spacingAndGlyphs" textLength="129" x="790" y="241.4578">-String descDetalhada</text><!--MD5=[7e1ce8ab2bf669717f28e918f4971b9a]
class Categoria--><rect fill="#FEFECE" filter="url(#f9lb0w8ogzs3z)" height="65.6094" id="Categoria" style="stroke: #A80036; stroke-width: 1.5;" width="110" x="242" y="103.638"/><ellipse cx="264.2" cy="119.638" fill="#ADD1B2" rx="11" ry="11" style="stroke: #A80036; stroke-width: 1.0;"/><path d="M266.5438,115.3099 C265.6063,114.8724 265.0125,114.7318 264.1375,114.7318 C261.5125,114.7318 259.5125,116.8099 259.5125,119.5286 L259.5125,120.6536 C259.5125,123.2318 261.6219,125.1224 264.5125,125.1224 C265.7313,125.1224 266.8875,124.8255 267.6375,124.2786 C268.2156,123.8724 268.5438,123.4193 268.5438,123.0286 C268.5438,122.5755 268.1531,122.1849 267.6844,122.1849 C267.4656,122.1849 267.2625,122.263 267.075,122.4505 C266.6219,122.9349 266.6219,122.9349 266.4344,123.0286 C266.0125,123.2943 265.325,123.4193 264.5594,123.4193 C262.5125,123.4193 261.2156,122.3255 261.2156,120.6224 L261.2156,119.5286 C261.2156,117.7474 262.4656,116.4349 264.2,116.4349 C264.7781,116.4349 265.3875,116.5911 265.8563,116.8411 C266.3406,117.1224 266.5125,117.3411 266.6063,117.7474 C266.6688,118.1536 266.7,118.2786 266.8406,118.4036 C266.9813,118.5443 267.2156,118.6536 267.4344,118.6536 C267.7,118.6536 267.9656,118.513 268.1375,118.2943 C268.2469,118.138 268.2781,117.9505 268.2781,117.5286 L268.2781,116.1068 C268.2781,115.6693 268.2625,115.5443 268.1688,115.388 C268.0125,115.1224 267.7313,114.9818 267.4344,114.9818 C267.1375,114.9818 266.9344,115.0755 266.7156,115.388 L266.5438,115.3099 Z "/><text fill="#000000" font-family="sans-serif" font-size="12" lengthAdjust="spacingAndGlyphs" textLength="62" x="279.8" y="123.7923">Categoria</text><line style="stroke: #A80036; stroke-width: 1.5;" x1="243" x2="351" y1="135.638" y2="135.638"/><text fill="#000000" font-family="sans-serif" font-size="11" lengthAdjust="spacingAndGlyphs" textLength="52" x="248" y="149.8484">-String id</text><text fill="#000000" font-family="sans-serif" font-size="11" lengthAdjust="spacingAndGlyphs" textLength="98" x="248" y="162.6531">-String descricao</text><!--MD5=[b0f240be72c8ea8a063442502d85fc08]
class CaraterCT--><rect fill="#FEFECE" filter="url(#f9lb0w8ogzs3z)" height="52.8047" id="CaraterCT" style="stroke: #A80036; stroke-width: 1.5;" width="129" x="471" y="205.1382"/><ellipse cx="500.85" cy="221.1382" fill="#ADD1B2" rx="11" ry="11" style="stroke: #A80036; stroke-width: 1.0;"/><path d="M503.1938,216.8101 C502.2563,216.3726 501.6625,216.2319 500.7875,216.2319 C498.1625,216.2319 496.1625,218.3101 496.1625,221.0288 L496.1625,222.1538 C496.1625,224.7319 498.2719,226.6226 501.1625,226.6226 C502.3813,226.6226 503.5375,226.3257 504.2875,225.7788 C504.8656,225.3726 505.1938,224.9194 505.1938,224.5288 C505.1938,224.0757 504.8031,223.6851 504.3344,223.6851 C504.1156,223.6851 503.9125,223.7632 503.725,223.9507 C503.2719,224.4351 503.2719,224.4351 503.0844,224.5288 C502.6625,224.7944 501.975,224.9194 501.2094,224.9194 C499.1625,224.9194 497.8656,223.8257 497.8656,222.1226 L497.8656,221.0288 C497.8656,219.2476 499.1156,217.9351 500.85,217.9351 C501.4281,217.9351 502.0375,218.0913 502.5063,218.3413 C502.9906,218.6226 503.1625,218.8413 503.2563,219.2476 C503.3188,219.6538 503.35,219.7788 503.4906,219.9038 C503.6313,220.0444 503.8656,220.1538 504.0844,220.1538 C504.35,220.1538 504.6156,220.0132 504.7875,219.7944 C504.8969,219.6382 504.9281,219.4507 504.9281,219.0288 L504.9281,217.6069 C504.9281,217.1694 504.9125,217.0444 504.8188,216.8882 C504.6625,216.6226 504.3813,216.4819 504.0844,216.4819 C503.7875,216.4819 503.5844,216.5757 503.3656,216.8882 L503.1938,216.8101 Z "/><text fill="#000000" font-family="sans-serif" font-size="12" lengthAdjust="spacingAndGlyphs" textLength="64" x="518.15" y="225.2925">CaraterCT</text><line style="stroke: #A80036; stroke-width: 1.5;" x1="472" x2="599" y1="237.1382" y2="237.1382"/><text fill="#000000" font-family="sans-serif" font-size="11" lengthAdjust="spacingAndGlyphs" textLength="117" x="477" y="251.3486">-Boolean obrigatoria</text><!--MD5=[0d4fe674cc1d46ec0fc990086e50801a]
class GrauProficiencia--><rect fill="#FEFECE" filter="url(#f9lb0w8ogzs3z)" height="52.8047" id="GrauProficiencia" style="stroke: #A80036; stroke-width: 1.5;" width="133" x="1099" y="185.1382"/><ellipse cx="1114" cy="201.1382" fill="#ADD1B2" rx="11" ry="11" style="stroke: #A80036; stroke-width: 1.0;"/><path d="M1116.3438,196.8101 C1115.4063,196.3726 1114.8125,196.2319 1113.9375,196.2319 C1111.3125,196.2319 1109.3125,198.3101 1109.3125,201.0288 L1109.3125,202.1538 C1109.3125,204.7319 1111.4219,206.6226 1114.3125,206.6226 C1115.5313,206.6226 1116.6875,206.3257 1117.4375,205.7788 C1118.0156,205.3726 1118.3438,204.9194 1118.3438,204.5288 C1118.3438,204.0757 1117.9531,203.6851 1117.4844,203.6851 C1117.2656,203.6851 1117.0625,203.7632 1116.875,203.9507 C1116.4219,204.4351 1116.4219,204.4351 1116.2344,204.5288 C1115.8125,204.7944 1115.125,204.9194 1114.3594,204.9194 C1112.3125,204.9194 1111.0156,203.8257 1111.0156,202.1226 L1111.0156,201.0288 C1111.0156,199.2476 1112.2656,197.9351 1114,197.9351 C1114.5781,197.9351 1115.1875,198.0913 1115.6563,198.3413 C1116.1406,198.6226 1116.3125,198.8413 1116.4063,199.2476 C1116.4688,199.6538 1116.5,199.7788 1116.6406,199.9038 C1116.7813,200.0444 1117.0156,200.1538 1117.2344,200.1538 C1117.5,200.1538 1117.7656,200.0132 1117.9375,199.7944 C1118.0469,199.6382 1118.0781,199.4507 1118.0781,199.0288 L1118.0781,197.6069 C1118.0781,197.1694 1118.0625,197.0444 1117.9688,196.8882 C1117.8125,196.6226 1117.5313,196.4819 1117.2344,196.4819 C1116.9375,196.4819 1116.7344,196.5757 1116.5156,196.8882 L1116.3438,196.8101 Z "/><text fill="#000000" font-family="sans-serif" font-size="12" lengthAdjust="spacingAndGlyphs" textLength="101" x="1128" y="205.2925">GrauProficiencia</text><line style="stroke: #A80036; stroke-width: 1.5;" x1="1100" x2="1231" y1="217.1382" y2="217.1382"/><text fill="#000000" font-family="sans-serif" font-size="11" lengthAdjust="spacingAndGlyphs" textLength="108" x="1105" y="231.3486">-String designacao</text><ellipse cx="535.5" cy="167.638" fill="#000000" rx="2" ry="2" style="stroke: none; stroke-width: 1.0;"/><!--MD5=[718b46c9a1975c175f4073d63ce5ccba]
link Plataforma to AreaAtividade--><path d="M98.0085,110.096 C139.977,76.976 218.55,24.638 296,24.638 C296,24.638 296,24.638 865.5,24.638 C946.521,24.638 1035.25,54.164 1094.84,78.615 " fill="none" id="Plataforma-AreaAtividade" style="stroke: #A80036; stroke-width: 1.0;"/><text fill="#000000" font-family="sans-serif" font-size="13" lengthAdjust="spacingAndGlyphs" textLength="41" x="508.5" y="20.7049">possui</text><polygon fill="#000000" points="552.5,14.7044,558.5,17.7044,552.5,20.7044,552.5,14.7044" style="stroke: #000000; stroke-width: 1.0;"/><text fill="#000000" font-family="sans-serif" font-size="13" lengthAdjust="spacingAndGlyphs" textLength="8" x="96.8356" y="98.9051">1</text><text fill="#000000" font-family="sans-serif" font-size="13" lengthAdjust="spacingAndGlyphs" textLength="7" x="1080.1922" y="88.1385">*</text><!--MD5=[a77d152358ce76c19672aacd9fb0ada1]
link Plataforma to CompetenciaTecnica--><path d="M124.291,163.149 C201.193,197.1358 342.973,254.2296 471,275.6382 C527.548,285.0942 543.11,282.7576 600,275.6382 C662.761,267.784 732.015,249.7951 783.768,234.4331 " fill="none" id="Plataforma-CompetenciaTecnica" style="stroke: #A80036; stroke-width: 1.0;"/><text fill="#000000" font-family="sans-serif" font-size="13" lengthAdjust="spacingAndGlyphs" textLength="41" x="384.5" y="251.7051">possui</text><polygon fill="#000000" points="428.5,245.7046,434.5,248.7046,428.5,251.7046,428.5,245.7046" style="stroke: #000000; stroke-width: 1.0;"/><text fill="#000000" font-family="sans-serif" font-size="13" lengthAdjust="spacingAndGlyphs" textLength="8" x="128.8458" y="183.1189">1</text><text fill="#000000" font-family="sans-serif" font-size="13" lengthAdjust="spacingAndGlyphs" textLength="7" x="769.0029" y="249.5564">*</text><!--MD5=[cb8556493ec2c94f9603162dd119feba]
link Plataforma to Categoria--><path d="M126.271,136.638 C161.92,136.638 206.961,136.638 241.684,136.638 " fill="none" id="Plataforma-Categoria" style="stroke: #A80036; stroke-width: 1.0;"/><text fill="#000000" font-family="sans-serif" font-size="13" lengthAdjust="spacingAndGlyphs" textLength="41" x="157" y="132.7049">possui</text><polygon fill="#000000" points="201,126.7044,207,129.7044,201,132.7044,201,126.7044" style="stroke: #000000; stroke-width: 1.0;"/><text fill="#000000" font-family="sans-serif" font-size="13" lengthAdjust="spacingAndGlyphs" textLength="8" x="134.104" y="149.639">1</text><text fill="#000000" font-family="sans-serif" font-size="13" lengthAdjust="spacingAndGlyphs" textLength="7" x="227.1482" y="149.6994">*</text><!--MD5=[e538c9efa8de58386edc6206f3c58807]
link CompetenciaTecnica to AreaAtividade--><path d="M945.062,190.7007 C981.976,181.567 1026.18,169.467 1065,155.638 C1074.82,152.139 1085.02,148.067 1094.97,143.828 " fill="none" id="CompetenciaTecnica-AreaAtividade" style="stroke: #A80036; stroke-width: 1.0;"/><text fill="#000000" font-family="sans-serif" font-size="13" lengthAdjust="spacingAndGlyphs" textLength="75" x="976" y="151.7049">referente a</text><polygon fill="#000000" points="1054,145.7044,1060,148.7044,1054,151.7044,1054,145.7044" style="stroke: #000000; stroke-width: 1.0;"/><text fill="#000000" font-family="sans-serif" font-size="13" lengthAdjust="spacingAndGlyphs" textLength="7" x="953.0742" y="201.7594">*</text><text fill="#000000" font-family="sans-serif" font-size="13" lengthAdjust="spacingAndGlyphs" textLength="8" x="1078.8183" y="160.33">1</text><!--MD5=[0d731ff285a62a08178b23be6cceb109]
link CompetenciaTecnica to GrauProficiencia--><path d="M945.028,212.696 C955.114,213.0852 965.297,213.4168 975,213.6382 C1014.99,214.5507 1025,214.0402 1065,213.6382 C1075.97,213.528 1087.62,213.3494 1098.94,213.1431 " fill="none" id="CompetenciaTecnica-GrauProficiencia" style="stroke: #A80036; stroke-width: 1.0;"/><text fill="#000000" font-family="sans-serif" font-size="13" lengthAdjust="spacingAndGlyphs" textLength="41" x="993" y="209.7051">possui</text><polygon fill="#000000" points="1037,203.7046,1043,206.7046,1037,209.7046,1037,203.7046" style="stroke: #000000; stroke-width: 1.0;"/><text fill="#000000" font-family="sans-serif" font-size="13" lengthAdjust="spacingAndGlyphs" textLength="7" x="953.0369" y="225.8511">*</text><text fill="#000000" font-family="sans-serif" font-size="13" lengthAdjust="spacingAndGlyphs" textLength="8" x="1082.7815" y="226.2702">1</text><!--MD5=[333932e5e4606ec9852f0cecc179b212]
link Categoria to AreaAtividade--><path d="M352.203,135.012 C502.906,130.49 926.823,117.77 1094.74,112.731 " fill="none" id="Categoria-AreaAtividade" style="stroke: #A80036; stroke-width: 1.0;"/><text fill="#000000" font-family="sans-serif" font-size="13" lengthAdjust="spacingAndGlyphs" textLength="109" x="631" y="118.7049">enquadra-se em</text><polygon fill="#000000" points="743,112.7044,749,115.7044,743,118.7044,743,112.7044" style="stroke: #000000; stroke-width: 1.0;"/><text fill="#000000" font-family="sans-serif" font-size="13" lengthAdjust="spacingAndGlyphs" textLength="7" x="360.0912" y="147.9034">*</text><text fill="#000000" font-family="sans-serif" font-size="13" lengthAdjust="spacingAndGlyphs" textLength="8" x="1079.0304" y="125.7727">1</text><!--MD5=[9e971fe57dc2f965cecae2f346d8bf76]
link Categoria to apoint597--><path d="M352.006,150.056 C361.934,152.179 372.243,154.159 382,155.638 C444.493,165.114 522.597,167.343 533.271,167.609 " fill="none" id="Categoria-apoint597" style="stroke: #A80036; stroke-width: 1.0;"/><text fill="#000000" font-family="sans-serif" font-size="13" lengthAdjust="spacingAndGlyphs" textLength="44" x="383" y="151.7049">requer</text><polygon fill="#000000" points="430,145.7044,436,148.7044,430,151.7044,430,145.7044" style="stroke: #000000; stroke-width: 1.0;"/><text fill="#000000" font-family="sans-serif" font-size="13" lengthAdjust="spacingAndGlyphs" textLength="7" x="359.8677" y="164.9689">*</text><!--MD5=[578cf08fc25fb7ba218dcbc09c32033e]
link apoint597 to CompetenciaTecnica--><path d="M537.684,167.787 C551.96,169.577 692.141,187.1528 783.92,198.6603 " fill="none" id="apoint597-CompetenciaTecnica" style="stroke: #A80036; stroke-width: 1.0;"/><text fill="#000000" font-family="sans-serif" font-size="13" lengthAdjust="spacingAndGlyphs" textLength="7" x="768.9061" y="210.4776">*</text><!--MD5=[cb5a166c8548d253659d34a46ddc246f]
link apoint597 to CaraterCT--><path d="M535.5,169.689 C535.5,181.505 535.5,193.3218 535.5,205.1382 " fill="none" id="apoint597-CaraterCT" style="stroke: #A80036; stroke-width: 1.0; stroke-dasharray: 7.0,7.0;"/><!--MD5=[da008c68fa33ee2de5091c79bc9913e1]
@startuml
skinparam classAttributeIconSize 0
hide methods
left to right direction

class Plataforma {
  -String designacao
}

class AreaAtividade {
  -String codigo
  -String descBreve
  -String descDetalhada
}

class CompetenciaTecnica {
  -String codigo
  -String descBreve
  -String descDetalhada
}

class Categoria {
  -String id
  -String descricao
}

class CaraterCT {
  -Boolean obrigatoria
}

class GrauProficiencia{
  -String designacao
}

Plataforma "1" - - "*" AreaAtividade : possui >
Plataforma "1" - - "*" CompetenciaTecnica : possui >
Plataforma "1" - - "*" Categoria : possui >
CompetenciaTecnica "*" - - "1" AreaAtividade : referente a >
CompetenciaTecnica"*" - -"1" GrauProficiencia : possui >
Categoria "*" - - "1" AreaAtividade : enquadra-se em >
Categoria"*" - - "*" CompetenciaTecnica : requer  >
(Categoria, CompetenciaTecnica) .. CaraterCT
@enduml

PlantUML version 1.2020.09beta11(Unknown compile time)
(GPL source distribution)
Java Runtime: Java(TM) SE Runtime Environment
JVM: Java HotSpot(TM) 64-Bit Server VM
Java Version: 14.0.1+7
Operating System: Linux
Default Encoding: UTF-8
Language: en
Country: US
--></g></svg>