<?xml version="1.0" encoding="UTF-8" standalone="no"?><svg xmlns="http://www.w3.org/2000/svg" xmlns:xlink="http://www.w3.org/1999/xlink" contentScriptType="application/ecmascript" contentStyleType="text/css" height="1900px" preserveAspectRatio="none" style="width:955px;height:1900px;" version="1.1" viewBox="0 0 955 1900" width="955px" zoomAndPan="magnify"><defs><filter height="300%" id="fxo9wabjn08ko" width="300%" x="-1" y="-1"><feGaussianBlur result="blurOut" stdDeviation="2.0"/><feColorMatrix in="blurOut" result="blurOut2" type="matrix" values="0 0 0 0 0 0 0 0 0 0 0 0 0 0 0 0 0 0 .4 0"/><feOffset dx="4.0" dy="4.0" in="blurOut2" result="blurOut3"/><feBlend in="SourceGraphic" in2="blurOut3" mode="normal"/></filter></defs><g><!--MD5=[ecaed46f78f8cfe1e9ce18477649be18]
class Plataforma--><rect fill="#FEFECE" filter="url(#fxo9wabjn08ko)" height="89.5078" id="Plataforma" style="stroke: #A80036; stroke-width: 1.5;" width="220" x="106" y="468.5"/><ellipse cx="181.75" cy="484.5" fill="#ADD1B2" rx="11" ry="11" style="stroke: #A80036; stroke-width: 1.0;"/><path d="M183.75,481 Q183.9531,480.5 184.1875,480.25 Q184.4219,480 184.6875,480 Q185.1563,480 185.4531,480.2813 Q185.75,480.5625 185.75,481.2188 L185.75,482.7813 Q185.75,483.4375 185.4688,483.7188 Q185.1875,484 184.75,484 Q184.3594,484 184.1094,483.8281 Q183.8594,483.6563 183.75,483.2031 Q183.7031,482.8906 183.5313,482.7188 Q183.2188,482.3906 182.6563,482.2031 Q182.0938,482 181.5313,482 Q180.8281,482 180.2344,482.2813 Q179.6563,482.5625 179.2031,483.1875 Q178.75,483.8125 178.75,484.6719 L178.75,485.5938 Q178.75,486.625 179.5938,487.3125 Q180.4375,488 181.9375,488 Q182.8281,488 183.4531,487.7969 Q183.8125,487.6875 184.2188,487.3281 Q184.4844,487.125 184.625,487.0625 Q184.7656,487 184.9375,487 Q185.2656,487 185.5,487.2656 Q185.75,487.5156 185.75,487.875 Q185.75,488.2188 185.4063,488.625 Q184.9063,489.2188 184.1094,489.5469 Q183.0625,490 181.7813,490 Q180.2813,490 179.0781,489.4063 Q178.1094,488.9375 177.4219,487.9219 Q176.75,486.9063 176.75,485.7031 L176.75,484.6094 Q176.75,483.3594 177.3438,482.2656 Q177.9531,481.1719 179,480.5938 Q180.0625,480 181.25,480 Q181.9688,480 182.5938,480.25 Q183.2188,480.5 183.75,481 Z "/><text fill="#000000" font-family="sans-serif" font-size="12" lengthAdjust="spacingAndGlyphs" textLength="60" x="202.25" y="489.4102">Plataforma</text><line style="stroke: #A80036; stroke-width: 1.5;" x1="107" x2="325" y1="500.5" y2="500.5"/><text fill="#000000" font-family="sans-serif" font-size="11" lengthAdjust="spacingAndGlyphs" textLength="91" x="112" y="515.9189">-String designacao</text><line style="stroke: #A80036; stroke-width: 1.5;" x1="107" x2="325" y1="522.3359" y2="522.3359"/><text fill="#000000" font-family="sans-serif" font-size="11" lengthAdjust="spacingAndGlyphs" textLength="184" x="112" y="537.7549">+RegistoAnuncio getRegistoAnuncio()</text><text fill="#000000" font-family="sans-serif" font-size="11" lengthAdjust="spacingAndGlyphs" textLength="208" x="112" y="551.5908">+RegistoFreelancer getRegistoFreelancer()</text><!--MD5=[a322db5a7ec64d2ff8f2d6cf1831dcec]
class CompetenciaTecnica--><rect fill="#FEFECE" filter="url(#fxo9wabjn08ko)" height="117.1797" id="CompetenciaTecnica" style="stroke: #A80036; stroke-width: 1.5;" width="167" x="339.5" y="1605"/><ellipse cx="362.6" cy="1621" fill="#ADD1B2" rx="11" ry="11" style="stroke: #A80036; stroke-width: 1.0;"/><path d="M364.6,1617.5 Q364.8031,1617 365.0375,1616.75 Q365.2719,1616.5 365.5375,1616.5 Q366.0063,1616.5 366.3031,1616.7813 Q366.6,1617.0625 366.6,1617.7188 L366.6,1619.2813 Q366.6,1619.9375 366.3188,1620.2188 Q366.0375,1620.5 365.6,1620.5 Q365.2094,1620.5 364.9594,1620.3281 Q364.7094,1620.1563 364.6,1619.7031 Q364.5531,1619.3906 364.3813,1619.2188 Q364.0688,1618.8906 363.5063,1618.7031 Q362.9438,1618.5 362.3813,1618.5 Q361.6781,1618.5 361.0844,1618.7813 Q360.5063,1619.0625 360.0531,1619.6875 Q359.6,1620.3125 359.6,1621.1719 L359.6,1622.0938 Q359.6,1623.125 360.4438,1623.8125 Q361.2875,1624.5 362.7875,1624.5 Q363.6781,1624.5 364.3031,1624.2969 Q364.6625,1624.1875 365.0688,1623.8281 Q365.3344,1623.625 365.475,1623.5625 Q365.6156,1623.5 365.7875,1623.5 Q366.1156,1623.5 366.35,1623.7656 Q366.6,1624.0156 366.6,1624.375 Q366.6,1624.7188 366.2563,1625.125 Q365.7563,1625.7188 364.9594,1626.0469 Q363.9125,1626.5 362.6313,1626.5 Q361.1313,1626.5 359.9281,1625.9063 Q358.9594,1625.4375 358.2719,1624.4219 Q357.6,1623.4063 357.6,1622.2031 L357.6,1621.1094 Q357.6,1619.8594 358.1938,1618.7656 Q358.8031,1617.6719 359.85,1617.0938 Q360.9125,1616.5 362.1,1616.5 Q362.8188,1616.5 363.4438,1616.75 Q364.0688,1617 364.6,1617.5 Z "/><text fill="#000000" font-family="sans-serif" font-size="12" lengthAdjust="spacingAndGlyphs" textLength="117" x="378.4" y="1625.9102">CompetenciaTecnica</text><line style="stroke: #A80036; stroke-width: 1.5;" x1="340.5" x2="505.5" y1="1637" y2="1637"/><text fill="#000000" font-family="sans-serif" font-size="11" lengthAdjust="spacingAndGlyphs" textLength="53" x="345.5" y="1652.4189">-String cod</text><text fill="#000000" font-family="sans-serif" font-size="11" lengthAdjust="spacingAndGlyphs" textLength="88" x="345.5" y="1666.2549">-String descBreve</text><text fill="#000000" font-family="sans-serif" font-size="11" lengthAdjust="spacingAndGlyphs" textLength="107" x="345.5" y="1680.0908">-String descDetalhada</text><text fill="#000000" font-family="sans-serif" font-size="11" lengthAdjust="spacingAndGlyphs" textLength="143" x="345.5" y="1693.9268">-AreaAtividade areaAtividade</text><line style="stroke: #A80036; stroke-width: 1.5;" x1="340.5" x2="505.5" y1="1700.3438" y2="1700.3438"/><text fill="#000000" font-family="sans-serif" font-size="11" lengthAdjust="spacingAndGlyphs" textLength="155" x="345.5" y="1715.7627">+void getListaGrauProficiencia()</text><!--MD5=[a80139b28afc2c06ab4e607adcf43583]
class GrauDeProficiencia--><rect fill="#FEFECE" filter="url(#fxo9wabjn08ko)" height="89.5078" id="GrauDeProficiencia" style="stroke: #A80036; stroke-width: 1.5;" width="139" x="252.5" y="1800"/><ellipse cx="267.5" cy="1816" fill="#ADD1B2" rx="11" ry="11" style="stroke: #A80036; stroke-width: 1.0;"/><path d="M269.5,1812.5 Q269.7031,1812 269.9375,1811.75 Q270.1719,1811.5 270.4375,1811.5 Q270.9063,1811.5 271.2031,1811.7813 Q271.5,1812.0625 271.5,1812.7188 L271.5,1814.2813 Q271.5,1814.9375 271.2188,1815.2188 Q270.9375,1815.5 270.5,1815.5 Q270.1094,1815.5 269.8594,1815.3281 Q269.6094,1815.1563 269.5,1814.7031 Q269.4531,1814.3906 269.2813,1814.2188 Q268.9688,1813.8906 268.4063,1813.7031 Q267.8438,1813.5 267.2813,1813.5 Q266.5781,1813.5 265.9844,1813.7813 Q265.4063,1814.0625 264.9531,1814.6875 Q264.5,1815.3125 264.5,1816.1719 L264.5,1817.0938 Q264.5,1818.125 265.3438,1818.8125 Q266.1875,1819.5 267.6875,1819.5 Q268.5781,1819.5 269.2031,1819.2969 Q269.5625,1819.1875 269.9688,1818.8281 Q270.2344,1818.625 270.375,1818.5625 Q270.5156,1818.5 270.6875,1818.5 Q271.0156,1818.5 271.25,1818.7656 Q271.5,1819.0156 271.5,1819.375 Q271.5,1819.7188 271.1563,1820.125 Q270.6563,1820.7188 269.8594,1821.0469 Q268.8125,1821.5 267.5313,1821.5 Q266.0313,1821.5 264.8281,1820.9063 Q263.8594,1820.4375 263.1719,1819.4219 Q262.5,1818.4063 262.5,1817.2031 L262.5,1816.1094 Q262.5,1814.8594 263.0938,1813.7656 Q263.7031,1812.6719 264.75,1812.0938 Q265.8125,1811.5 267,1811.5 Q267.7188,1811.5 268.3438,1811.75 Q268.9688,1812 269.5,1812.5 Z "/><text fill="#000000" font-family="sans-serif" font-size="12" lengthAdjust="spacingAndGlyphs" textLength="107" x="281.5" y="1820.9102">GrauDeProficiencia</text><line style="stroke: #A80036; stroke-width: 1.5;" x1="253.5" x2="390.5" y1="1832" y2="1832"/><text fill="#000000" font-family="sans-serif" font-size="11" lengthAdjust="spacingAndGlyphs" textLength="91" x="258.5" y="1847.4189">-String designacao</text><text fill="#000000" font-family="sans-serif" font-size="11" lengthAdjust="spacingAndGlyphs" textLength="116" x="258.5" y="1861.2549">-Integer valorPelaTarefa</text><line style="stroke: #A80036; stroke-width: 1.5;" x1="253.5" x2="390.5" y1="1867.6719" y2="1867.6719"/><text fill="#000000" font-family="sans-serif" font-size="11" lengthAdjust="spacingAndGlyphs" textLength="55" x="258.5" y="1883.0908">+getValor()</text><!--MD5=[07e49a45eace4b6c31c4cdd00887c4eb]
class EfetuarCandidaturaUI--><rect fill="#FEFECE" filter="url(#fxo9wabjn08ko)" height="48" id="EfetuarCandidaturaUI" style="stroke: #A80036; stroke-width: 1.5;" width="151" x="374.5" y="8"/><ellipse cx="389.5" cy="24" fill="#ADD1B2" rx="11" ry="11" style="stroke: #A80036; stroke-width: 1.0;"/><path d="M391.5,20.5 Q391.7031,20 391.9375,19.75 Q392.1719,19.5 392.4375,19.5 Q392.9063,19.5 393.2031,19.7813 Q393.5,20.0625 393.5,20.7188 L393.5,22.2813 Q393.5,22.9375 393.2188,23.2188 Q392.9375,23.5 392.5,23.5 Q392.1094,23.5 391.8594,23.3281 Q391.6094,23.1563 391.5,22.7031 Q391.4531,22.3906 391.2813,22.2188 Q390.9688,21.8906 390.4063,21.7031 Q389.8438,21.5 389.2813,21.5 Q388.5781,21.5 387.9844,21.7813 Q387.4063,22.0625 386.9531,22.6875 Q386.5,23.3125 386.5,24.1719 L386.5,25.0938 Q386.5,26.125 387.3438,26.8125 Q388.1875,27.5 389.6875,27.5 Q390.5781,27.5 391.2031,27.2969 Q391.5625,27.1875 391.9688,26.8281 Q392.2344,26.625 392.375,26.5625 Q392.5156,26.5 392.6875,26.5 Q393.0156,26.5 393.25,26.7656 Q393.5,27.0156 393.5,27.375 Q393.5,27.7188 393.1563,28.125 Q392.6563,28.7188 391.8594,29.0469 Q390.8125,29.5 389.5313,29.5 Q388.0313,29.5 386.8281,28.9063 Q385.8594,28.4375 385.1719,27.4219 Q384.5,26.4063 384.5,25.2031 L384.5,24.1094 Q384.5,22.8594 385.0938,21.7656 Q385.7031,20.6719 386.75,20.0938 Q387.8125,19.5 389,19.5 Q389.7188,19.5 390.3438,19.75 Q390.9688,20 391.5,20.5 Z "/><text fill="#000000" font-family="sans-serif" font-size="12" lengthAdjust="spacingAndGlyphs" textLength="119" x="403.5" y="28.9102">EfetuarCandidaturaUI</text><line style="stroke: #A80036; stroke-width: 1.5;" x1="375.5" x2="524.5" y1="40" y2="40"/><line style="stroke: #A80036; stroke-width: 1.5;" x1="375.5" x2="524.5" y1="48" y2="48"/><!--MD5=[b8e872367bee618a85762746880ee638]
class EfetuarCandidaturaController--><rect fill="#FEFECE" filter="url(#fxo9wabjn08ko)" height="103.3438" id="EfetuarCandidaturaController" style="stroke: #A80036; stroke-width: 1.5;" width="291" x="304.5" y="117"/><ellipse cx="365.25" cy="133" fill="#ADD1B2" rx="11" ry="11" style="stroke: #A80036; stroke-width: 1.0;"/><path d="M367.25,129.5 Q367.4531,129 367.6875,128.75 Q367.9219,128.5 368.1875,128.5 Q368.6563,128.5 368.9531,128.7813 Q369.25,129.0625 369.25,129.7188 L369.25,131.2813 Q369.25,131.9375 368.9688,132.2188 Q368.6875,132.5 368.25,132.5 Q367.8594,132.5 367.6094,132.3281 Q367.3594,132.1563 367.25,131.7031 Q367.2031,131.3906 367.0313,131.2188 Q366.7188,130.8906 366.1563,130.7031 Q365.5938,130.5 365.0313,130.5 Q364.3281,130.5 363.7344,130.7813 Q363.1563,131.0625 362.7031,131.6875 Q362.25,132.3125 362.25,133.1719 L362.25,134.0938 Q362.25,135.125 363.0938,135.8125 Q363.9375,136.5 365.4375,136.5 Q366.3281,136.5 366.9531,136.2969 Q367.3125,136.1875 367.7188,135.8281 Q367.9844,135.625 368.125,135.5625 Q368.2656,135.5 368.4375,135.5 Q368.7656,135.5 369,135.7656 Q369.25,136.0156 369.25,136.375 Q369.25,136.7188 368.9063,137.125 Q368.4063,137.7188 367.6094,138.0469 Q366.5625,138.5 365.2813,138.5 Q363.7813,138.5 362.5781,137.9063 Q361.6094,137.4375 360.9219,136.4219 Q360.25,135.4063 360.25,134.2031 L360.25,133.1094 Q360.25,131.8594 360.8438,130.7656 Q361.4531,129.6719 362.5,129.0938 Q363.5625,128.5 364.75,128.5 Q365.4688,128.5 366.0938,128.75 Q366.7188,129 367.25,129.5 Z "/><text fill="#000000" font-family="sans-serif" font-size="12" lengthAdjust="spacingAndGlyphs" textLength="161" x="385.75" y="137.9102">EfetuarCandidaturaController</text><line style="stroke: #A80036; stroke-width: 1.5;" x1="305.5" x2="594.5" y1="149" y2="149"/><line style="stroke: #A80036; stroke-width: 1.5;" x1="305.5" x2="594.5" y1="157" y2="157"/><text fill="#000000" font-family="sans-serif" font-size="11" lengthAdjust="spacingAndGlyphs" textLength="212" x="310.5" y="172.4189">+List&lt;Anuncio&gt; getListaAnunciosElegiveis()</text><text fill="#000000" font-family="sans-serif" font-size="11" lengthAdjust="spacingAndGlyphs" textLength="183" x="310.5" y="186.2549">+Anuncio getAnuncio(int anuncioCod)</text><text fill="#000000" font-family="sans-serif" font-size="11" lengthAdjust="spacingAndGlyphs" textLength="279" x="310.5" y="200.0908">+void novaCandidatura(double valor, int dias, String texto)</text><text fill="#000000" font-family="sans-serif" font-size="11" lengthAdjust="spacingAndGlyphs" textLength="128" x="310.5" y="213.9268">+void registaCandidatura()</text><!--MD5=[380d12a68ed0046a60f31008a02875d0]
class AplicacaoPOT--><rect fill="#FEFECE" filter="url(#fxo9wabjn08ko)" height="75.6719" id="AplicacaoPOT" style="stroke: #A80036; stroke-width: 1.5;" width="187" x="217.5" y="294.5"/><ellipse cx="268.25" cy="310.5" fill="#ADD1B2" rx="11" ry="11" style="stroke: #A80036; stroke-width: 1.0;"/><path d="M270.25,307 Q270.4531,306.5 270.6875,306.25 Q270.9219,306 271.1875,306 Q271.6563,306 271.9531,306.2813 Q272.25,306.5625 272.25,307.2188 L272.25,308.7813 Q272.25,309.4375 271.9688,309.7188 Q271.6875,310 271.25,310 Q270.8594,310 270.6094,309.8281 Q270.3594,309.6563 270.25,309.2031 Q270.2031,308.8906 270.0313,308.7188 Q269.7188,308.3906 269.1563,308.2031 Q268.5938,308 268.0313,308 Q267.3281,308 266.7344,308.2813 Q266.1563,308.5625 265.7031,309.1875 Q265.25,309.8125 265.25,310.6719 L265.25,311.5938 Q265.25,312.625 266.0938,313.3125 Q266.9375,314 268.4375,314 Q269.3281,314 269.9531,313.7969 Q270.3125,313.6875 270.7188,313.3281 Q270.9844,313.125 271.125,313.0625 Q271.2656,313 271.4375,313 Q271.7656,313 272,313.2656 Q272.25,313.5156 272.25,313.875 Q272.25,314.2188 271.9063,314.625 Q271.4063,315.2188 270.6094,315.5469 Q269.5625,316 268.2813,316 Q266.7813,316 265.5781,315.4063 Q264.6094,314.9375 263.9219,313.9219 Q263.25,312.9063 263.25,311.7031 L263.25,310.6094 Q263.25,309.3594 263.8438,308.2656 Q264.4531,307.1719 265.5,306.5938 Q266.5625,306 267.75,306 Q268.4688,306 269.0938,306.25 Q269.7188,306.5 270.25,307 Z "/><text fill="#000000" font-family="sans-serif" font-size="12" lengthAdjust="spacingAndGlyphs" textLength="77" x="288.75" y="315.4102">AplicacaoPOT</text><line style="stroke: #A80036; stroke-width: 1.5;" x1="218.5" x2="403.5" y1="326.5" y2="326.5"/><line style="stroke: #A80036; stroke-width: 1.5;" x1="218.5" x2="403.5" y1="334.5" y2="334.5"/><text fill="#000000" font-family="sans-serif" font-size="11" lengthAdjust="spacingAndGlyphs" textLength="141" x="223.5" y="349.9189">+AplicacaoPOT getInstance()</text><text fill="#000000" font-family="sans-serif" font-size="11" lengthAdjust="spacingAndGlyphs" textLength="175" x="223.5" y="363.7549">+SessaoUtilizador getSessaoAtual()</text><!--MD5=[1e13576e8c070e32200b62ceaa1f39ec]
class SessaoUtilizador--><rect fill="#FEFECE" filter="url(#fxo9wabjn08ko)" height="61.8359" id="SessaoUtilizador" style="stroke: #A80036; stroke-width: 1.5;" width="140" x="440" y="301.5"/><ellipse cx="461.3" cy="317.5" fill="#ADD1B2" rx="11" ry="11" style="stroke: #A80036; stroke-width: 1.0;"/><path d="M463.3,314 Q463.5031,313.5 463.7375,313.25 Q463.9719,313 464.2375,313 Q464.7063,313 465.0031,313.2813 Q465.3,313.5625 465.3,314.2188 L465.3,315.7813 Q465.3,316.4375 465.0188,316.7188 Q464.7375,317 464.3,317 Q463.9094,317 463.6594,316.8281 Q463.4094,316.6563 463.3,316.2031 Q463.2531,315.8906 463.0813,315.7188 Q462.7688,315.3906 462.2063,315.2031 Q461.6438,315 461.0813,315 Q460.3781,315 459.7844,315.2813 Q459.2063,315.5625 458.7531,316.1875 Q458.3,316.8125 458.3,317.6719 L458.3,318.5938 Q458.3,319.625 459.1438,320.3125 Q459.9875,321 461.4875,321 Q462.3781,321 463.0031,320.7969 Q463.3625,320.6875 463.7688,320.3281 Q464.0344,320.125 464.175,320.0625 Q464.3156,320 464.4875,320 Q464.8156,320 465.05,320.2656 Q465.3,320.5156 465.3,320.875 Q465.3,321.2188 464.9563,321.625 Q464.4563,322.2188 463.6594,322.5469 Q462.6125,323 461.3313,323 Q459.8313,323 458.6281,322.4063 Q457.6594,321.9375 456.9719,320.9219 Q456.3,319.9063 456.3,318.7031 L456.3,317.6094 Q456.3,316.3594 456.8938,315.2656 Q457.5031,314.1719 458.55,313.5938 Q459.6125,313 460.8,313 Q461.5188,313 462.1438,313.25 Q462.7688,313.5 463.3,314 Z "/><text fill="#000000" font-family="sans-serif" font-size="12" lengthAdjust="spacingAndGlyphs" textLength="94" x="476.7" y="322.4102">SessaoUtilizador</text><line style="stroke: #A80036; stroke-width: 1.5;" x1="441" x2="579" y1="333.5" y2="333.5"/><line style="stroke: #A80036; stroke-width: 1.5;" x1="441" x2="579" y1="341.5" y2="341.5"/><text fill="#000000" font-family="sans-serif" font-size="11" lengthAdjust="spacingAndGlyphs" textLength="128" x="446" y="356.9189">+String getEmailUtilizador()</text><!--MD5=[5989a2e3174efcfc62cf38168ac2ffc8]
class RegistoFreelancer--><rect fill="#FEFECE" filter="url(#fxo9wabjn08ko)" height="61.8359" id="RegistoFreelancer" style="stroke: #A80036; stroke-width: 1.5;" width="258" x="47" y="749"/><ellipse cx="120.75" cy="765" fill="#ADD1B2" rx="11" ry="11" style="stroke: #A80036; stroke-width: 1.0;"/><path d="M122.75,761.5 Q122.9531,761 123.1875,760.75 Q123.4219,760.5 123.6875,760.5 Q124.1563,760.5 124.4531,760.7813 Q124.75,761.0625 124.75,761.7188 L124.75,763.2813 Q124.75,763.9375 124.4688,764.2188 Q124.1875,764.5 123.75,764.5 Q123.3594,764.5 123.1094,764.3281 Q122.8594,764.1563 122.75,763.7031 Q122.7031,763.3906 122.5313,763.2188 Q122.2188,762.8906 121.6563,762.7031 Q121.0938,762.5 120.5313,762.5 Q119.8281,762.5 119.2344,762.7813 Q118.6563,763.0625 118.2031,763.6875 Q117.75,764.3125 117.75,765.1719 L117.75,766.0938 Q117.75,767.125 118.5938,767.8125 Q119.4375,768.5 120.9375,768.5 Q121.8281,768.5 122.4531,768.2969 Q122.8125,768.1875 123.2188,767.8281 Q123.4844,767.625 123.625,767.5625 Q123.7656,767.5 123.9375,767.5 Q124.2656,767.5 124.5,767.7656 Q124.75,768.0156 124.75,768.375 Q124.75,768.7188 124.4063,769.125 Q123.9063,769.7188 123.1094,770.0469 Q122.0625,770.5 120.7813,770.5 Q119.2813,770.5 118.0781,769.9063 Q117.1094,769.4375 116.4219,768.4219 Q115.75,767.4063 115.75,766.2031 L115.75,765.1094 Q115.75,763.8594 116.3438,762.7656 Q116.9531,761.6719 118,761.0938 Q119.0625,760.5 120.25,760.5 Q120.9688,760.5 121.5938,760.75 Q122.2188,761 122.75,761.5 Z "/><text fill="#000000" font-family="sans-serif" font-size="12" lengthAdjust="spacingAndGlyphs" textLength="102" x="141.25" y="769.9102">RegistoFreelancer</text><line style="stroke: #A80036; stroke-width: 1.5;" x1="48" x2="304" y1="781" y2="781"/><line style="stroke: #A80036; stroke-width: 1.5;" x1="48" x2="304" y1="789" y2="789"/><text fill="#000000" font-family="sans-serif" font-size="11" lengthAdjust="spacingAndGlyphs" textLength="246" x="53" y="804.4189">+Freelancer getFreelancerByEmail(String emailUtlz)</text><!--MD5=[1f687b5315377fe49fca59b457947463]
class Freelancer--><rect fill="#FEFECE" filter="url(#fxo9wabjn08ko)" height="131.0156" id="Freelancer" style="stroke: #A80036; stroke-width: 1.5;" width="340" x="6" y="1413"/><ellipse cx="142.25" cy="1429" fill="#ADD1B2" rx="11" ry="11" style="stroke: #A80036; stroke-width: 1.0;"/><path d="M144.25,1425.5 Q144.4531,1425 144.6875,1424.75 Q144.9219,1424.5 145.1875,1424.5 Q145.6563,1424.5 145.9531,1424.7813 Q146.25,1425.0625 146.25,1425.7188 L146.25,1427.2813 Q146.25,1427.9375 145.9688,1428.2188 Q145.6875,1428.5 145.25,1428.5 Q144.8594,1428.5 144.6094,1428.3281 Q144.3594,1428.1563 144.25,1427.7031 Q144.2031,1427.3906 144.0313,1427.2188 Q143.7188,1426.8906 143.1563,1426.7031 Q142.5938,1426.5 142.0313,1426.5 Q141.3281,1426.5 140.7344,1426.7813 Q140.1563,1427.0625 139.7031,1427.6875 Q139.25,1428.3125 139.25,1429.1719 L139.25,1430.0938 Q139.25,1431.125 140.0938,1431.8125 Q140.9375,1432.5 142.4375,1432.5 Q143.3281,1432.5 143.9531,1432.2969 Q144.3125,1432.1875 144.7188,1431.8281 Q144.9844,1431.625 145.125,1431.5625 Q145.2656,1431.5 145.4375,1431.5 Q145.7656,1431.5 146,1431.7656 Q146.25,1432.0156 146.25,1432.375 Q146.25,1432.7188 145.9063,1433.125 Q145.4063,1433.7188 144.6094,1434.0469 Q143.5625,1434.5 142.2813,1434.5 Q140.7813,1434.5 139.5781,1433.9063 Q138.6094,1433.4375 137.9219,1432.4219 Q137.25,1431.4063 137.25,1430.2031 L137.25,1429.1094 Q137.25,1427.8594 137.8438,1426.7656 Q138.4531,1425.6719 139.5,1425.0938 Q140.5625,1424.5 141.75,1424.5 Q142.4688,1424.5 143.0938,1424.75 Q143.7188,1425 144.25,1425.5 Z "/><text fill="#000000" font-family="sans-serif" font-size="12" lengthAdjust="spacingAndGlyphs" textLength="59" x="162.75" y="1433.9102">Freelancer</text><line style="stroke: #A80036; stroke-width: 1.5;" x1="7" x2="345" y1="1445" y2="1445"/><text fill="#000000" font-family="sans-serif" font-size="11" lengthAdjust="spacingAndGlyphs" textLength="61" x="12" y="1460.4189">-String nome</text><text fill="#000000" font-family="sans-serif" font-size="11" lengthAdjust="spacingAndGlyphs" textLength="50" x="12" y="1474.2549">-String NIF</text><text fill="#000000" font-family="sans-serif" font-size="11" lengthAdjust="spacingAndGlyphs" textLength="127" x="12" y="1488.0908">-String contactoTelefonico</text><text fill="#000000" font-family="sans-serif" font-size="11" lengthAdjust="spacingAndGlyphs" textLength="59" x="12" y="1501.9268">-String email</text><line style="stroke: #A80036; stroke-width: 1.5;" x1="7" x2="345" y1="1508.3438" y2="1508.3438"/><text fill="#000000" font-family="sans-serif" font-size="11" lengthAdjust="spacingAndGlyphs" textLength="169" x="12" y="1523.7627">+boolean temEmail(String emailUtlz)</text><text fill="#000000" font-family="sans-serif" font-size="11" lengthAdjust="spacingAndGlyphs" textLength="328" x="12" y="1537.5986">+Integer compararCompetencias(CompetenciaTecnica competencia)</text><!--MD5=[d04b607798738b5a80618641aa4c1381]
class RegistoAnuncio--><rect fill="#FEFECE" filter="url(#fxo9wabjn08ko)" height="75.6719" id="RegistoAnuncio" style="stroke: #A80036; stroke-width: 1.5;" width="329" x="229.5" y="643"/><ellipse cx="346.25" cy="659" fill="#ADD1B2" rx="11" ry="11" style="stroke: #A80036; stroke-width: 1.0;"/><path d="M348.25,655.5 Q348.4531,655 348.6875,654.75 Q348.9219,654.5 349.1875,654.5 Q349.6563,654.5 349.9531,654.7813 Q350.25,655.0625 350.25,655.7188 L350.25,657.2813 Q350.25,657.9375 349.9688,658.2188 Q349.6875,658.5 349.25,658.5 Q348.8594,658.5 348.6094,658.3281 Q348.3594,658.1563 348.25,657.7031 Q348.2031,657.3906 348.0313,657.2188 Q347.7188,656.8906 347.1563,656.7031 Q346.5938,656.5 346.0313,656.5 Q345.3281,656.5 344.7344,656.7813 Q344.1563,657.0625 343.7031,657.6875 Q343.25,658.3125 343.25,659.1719 L343.25,660.0938 Q343.25,661.125 344.0938,661.8125 Q344.9375,662.5 346.4375,662.5 Q347.3281,662.5 347.9531,662.2969 Q348.3125,662.1875 348.7188,661.8281 Q348.9844,661.625 349.125,661.5625 Q349.2656,661.5 349.4375,661.5 Q349.7656,661.5 350,661.7656 Q350.25,662.0156 350.25,662.375 Q350.25,662.7188 349.9063,663.125 Q349.4063,663.7188 348.6094,664.0469 Q347.5625,664.5 346.2813,664.5 Q344.7813,664.5 343.5781,663.9063 Q342.6094,663.4375 341.9219,662.4219 Q341.25,661.4063 341.25,660.2031 L341.25,659.1094 Q341.25,657.8594 341.8438,656.7656 Q342.4531,655.6719 343.5,655.0938 Q344.5625,654.5 345.75,654.5 Q346.4688,654.5 347.0938,654.75 Q347.7188,655 348.25,655.5 Z "/><text fill="#000000" font-family="sans-serif" font-size="12" lengthAdjust="spacingAndGlyphs" textLength="87" x="366.75" y="663.9102">RegistoAnuncio</text><line style="stroke: #A80036; stroke-width: 1.5;" x1="230.5" x2="557.5" y1="675" y2="675"/><line style="stroke: #A80036; stroke-width: 1.5;" x1="230.5" x2="557.5" y1="683" y2="683"/><text fill="#000000" font-family="sans-serif" font-size="11" lengthAdjust="spacingAndGlyphs" textLength="317" x="235.5" y="698.4189">+List&lt;Anuncio&gt; getListaAnunciosElegiveis(Freelancer freelancer)</text><text fill="#000000" font-family="sans-serif" font-size="11" lengthAdjust="spacingAndGlyphs" textLength="205" x="235.5" y="712.2549">+Anuncio getAnuncio(Integer anuncioCod)</text><!--MD5=[19db0db7353a4bf63eefc676e5ba9b80]
class Anuncio--><rect fill="#FEFECE" filter="url(#fxo9wabjn08ko)" height="117.1797" id="Anuncio" style="stroke: #A80036; stroke-width: 1.5;" width="212" x="288" y="841"/><ellipse cx="367.75" cy="857" fill="#ADD1B2" rx="11" ry="11" style="stroke: #A80036; stroke-width: 1.0;"/><path d="M369.75,853.5 Q369.9531,853 370.1875,852.75 Q370.4219,852.5 370.6875,852.5 Q371.1563,852.5 371.4531,852.7813 Q371.75,853.0625 371.75,853.7188 L371.75,855.2813 Q371.75,855.9375 371.4688,856.2188 Q371.1875,856.5 370.75,856.5 Q370.3594,856.5 370.1094,856.3281 Q369.8594,856.1563 369.75,855.7031 Q369.7031,855.3906 369.5313,855.2188 Q369.2188,854.8906 368.6563,854.7031 Q368.0938,854.5 367.5313,854.5 Q366.8281,854.5 366.2344,854.7813 Q365.6563,855.0625 365.2031,855.6875 Q364.75,856.3125 364.75,857.1719 L364.75,858.0938 Q364.75,859.125 365.5938,859.8125 Q366.4375,860.5 367.9375,860.5 Q368.8281,860.5 369.4531,860.2969 Q369.8125,860.1875 370.2188,859.8281 Q370.4844,859.625 370.625,859.5625 Q370.7656,859.5 370.9375,859.5 Q371.2656,859.5 371.5,859.7656 Q371.75,860.0156 371.75,860.375 Q371.75,860.7188 371.4063,861.125 Q370.9063,861.7188 370.1094,862.0469 Q369.0625,862.5 367.7813,862.5 Q366.2813,862.5 365.0781,861.9063 Q364.1094,861.4375 363.4219,860.4219 Q362.75,859.4063 362.75,858.2031 L362.75,857.1094 Q362.75,855.8594 363.3438,854.7656 Q363.9531,853.6719 365,853.0938 Q366.0625,852.5 367.25,852.5 Q367.9688,852.5 368.5938,852.75 Q369.2188,853 369.75,853.5 Z "/><text fill="#000000" font-family="sans-serif" font-size="12" lengthAdjust="spacingAndGlyphs" textLength="44" x="388.25" y="861.9102">Anuncio</text><line style="stroke: #A80036; stroke-width: 1.5;" x1="289" x2="499" y1="873" y2="873"/><text fill="#000000" font-family="sans-serif" font-size="11" lengthAdjust="spacingAndGlyphs" textLength="97" x="294" y="888.4189">-Periodo periodoPub</text><text fill="#000000" font-family="sans-serif" font-size="11" lengthAdjust="spacingAndGlyphs" textLength="97" x="294" y="902.2549">-Periodo periodoApr</text><text fill="#000000" font-family="sans-serif" font-size="11" lengthAdjust="spacingAndGlyphs" textLength="96" x="294" y="916.0908">-Periodo periodoSer</text><line style="stroke: #A80036; stroke-width: 1.5;" x1="289" x2="499" y1="922.5078" y2="922.5078"/><text fill="#000000" font-family="sans-serif" font-size="11" lengthAdjust="spacingAndGlyphs" textLength="96" x="294" y="937.9268">+Tarefa getTarefa()</text><text fill="#000000" font-family="sans-serif" font-size="11" lengthAdjust="spacingAndGlyphs" textLength="200" x="294" y="951.7627">+List&lt;Candidatura&gt; getListaCandidatura()</text><!--MD5=[27c2d4bbe9f7b9d3b0ea2797cc54308a]
class Tarefa--><rect fill="#FEFECE" filter="url(#fxo9wabjn08ko)" height="131.0156" id="Tarefa" style="stroke: #A80036; stroke-width: 1.5;" width="213" x="287.5" y="1036"/><ellipse cx="372.25" cy="1052" fill="#ADD1B2" rx="11" ry="11" style="stroke: #A80036; stroke-width: 1.0;"/><path d="M374.25,1048.5 Q374.4531,1048 374.6875,1047.75 Q374.9219,1047.5 375.1875,1047.5 Q375.6563,1047.5 375.9531,1047.7813 Q376.25,1048.0625 376.25,1048.7188 L376.25,1050.2813 Q376.25,1050.9375 375.9688,1051.2188 Q375.6875,1051.5 375.25,1051.5 Q374.8594,1051.5 374.6094,1051.3281 Q374.3594,1051.1563 374.25,1050.7031 Q374.2031,1050.3906 374.0313,1050.2188 Q373.7188,1049.8906 373.1563,1049.7031 Q372.5938,1049.5 372.0313,1049.5 Q371.3281,1049.5 370.7344,1049.7813 Q370.1563,1050.0625 369.7031,1050.6875 Q369.25,1051.3125 369.25,1052.1719 L369.25,1053.0938 Q369.25,1054.125 370.0938,1054.8125 Q370.9375,1055.5 372.4375,1055.5 Q373.3281,1055.5 373.9531,1055.2969 Q374.3125,1055.1875 374.7188,1054.8281 Q374.9844,1054.625 375.125,1054.5625 Q375.2656,1054.5 375.4375,1054.5 Q375.7656,1054.5 376,1054.7656 Q376.25,1055.0156 376.25,1055.375 Q376.25,1055.7188 375.9063,1056.125 Q375.4063,1056.7188 374.6094,1057.0469 Q373.5625,1057.5 372.2813,1057.5 Q370.7813,1057.5 369.5781,1056.9063 Q368.6094,1056.4375 367.9219,1055.4219 Q367.25,1054.4063 367.25,1053.2031 L367.25,1052.1094 Q367.25,1050.8594 367.8438,1049.7656 Q368.4531,1048.6719 369.5,1048.0938 Q370.5625,1047.5 371.75,1047.5 Q372.4688,1047.5 373.0938,1047.75 Q373.7188,1048 374.25,1048.5 Z "/><text fill="#000000" font-family="sans-serif" font-size="12" lengthAdjust="spacingAndGlyphs" textLength="35" x="392.75" y="1056.9102">Tarefa</text><line style="stroke: #A80036; stroke-width: 1.5;" x1="288.5" x2="499.5" y1="1068" y2="1068"/><text fill="#000000" font-family="sans-serif" font-size="11" lengthAdjust="spacingAndGlyphs" textLength="85" x="293.5" y="1083.4189">-String referencia</text><text fill="#000000" font-family="sans-serif" font-size="11" lengthAdjust="spacingAndGlyphs" textLength="91" x="293.5" y="1097.2549">-String designacao</text><text fill="#000000" font-family="sans-serif" font-size="11" lengthAdjust="spacingAndGlyphs" textLength="65" x="293.5" y="1111.0908">-String dsTec</text><text fill="#000000" font-family="sans-serif" font-size="11" lengthAdjust="spacingAndGlyphs" textLength="95" x="293.5" y="1124.9268">-Integer duracaoEst</text><text fill="#000000" font-family="sans-serif" font-size="11" lengthAdjust="spacingAndGlyphs" textLength="81" x="293.5" y="1138.7627">-double custoEst</text><line style="stroke: #A80036; stroke-width: 1.5;" x1="288.5" x2="499.5" y1="1145.1797" y2="1145.1797"/><text fill="#000000" font-family="sans-serif" font-size="11" lengthAdjust="spacingAndGlyphs" textLength="201" x="293.5" y="1160.5986">+CategoriaTarefa getCategoriaDeTarefa()</text><!--MD5=[6fa14b346b4b5c2b3247f8e7c37afd04]
class CategoriaTarefa--><rect fill="#FEFECE" filter="url(#fxo9wabjn08ko)" height="89.5078" id="CategoriaTarefa" style="stroke: #A80036; stroke-width: 1.5;" width="305" x="241.5" y="1245"/><ellipse cx="345.25" cy="1261" fill="#ADD1B2" rx="11" ry="11" style="stroke: #A80036; stroke-width: 1.0;"/><path d="M347.25,1257.5 Q347.4531,1257 347.6875,1256.75 Q347.9219,1256.5 348.1875,1256.5 Q348.6563,1256.5 348.9531,1256.7813 Q349.25,1257.0625 349.25,1257.7188 L349.25,1259.2813 Q349.25,1259.9375 348.9688,1260.2188 Q348.6875,1260.5 348.25,1260.5 Q347.8594,1260.5 347.6094,1260.3281 Q347.3594,1260.1563 347.25,1259.7031 Q347.2031,1259.3906 347.0313,1259.2188 Q346.7188,1258.8906 346.1563,1258.7031 Q345.5938,1258.5 345.0313,1258.5 Q344.3281,1258.5 343.7344,1258.7813 Q343.1563,1259.0625 342.7031,1259.6875 Q342.25,1260.3125 342.25,1261.1719 L342.25,1262.0938 Q342.25,1263.125 343.0938,1263.8125 Q343.9375,1264.5 345.4375,1264.5 Q346.3281,1264.5 346.9531,1264.2969 Q347.3125,1264.1875 347.7188,1263.8281 Q347.9844,1263.625 348.125,1263.5625 Q348.2656,1263.5 348.4375,1263.5 Q348.7656,1263.5 349,1263.7656 Q349.25,1264.0156 349.25,1264.375 Q349.25,1264.7188 348.9063,1265.125 Q348.4063,1265.7188 347.6094,1266.0469 Q346.5625,1266.5 345.2813,1266.5 Q343.7813,1266.5 342.5781,1265.9063 Q341.6094,1265.4375 340.9219,1264.4219 Q340.25,1263.4063 340.25,1262.2031 L340.25,1261.1094 Q340.25,1259.8594 340.8438,1258.7656 Q341.4531,1257.6719 342.5,1257.0938 Q343.5625,1256.5 344.75,1256.5 Q345.4688,1256.5 346.0938,1256.75 Q346.7188,1257 347.25,1257.5 Z "/><text fill="#000000" font-family="sans-serif" font-size="12" lengthAdjust="spacingAndGlyphs" textLength="89" x="365.75" y="1265.9102">CategoriaTarefa</text><line style="stroke: #A80036; stroke-width: 1.5;" x1="242.5" x2="545.5" y1="1277" y2="1277"/><text fill="#000000" font-family="sans-serif" font-size="11" lengthAdjust="spacingAndGlyphs" textLength="43" x="247.5" y="1292.4189">-String id</text><text fill="#000000" font-family="sans-serif" font-size="11" lengthAdjust="spacingAndGlyphs" textLength="83" x="247.5" y="1306.2549">-String descricao</text><line style="stroke: #A80036; stroke-width: 1.5;" x1="242.5" x2="545.5" y1="1312.6719" y2="1312.6719"/><text fill="#000000" font-family="sans-serif" font-size="11" lengthAdjust="spacingAndGlyphs" textLength="293" x="247.5" y="1328.0908">+boolean getPermissaoParaAdicionar(Freelancer freelancer)</text><!--MD5=[1d8aa98091123bff90ff3eeff52b11fd]
class Reconhecimento--><rect fill="#FEFECE" filter="url(#fxo9wabjn08ko)" height="89.5078" id="Reconhecimento" style="stroke: #A80036; stroke-width: 1.5;" width="244" x="59" y="1618.5"/><ellipse cx="129.75" cy="1634.5" fill="#ADD1B2" rx="11" ry="11" style="stroke: #A80036; stroke-width: 1.0;"/><path d="M131.75,1631 Q131.9531,1630.5 132.1875,1630.25 Q132.4219,1630 132.6875,1630 Q133.1563,1630 133.4531,1630.2813 Q133.75,1630.5625 133.75,1631.2188 L133.75,1632.7813 Q133.75,1633.4375 133.4688,1633.7188 Q133.1875,1634 132.75,1634 Q132.3594,1634 132.1094,1633.8281 Q131.8594,1633.6563 131.75,1633.2031 Q131.7031,1632.8906 131.5313,1632.7188 Q131.2188,1632.3906 130.6563,1632.2031 Q130.0938,1632 129.5313,1632 Q128.8281,1632 128.2344,1632.2813 Q127.6563,1632.5625 127.2031,1633.1875 Q126.75,1633.8125 126.75,1634.6719 L126.75,1635.5938 Q126.75,1636.625 127.5938,1637.3125 Q128.4375,1638 129.9375,1638 Q130.8281,1638 131.4531,1637.7969 Q131.8125,1637.6875 132.2188,1637.3281 Q132.4844,1637.125 132.625,1637.0625 Q132.7656,1637 132.9375,1637 Q133.2656,1637 133.5,1637.2656 Q133.75,1637.5156 133.75,1637.875 Q133.75,1638.2188 133.4063,1638.625 Q132.9063,1639.2188 132.1094,1639.5469 Q131.0625,1640 129.7813,1640 Q128.2813,1640 127.0781,1639.4063 Q126.1094,1638.9375 125.4219,1637.9219 Q124.75,1636.9063 124.75,1635.7031 L124.75,1634.6094 Q124.75,1633.3594 125.3438,1632.2656 Q125.9531,1631.1719 127,1630.5938 Q128.0625,1630 129.25,1630 Q129.9688,1630 130.5938,1630.25 Q131.2188,1630.5 131.75,1631 Z "/><text fill="#000000" font-family="sans-serif" font-size="12" lengthAdjust="spacingAndGlyphs" textLength="94" x="150.25" y="1639.4102">Reconhecimento</text><line style="stroke: #A80036; stroke-width: 1.5;" x1="60" x2="302" y1="1650.5" y2="1650.5"/><text fill="#000000" font-family="sans-serif" font-size="11" lengthAdjust="spacingAndGlyphs" textLength="50" x="65" y="1665.9189">-Data data</text><line style="stroke: #A80036; stroke-width: 1.5;" x1="60" x2="302" y1="1672.3359" y2="1672.3359"/><text fill="#000000" font-family="sans-serif" font-size="11" lengthAdjust="spacingAndGlyphs" textLength="232" x="65" y="1687.7549">+CompetenciaTecnica getCompetenciaTecnica()</text><text fill="#000000" font-family="sans-serif" font-size="11" lengthAdjust="spacingAndGlyphs" textLength="145" x="65" y="1701.5908">+Integer getGrauProficiencia()</text><!--MD5=[5524571f9a52e9d48fc650f9abc383c5]
class ListaCandidatura--><rect fill="#FEFECE" filter="url(#fxo9wabjn08ko)" height="103.3438" id="ListaCandidatura" style="stroke: #A80036; stroke-width: 1.5;" width="329" x="615.5" y="281"/><ellipse cx="728.25" cy="297" fill="#ADD1B2" rx="11" ry="11" style="stroke: #A80036; stroke-width: 1.0;"/><path d="M730.25,293.5 Q730.4531,293 730.6875,292.75 Q730.9219,292.5 731.1875,292.5 Q731.6563,292.5 731.9531,292.7813 Q732.25,293.0625 732.25,293.7188 L732.25,295.2813 Q732.25,295.9375 731.9688,296.2188 Q731.6875,296.5 731.25,296.5 Q730.8594,296.5 730.6094,296.3281 Q730.3594,296.1563 730.25,295.7031 Q730.2031,295.3906 730.0313,295.2188 Q729.7188,294.8906 729.1563,294.7031 Q728.5938,294.5 728.0313,294.5 Q727.3281,294.5 726.7344,294.7813 Q726.1563,295.0625 725.7031,295.6875 Q725.25,296.3125 725.25,297.1719 L725.25,298.0938 Q725.25,299.125 726.0938,299.8125 Q726.9375,300.5 728.4375,300.5 Q729.3281,300.5 729.9531,300.2969 Q730.3125,300.1875 730.7188,299.8281 Q730.9844,299.625 731.125,299.5625 Q731.2656,299.5 731.4375,299.5 Q731.7656,299.5 732,299.7656 Q732.25,300.0156 732.25,300.375 Q732.25,300.7188 731.9063,301.125 Q731.4063,301.7188 730.6094,302.0469 Q729.5625,302.5 728.2813,302.5 Q726.7813,302.5 725.5781,301.9063 Q724.6094,301.4375 723.9219,300.4219 Q723.25,299.4063 723.25,298.2031 L723.25,297.1094 Q723.25,295.8594 723.8438,294.7656 Q724.4531,293.6719 725.5,293.0938 Q726.5625,292.5 727.75,292.5 Q728.4688,292.5 729.0938,292.75 Q729.7188,293 730.25,293.5 Z "/><text fill="#000000" font-family="sans-serif" font-size="12" lengthAdjust="spacingAndGlyphs" textLength="95" x="748.75" y="301.9102">ListaCandidatura</text><line style="stroke: #A80036; stroke-width: 1.5;" x1="616.5" x2="943.5" y1="313" y2="313"/><line style="stroke: #A80036; stroke-width: 1.5;" x1="616.5" x2="943.5" y1="321" y2="321"/><text fill="#000000" font-family="sans-serif" font-size="11" lengthAdjust="spacingAndGlyphs" textLength="317" x="621.5" y="336.4189">+Candidatura novaCandidatura(double valor, int dias, String texto)</text><text fill="#000000" font-family="sans-serif" font-size="11" lengthAdjust="spacingAndGlyphs" textLength="241" x="621.5" y="350.2549">+void validaCandidatura(Candidatura candidatura)</text><text fill="#000000" font-family="sans-serif" font-size="11" lengthAdjust="spacingAndGlyphs" textLength="246" x="621.5" y="364.0908">+void registaCandidatura(Candidatura candidatura)</text><text fill="#000000" font-family="sans-serif" font-size="11" lengthAdjust="spacingAndGlyphs" textLength="227" x="621.5" y="377.9268">+void addCandidatira(Candidatura candidatura)</text><!--MD5=[475c5b924ed41035684e2831311827d2]
class Candidatura--><rect fill="#FEFECE" filter="url(#fxo9wabjn08ko)" height="103.3438" id="Candidatura" style="stroke: #A80036; stroke-width: 1.5;" width="244" x="658" y="462"/><ellipse cx="741.75" cy="478" fill="#ADD1B2" rx="11" ry="11" style="stroke: #A80036; stroke-width: 1.0;"/><path d="M743.75,474.5 Q743.9531,474 744.1875,473.75 Q744.4219,473.5 744.6875,473.5 Q745.1563,473.5 745.4531,473.7813 Q745.75,474.0625 745.75,474.7188 L745.75,476.2813 Q745.75,476.9375 745.4688,477.2188 Q745.1875,477.5 744.75,477.5 Q744.3594,477.5 744.1094,477.3281 Q743.8594,477.1563 743.75,476.7031 Q743.7031,476.3906 743.5313,476.2188 Q743.2188,475.8906 742.6563,475.7031 Q742.0938,475.5 741.5313,475.5 Q740.8281,475.5 740.2344,475.7813 Q739.6563,476.0625 739.2031,476.6875 Q738.75,477.3125 738.75,478.1719 L738.75,479.0938 Q738.75,480.125 739.5938,480.8125 Q740.4375,481.5 741.9375,481.5 Q742.8281,481.5 743.4531,481.2969 Q743.8125,481.1875 744.2188,480.8281 Q744.4844,480.625 744.625,480.5625 Q744.7656,480.5 744.9375,480.5 Q745.2656,480.5 745.5,480.7656 Q745.75,481.0156 745.75,481.375 Q745.75,481.7188 745.4063,482.125 Q744.9063,482.7188 744.1094,483.0469 Q743.0625,483.5 741.7813,483.5 Q740.2813,483.5 739.0781,482.9063 Q738.1094,482.4375 737.4219,481.4219 Q736.75,480.4063 736.75,479.2031 L736.75,478.1094 Q736.75,476.8594 737.3438,475.7656 Q737.9531,474.6719 739,474.0938 Q740.0625,473.5 741.25,473.5 Q741.9688,473.5 742.5938,473.75 Q743.2188,474 743.75,474.5 Z "/><text fill="#000000" font-family="sans-serif" font-size="12" lengthAdjust="spacingAndGlyphs" textLength="68" x="762.25" y="482.9102">Candidatura</text><line style="stroke: #A80036; stroke-width: 1.5;" x1="659" x2="901" y1="494" y2="494"/><text fill="#000000" font-family="sans-serif" font-size="11" lengthAdjust="spacingAndGlyphs" textLength="63" x="664" y="509.4189">-double valor</text><text fill="#000000" font-family="sans-serif" font-size="11" lengthAdjust="spacingAndGlyphs" textLength="60" x="664" y="523.2549">-Integer dias</text><text fill="#000000" font-family="sans-serif" font-size="11" lengthAdjust="spacingAndGlyphs" textLength="59" x="664" y="537.0908">-String texto</text><line style="stroke: #A80036; stroke-width: 1.5;" x1="659" x2="901" y1="543.5078" y2="543.5078"/><text fill="#000000" font-family="sans-serif" font-size="11" lengthAdjust="spacingAndGlyphs" textLength="232" x="664" y="558.9268">+Candidatura(double valor, int dias, String texto)</text><!--MD5=[b0f240be72c8ea8a063442502d85fc08]
class CaraterCT--><rect fill="#FEFECE" filter="url(#fxo9wabjn08ko)" height="48" id="CaraterCT" style="stroke: #A80036; stroke-width: 1.5;" width="89" x="381.5" y="1454.5"/><ellipse cx="396.5" cy="1470.5" fill="#ADD1B2" rx="11" ry="11" style="stroke: #A80036; stroke-width: 1.0;"/><path d="M398.5,1467 Q398.7031,1466.5 398.9375,1466.25 Q399.1719,1466 399.4375,1466 Q399.9063,1466 400.2031,1466.2813 Q400.5,1466.5625 400.5,1467.2188 L400.5,1468.7813 Q400.5,1469.4375 400.2188,1469.7188 Q399.9375,1470 399.5,1470 Q399.1094,1470 398.8594,1469.8281 Q398.6094,1469.6563 398.5,1469.2031 Q398.4531,1468.8906 398.2813,1468.7188 Q397.9688,1468.3906 397.4063,1468.2031 Q396.8438,1468 396.2813,1468 Q395.5781,1468 394.9844,1468.2813 Q394.4063,1468.5625 393.9531,1469.1875 Q393.5,1469.8125 393.5,1470.6719 L393.5,1471.5938 Q393.5,1472.625 394.3438,1473.3125 Q395.1875,1474 396.6875,1474 Q397.5781,1474 398.2031,1473.7969 Q398.5625,1473.6875 398.9688,1473.3281 Q399.2344,1473.125 399.375,1473.0625 Q399.5156,1473 399.6875,1473 Q400.0156,1473 400.25,1473.2656 Q400.5,1473.5156 400.5,1473.875 Q400.5,1474.2188 400.1563,1474.625 Q399.6563,1475.2188 398.8594,1475.5469 Q397.8125,1476 396.5313,1476 Q395.0313,1476 393.8281,1475.4063 Q392.8594,1474.9375 392.1719,1473.9219 Q391.5,1472.9063 391.5,1471.7031 L391.5,1470.6094 Q391.5,1469.3594 392.0938,1468.2656 Q392.7031,1467.1719 393.75,1466.5938 Q394.8125,1466 396,1466 Q396.7188,1466 397.3438,1466.25 Q397.9688,1466.5 398.5,1467 Z "/><text fill="#000000" font-family="sans-serif" font-size="12" lengthAdjust="spacingAndGlyphs" textLength="57" x="410.5" y="1475.4102">CaraterCT</text><line style="stroke: #A80036; stroke-width: 1.5;" x1="382.5" x2="469.5" y1="1486.5" y2="1486.5"/><line style="stroke: #A80036; stroke-width: 1.5;" x1="382.5" x2="469.5" y1="1494.5" y2="1494.5"/><!--MD5=[8281e942cfe19eb10a542fb5901726e8]
link EfetuarCandidaturaUI to EfetuarCandidaturaController--><path d="M450,56.12 C450,71.36 450,92.02 450,111.4 " fill="none" id="EfetuarCandidaturaUI-&gt;EfetuarCandidaturaController" style="stroke: #A80036; stroke-width: 1.0; stroke-dasharray: 7.0,7.0;"/><polygon fill="#A80036" points="450,116.83,454,107.83,450,111.83,446,107.83,450,116.83" style="stroke: #A80036; stroke-width: 1.0;"/><!--MD5=[cfb51fdb70c5194bcf32d3318b41bcae]
link EfetuarCandidaturaController to Plataforma--><path d="M304.27,202.45 C263.632,219.07 224.06,243.93 200,281 C164.52,335.67 180.274,413.7 196.676,463.73 " fill="none" id="EfetuarCandidaturaController-&gt;Plataforma" style="stroke: #A80036; stroke-width: 1.0; stroke-dasharray: 7.0,7.0;"/><polygon fill="#A80036" points="198.263,468.48,199.2028,458.6761,196.6776,463.738,191.6156,461.2128,198.263,468.48" style="stroke: #A80036; stroke-width: 1.0;"/><!--MD5=[57332eb46e6bbe985261627fd31632ad]
link EfetuarCandidaturaController to AplicacaoPOT--><path d="M406.401,220.31 C386.988,242.94 364.429,269.23 346.124,290.56 " fill="none" id="EfetuarCandidaturaController-&gt;AplicacaoPOT" style="stroke: #A80036; stroke-width: 1.0; stroke-dasharray: 7.0,7.0;"/><polygon fill="#A80036" points="342.757,294.49,351.6535,290.2648,346.0131,290.6955,345.5824,285.0551,342.757,294.49" style="stroke: #A80036; stroke-width: 1.0;"/><!--MD5=[77eb47c1b571ae2954626aab15e64b13]
link AplicacaoPOT to Plataforma--><path d="M291.316,370.59 C277.026,397.51 257.55,434.21 241.984,463.54 " fill="none" id="AplicacaoPOT-&gt;Plataforma" style="stroke: #A80036; stroke-width: 1.0;"/><polygon fill="#A80036" points="239.52,468.18,247.2717,462.1045,241.8634,463.7632,240.2047,458.355,239.52,468.18" style="stroke: #A80036; stroke-width: 1.0;"/><text fill="#000000" font-family="sans-serif" font-size="13" lengthAdjust="spacingAndGlyphs" textLength="38" x="268" y="428.4951">possui</text><!--MD5=[aff73e1f55748a22e3dbc8c8608a5f9f]
link EfetuarCandidaturaController to SessaoUtilizador--><path d="M468.82,220.31 C477.958,244.99 488.711,274.02 496.937,296.23 " fill="none" id="EfetuarCandidaturaController-&gt;SessaoUtilizador" style="stroke: #A80036; stroke-width: 1.0; stroke-dasharray: 7.0,7.0;"/><polygon fill="#A80036" points="498.758,301.15,499.3715,291.3203,497.0158,296.4633,491.8728,294.1077,498.758,301.15" style="stroke: #A80036; stroke-width: 1.0;"/><!--MD5=[55f954b55e54745b7c08c873f2d7d50c]
link RegistoAnuncio to Anuncio--><path d="M394,719.22 C394,751.15 394,797.85 394,835.59 " fill="none" id="RegistoAnuncio-&gt;Anuncio" style="stroke: #A80036; stroke-width: 1.0;"/><polygon fill="#A80036" points="394,840.61,398,831.61,394,835.61,390,831.61,394,840.61" style="stroke: #A80036; stroke-width: 1.0;"/><text fill="#000000" font-family="sans-serif" font-size="13" lengthAdjust="spacingAndGlyphs" textLength="38" x="395" y="785.4951">possui</text><text fill="#000000" font-family="sans-serif" font-size="13" lengthAdjust="spacingAndGlyphs" textLength="7" x="386.4422" y="740.1356">1</text><text fill="#000000" font-family="sans-serif" font-size="13" lengthAdjust="spacingAndGlyphs" textLength="5" x="388.6953" y="829.9634">*</text><!--MD5=[439a6ad1de0b5aa57a973cae1bf36ce5]
link Anuncio to Tarefa--><path d="M394,958.08 C394,980.812 394,1007.134 394,1030.919 " fill="none" id="Anuncio-&gt;Tarefa" style="stroke: #A80036; stroke-width: 1.0;"/><polygon fill="#A80036" points="394,1035.954,398,1026.954,394,1030.954,390,1026.954,394,1035.954" style="stroke: #A80036; stroke-width: 1.0;"/><text fill="#000000" font-family="sans-serif" font-size="13" lengthAdjust="spacingAndGlyphs" textLength="38" x="395" y="1002.4951">possui</text><text fill="#000000" font-family="sans-serif" font-size="13" lengthAdjust="spacingAndGlyphs" textLength="7" x="386.5734" y="979.7">1</text><text fill="#000000" font-family="sans-serif" font-size="13" lengthAdjust="spacingAndGlyphs" textLength="5" x="388.7109" y="1024.9648">*</text><!--MD5=[05917f6a7518902eadec5ea1fb555066]
link Tarefa to CategoriaTarefa--><path d="M394,1167.205 C394,1190.97 394,1217.473 394,1239.672 " fill="none" id="Tarefa-&gt;CategoriaTarefa" style="stroke: #A80036; stroke-width: 1.0;"/><polygon fill="#A80036" points="394,1244.924,398,1235.924,394,1239.924,390,1235.924,394,1244.924" style="stroke: #A80036; stroke-width: 1.0;"/><text fill="#000000" font-family="sans-serif" font-size="13" lengthAdjust="spacingAndGlyphs" textLength="38" x="395" y="1211.4951">possui</text><text fill="#000000" font-family="sans-serif" font-size="13" lengthAdjust="spacingAndGlyphs" textLength="7" x="386.6391" y="1188.3183">1</text><text fill="#000000" font-family="sans-serif" font-size="13" lengthAdjust="spacingAndGlyphs" textLength="5" x="388.6016" y="1234.0274">*</text><!--MD5=[fa7015d6652efea235e2f3b75cf5f13c]
link EfetuarCandidaturaController to ListaCandidatura--><path d="M553.057,220.09 C590.946,238.69 633.934,259.79 672.228,278.59 " fill="none" id="EfetuarCandidaturaController-&gt;ListaCandidatura" style="stroke: #A80036; stroke-width: 1.0; stroke-dasharray: 7.0,7.0;"/><polygon fill="#A80036" points="676.874,280.87,670.5587,273.3124,672.386,278.666,667.0324,280.4932,676.874,280.87" style="stroke: #A80036; stroke-width: 1.0;"/><!--MD5=[95795e0b4ecb0b567ae2ce3910745252]
link RegistoFreelancer to Freelancer--><path d="M176,811.26 C176,852.88 176,930.119 176,996 C176,996 176,996 176,1291 C176,1329.576 176,1372.64 176,1407.66 " fill="none" id="RegistoFreelancer-&gt;Freelancer" style="stroke: #A80036; stroke-width: 1.0;"/><polygon fill="#A80036" points="176,1412.767,180,1403.767,176,1407.767,172,1403.767,176,1412.767" style="stroke: #A80036; stroke-width: 1.0;"/><text fill="#000000" font-family="sans-serif" font-size="13" lengthAdjust="spacingAndGlyphs" textLength="38" x="177" y="1106.9951">possui</text><text fill="#000000" font-family="sans-serif" font-size="13" lengthAdjust="spacingAndGlyphs" textLength="7" x="168.3328" y="832.2882">1</text><text fill="#000000" font-family="sans-serif" font-size="13" lengthAdjust="spacingAndGlyphs" textLength="20" x="154.9063" y="1402.2159">1..*</text><!--MD5=[dd9cc117d6bd9f0517070e72d2528d93]
link CategoriaTarefa to Freelancer--><path d="M342.337,1335.198 C316.43,1357.362 284.481,1384.694 255.531,1409.461 " fill="none" id="CategoriaTarefa-&gt;Freelancer" style="stroke: #A80036; stroke-width: 1.0;"/><polygon fill="#A80036" points="251.651,1412.78,261.0899,1409.9681,255.4501,1409.5293,255.8889,1403.8895,251.651,1412.78" style="stroke: #A80036; stroke-width: 1.0;"/><text fill="#000000" font-family="sans-serif" font-size="13" lengthAdjust="spacingAndGlyphs" textLength="38" x="306" y="1379.4951">possui</text><text fill="#000000" font-family="sans-serif" font-size="13" lengthAdjust="spacingAndGlyphs" textLength="5" x="330.0588" y="1355.8983">*</text><text fill="#000000" font-family="sans-serif" font-size="13" lengthAdjust="spacingAndGlyphs" textLength="7" x="252.5425" y="1402.2304">1</text><!--MD5=[8be29b51239d6373ad7882c862416dc3]
link CategoriaTarefa to CaraterCT--><path d="M401.584,1335.198 C407.646,1370.531 415.962,1419 421.156,1449.27 " fill="none" id="CategoriaTarefa-&gt;CaraterCT" style="stroke: #A80036; stroke-width: 1.0;"/><polygon fill="#A80036" points="422.025,1454.335,424.4475,1444.7887,421.1805,1449.4068,416.5624,1446.1399,422.025,1454.335" style="stroke: #A80036; stroke-width: 1.0;"/><text fill="#000000" font-family="sans-serif" font-size="13" lengthAdjust="spacingAndGlyphs" textLength="38" x="411" y="1379.4951">possui</text><text fill="#000000" font-family="sans-serif" font-size="13" lengthAdjust="spacingAndGlyphs" textLength="7" x="395.1328" y="1355.8983">1</text><text fill="#000000" font-family="sans-serif" font-size="13" lengthAdjust="spacingAndGlyphs" textLength="20" x="398.4439" y="1443.6329">0..*</text><!--MD5=[7fbeb7bcd2a7737111d998de4a14bf4d]
link Freelancer to Reconhecimento--><path d="M177.763,1544.019 C178.385,1566.788 179.074,1592.004 179.656,1613.301 " fill="none" id="Freelancer-&gt;Reconhecimento" style="stroke: #A80036; stroke-width: 1.0;"/><polygon fill="#A80036" points="179.794,1618.344,183.5456,1609.2377,179.6568,1613.3459,175.5486,1609.4571,179.794,1618.344" style="stroke: #A80036; stroke-width: 1.0;"/><text fill="#000000" font-family="sans-serif" font-size="13" lengthAdjust="spacingAndGlyphs" textLength="7" x="170.573" y="1565.5736">0</text><text fill="#000000" font-family="sans-serif" font-size="13" lengthAdjust="spacingAndGlyphs" textLength="15" x="163.4609" y="1607.7642">1..</text><!--MD5=[1cd1e36eff7549f94055b646415c3dcf]
link ListaCandidatura to Candidatura--><path d="M780,384.32 C780,406.9 780,433.55 780,456.68 " fill="none" id="ListaCandidatura-&gt;Candidatura" style="stroke: #A80036; stroke-width: 1.0;"/><polygon fill="#A80036" points="780,461.87,784,452.87,780,456.87,776,452.87,780,461.87" style="stroke: #A80036; stroke-width: 1.0;"/><text fill="#000000" font-family="sans-serif" font-size="13" lengthAdjust="spacingAndGlyphs" textLength="38" x="781" y="428.4951">possui</text><text fill="#000000" font-family="sans-serif" font-size="13" lengthAdjust="spacingAndGlyphs" textLength="7" x="772.5297" y="405.854">1</text><text fill="#000000" font-family="sans-serif" font-size="13" lengthAdjust="spacingAndGlyphs" textLength="5" x="774.6484" y="450.9802">*</text><!--MD5=[957336f8f7652c1733534e96e2968a5f]
link Plataforma to RegistoFreelancer--><path d="M209.305,558.77 C201.451,610.7 188.588,695.76 181.361,743.55 " fill="none" id="Plataforma-&gt;RegistoFreelancer" style="stroke: #A80036; stroke-width: 1.0;"/><polygon fill="#A80036" points="180.594,748.62,185.9106,740.3294,181.3511,743.6776,178.0028,739.1181,180.594,748.62" style="stroke: #A80036; stroke-width: 1.0;"/><text fill="#000000" font-family="sans-serif" font-size="13" lengthAdjust="spacingAndGlyphs" textLength="38" x="205" y="609.4951">possui</text><text fill="#000000" font-family="sans-serif" font-size="13" lengthAdjust="spacingAndGlyphs" textLength="7" x="200.935" y="579.48">1</text><text fill="#000000" font-family="sans-serif" font-size="13" lengthAdjust="spacingAndGlyphs" textLength="5" x="176.0259" y="738.0462">*</text><!--MD5=[ac0d90d37f4721c5fb6dbdc705ad2bcb]
link Plataforma to RegistoAnuncio--><path d="M263.701,558.85 C290.595,583.86 323.953,614.87 350.184,639.26 " fill="none" id="Plataforma-&gt;RegistoAnuncio" style="stroke: #A80036; stroke-width: 1.0;"/><polygon fill="#A80036" points="354.001,642.81,350.1212,633.7575,350.3346,639.4104,344.6818,639.6238,354.001,642.81" style="stroke: #A80036; stroke-width: 1.0;"/><text fill="#000000" font-family="sans-serif" font-size="13" lengthAdjust="spacingAndGlyphs" textLength="38" x="322" y="609.4951">possui</text><text fill="#000000" font-family="sans-serif" font-size="13" lengthAdjust="spacingAndGlyphs" textLength="7" x="262.6405" y="579.5707">1</text><text fill="#000000" font-family="sans-serif" font-size="13" lengthAdjust="spacingAndGlyphs" textLength="5" x="341.4309" y="632.1381">*</text><!--MD5=[c75634cbdcfa2b68969b4225848e5f92]
link CaraterCT to CompetenciaTecnica--><path d="M425.62,1502.677 C425.222,1526.961 424.579,1566.162 424.03,1599.662 " fill="none" id="CaraterCT-&gt;CompetenciaTecnica" style="stroke: #A80036; stroke-width: 1.0; stroke-dasharray: 7.0,7.0;"/><polygon fill="#A80036" points="423.943,1604.986,428.089,1596.0523,424.0244,1599.9867,420.0901,1595.9221,423.943,1604.986" style="stroke: #A80036; stroke-width: 1.0;"/><text fill="#000000" font-family="sans-serif" font-size="13" lengthAdjust="spacingAndGlyphs" textLength="7" x="417.6743" y="1524.0581">1</text><text fill="#000000" font-family="sans-serif" font-size="13" lengthAdjust="spacingAndGlyphs" textLength="5" x="418.7435" y="1593.97">*</text><!--MD5=[ecc869546fb20d91ae5d57e019435843]
link Reconhecimento to GrauDeProficiencia--><path d="M215.854,1708.871 C236.607,1735.291 262.954,1768.831 284.206,1795.8859 " fill="none" id="Reconhecimento-&gt;GrauDeProficiencia" style="stroke: #A80036; stroke-width: 1.0;"/><polygon fill="#A80036" points="287.303,1799.8289,284.8885,1790.2806,284.2141,1795.8971,278.5976,1795.2228,287.303,1799.8289" style="stroke: #A80036; stroke-width: 1.0;"/><text fill="#000000" font-family="sans-serif" font-size="13" lengthAdjust="spacingAndGlyphs" textLength="38" x="261" y="1766.4951">possui</text><text fill="#000000" font-family="sans-serif" font-size="13" lengthAdjust="spacingAndGlyphs" textLength="5" x="215.2016" y="1729.5945">*</text><text fill="#000000" font-family="sans-serif" font-size="13" lengthAdjust="spacingAndGlyphs" textLength="7" x="274.4541" y="1789.2469">1</text><!--MD5=[285ec5869a78c6143caff54380acf34e]
link CompetenciaTecnica to GrauDeProficiencia--><path d="M390.487,1722.283 C377.188,1745.919 361.974,1772.958 349.268,1795.5381 " fill="none" id="CompetenciaTecnica-&gt;GrauDeProficiencia" style="stroke: #A80036; stroke-width: 1.0;"/><polygon fill="#A80036" points="346.762,1799.9924,354.6616,1794.1106,349.214,1795.6349,347.6897,1790.1873,346.762,1799.9924" style="stroke: #A80036; stroke-width: 1.0;"/><text fill="#000000" font-family="sans-serif" font-size="13" lengthAdjust="spacingAndGlyphs" textLength="38" x="374" y="1766.4951">possui</text><text fill="#000000" font-family="sans-serif" font-size="13" lengthAdjust="spacingAndGlyphs" textLength="5" x="381.4386" y="1743.5098">*</text><text fill="#000000" font-family="sans-serif" font-size="13" lengthAdjust="spacingAndGlyphs" textLength="7" x="343.1506" y="1789.1062">1</text><!--MD5=[67ea3648f9340ab88de34eec43cd8a5f]
@startuml

skinparam classAttributeIconSize 0

class Plataforma {
  -String designacao
  +RegistoAnuncio getRegistoAnuncio()
  +RegistoFreelancer getRegistoFreelancer()
}

class CompetenciaTecnica {
  -String cod
  -String descBreve
  -String descDetalhada
  -AreaAtividade areaAtividade
  +void getListaGrauProficiencia()
}

class GrauDeProficiencia {
  -String designacao
  -Integer valorPelaTarefa
  +getValor()
}


class EfetuarCandidaturaUI {

}

class EfetuarCandidaturaController {
  +List<Anuncio> getListaAnunciosElegiveis()
  +Anuncio getAnuncio(int anuncioCod)
  +void novaCandidatura(double valor, int dias, String texto)
  +void registaCandidatura()
}

class AplicacaoPOT {
  +AplicacaoPOT getInstance()
  +SessaoUtilizador getSessaoAtual()
}

class SessaoUtilizador {
  +String getEmailUtilizador()
}

class RegistoFreelancer {
  +Freelancer getFreelancerByEmail(String emailUtlz)
}

class Freelancer {
  -String nome
  -String NIF
  -String contactoTelefonico
  -String email
  +boolean temEmail(String emailUtlz)
  +Integer compararCompetencias(CompetenciaTecnica competencia)
}

class RegistoAnuncio {
  +List<Anuncio> getListaAnunciosElegiveis(Freelancer freelancer)
  +Anuncio getAnuncio(Integer anuncioCod)
}

class Anuncio {
  -Periodo periodoPub
  -Periodo periodoApr
  -Periodo periodoSer
  +Tarefa getTarefa()
  +List<Candidatura> getListaCandidatura()
}

class Tarefa {
  -String referencia
  -String designacao
  -String dsTec
  -Integer duracaoEst
  -double custoEst
  +CategoriaTarefa getCategoriaDeTarefa()
}

class CategoriaTarefa {
  -String id
  -String descricao
  +boolean getPermissaoParaAdicionar(Freelancer freelancer)
}


class Reconhecimento {
  -Data data
  +CompetenciaTecnica getCompetenciaTecnica()
  +Integer getGrauProficiencia()
}

class ListaCandidatura {
  +Candidatura novaCandidatura(double valor, int dias, String texto)
  +void validaCandidatura(Candidatura candidatura)
  +void registaCandidatura(Candidatura candidatura)
  +void addCandidatira(Candidatura candidatura)
}

class Candidatura {
  -double valor
  -Integer dias
  -String texto
  +Candidatura(double valor, int dias, String texto)
}



EfetuarCandidaturaUI ..> EfetuarCandidaturaController
EfetuarCandidaturaController ..> Plataforma
EfetuarCandidaturaController ..> AplicacaoPOT
AplicacaoPOT - -> Plataforma : possui
EfetuarCandidaturaController ..> SessaoUtilizador
RegistoAnuncio "1" - -> "*" Anuncio : possui
Anuncio "1" - -> "*" Tarefa : possui
Tarefa "1" - -> "*" CategoriaTarefa : possui
EfetuarCandidaturaController ..> ListaCandidatura
RegistoFreelancer "1" - -> "1..*" Freelancer : possui
CategoriaTarefa "*" - -> "1" Freelancer : possui
CategoriaTarefa "1" - -> "0..*" CaraterCT : possui
Freelancer "0" - -> "1.." Reconhecimento
ListaCandidatura "1" - -> "*" Candidatura : possui
Plataforma "1" - -> "*" RegistoFreelancer : possui
Plataforma "1" - -> "*" RegistoAnuncio : possui
CaraterCT "1" ..> "*" CompetenciaTecnica
Reconhecimento "*"- -> "1" GrauDeProficiencia : possui
CompetenciaTecnica "*"- -> "1" GrauDeProficiencia : possui


@enduml

PlantUML version 1.2020.03beta6(Unknown compile time)
(GPL source distribution)
Java Runtime: OpenJDK Runtime Environment
JVM: OpenJDK 64-Bit Server VM
Java Version: 11.0.6+8-b765.25
Operating System: Windows 10
Default Encoding: Cp1252
Language: pt
Country: PT
--></g></svg>