<?xml version="1.0" encoding="UTF-8"?>
<!DOCTYPE svg PUBLIC '-//W3C//DTD SVG 1.0//EN'
          'http://www.w3.org/TR/2001/REC-SVG-20010904/DTD/svg10.dtd'>
<svg fill-opacity="0" xmlns:xlink="http://www.w3.org/1999/xlink" color-rendering="auto" color-interpolation="auto" text-rendering="auto" stroke="rgb(0,0,0)" stroke-linecap="square" width="2208" stroke-miterlimit="10" shape-rendering="auto" stroke-opacity="0" fill="rgb(0,0,0)" stroke-dasharray="none" font-weight="normal" stroke-width="1" height="1186" xmlns="http://www.w3.org/2000/svg" font-family="'Dialog'" font-style="normal" stroke-linejoin="miter" font-size="12px" stroke-dashoffset="0" image-rendering="auto"
><!--Generated by the Batik Graphics2D SVG Generator--><defs id="genericDefs"
  /><g
  ><defs id="defs1"
    ><clipPath clipPathUnits="userSpaceOnUse" id="clipPath1"
      ><path d="M-7 -7 L71 -7 L71 1191 L-7 1191 L-7 -7 Z"
      /></clipPath
      ><clipPath clipPathUnits="userSpaceOnUse" id="clipPath2"
      ><path d="M-7 -7 L128 -7 L128 1191 L-7 1191 L-7 -7 Z"
      /></clipPath
      ><clipPath clipPathUnits="userSpaceOnUse" id="clipPath3"
      ><path d="M-7 -7 L165 -7 L165 1191 L-7 1191 L-7 -7 Z"
      /></clipPath
      ><clipPath clipPathUnits="userSpaceOnUse" id="clipPath4"
      ><path d="M-7 -7 L19 -7 L19 179 L-7 179 L-7 -7 Z"
      /></clipPath
      ><clipPath clipPathUnits="userSpaceOnUse" id="clipPath5"
      ><path d="M-7 -7 L19 -7 L19 100 L-7 100 L-7 -7 Z"
      /></clipPath
      ><clipPath clipPathUnits="userSpaceOnUse" id="clipPath6"
      ><path d="M-7 -7 L278 -7 L278 61 L-7 61 L-7 -7 Z"
      /></clipPath
      ><clipPath clipPathUnits="userSpaceOnUse" id="clipPath7"
      ><path d="M0 0 L0 18 L25 18 L25 0 Z"
      /></clipPath
      ><clipPath clipPathUnits="userSpaceOnUse" id="clipPath8"
      ><path d="M0 0 L0 50 L267 50 L267 0 Z"
      /></clipPath
      ><clipPath clipPathUnits="userSpaceOnUse" id="clipPath9"
      ><path d="M-6 -6 L204 -6 L204 50 L-6 50 L-6 -6 Z"
      /></clipPath
      ><clipPath clipPathUnits="userSpaceOnUse" id="clipPath10"
      ><path d="M0 0 L0 40 L194 40 L194 0 Z"
      /></clipPath
      ><clipPath clipPathUnits="userSpaceOnUse" id="clipPath11"
      ><path d="M-7 -7 L85 -7 L85 1191 L-7 1191 L-7 -7 Z"
      /></clipPath
      ><clipPath clipPathUnits="userSpaceOnUse" id="clipPath12"
      ><path d="M-7 -7 L100 -7 L100 1191 L-7 1191 L-7 -7 Z"
      /></clipPath
      ><clipPath clipPathUnits="userSpaceOnUse" id="clipPath13"
      ><path d="M-7 -7 L19 -7 L19 143 L-7 143 L-7 -7 Z"
      /></clipPath
      ><clipPath clipPathUnits="userSpaceOnUse" id="clipPath14"
      ><path d="M-7 -7 L19 -7 L19 23 L-7 23 L-7 -7 Z"
      /></clipPath
      ><clipPath clipPathUnits="userSpaceOnUse" id="clipPath15"
      ><path d="M-7 -7 L19 -7 L19 121 L-7 121 L-7 -7 Z"
      /></clipPath
      ><clipPath clipPathUnits="userSpaceOnUse" id="clipPath16"
      ><path d="M-7 -7 L117 -7 L117 457 L-7 457 L-7 -7 Z"
      /></clipPath
      ><clipPath clipPathUnits="userSpaceOnUse" id="clipPath17"
      ><path d="M-7 -7 L19 -7 L19 168 L-7 168 L-7 -7 Z"
      /></clipPath
      ><clipPath clipPathUnits="userSpaceOnUse" id="clipPath18"
      ><path d="M-7 -7 L19 -7 L19 187 L-7 187 L-7 -7 Z"
      /></clipPath
      ><clipPath clipPathUnits="userSpaceOnUse" id="clipPath19"
      ><path d="M-7 -7 L19 -7 L19 157 L-7 157 L-7 -7 Z"
      /></clipPath
      ><clipPath clipPathUnits="userSpaceOnUse" id="clipPath20"
      ><path d="M-7 -7 L195 -7 L195 1191 L-7 1191 L-7 -7 Z"
      /></clipPath
      ><clipPath clipPathUnits="userSpaceOnUse" id="clipPath21"
      ><path d="M-7 -7 L19 -7 L19 33 L-7 33 L-7 -7 Z"
      /></clipPath
      ><clipPath clipPathUnits="userSpaceOnUse" id="clipPath22"
      ><path d="M-7 -7 L19 -7 L19 35 L-7 35 L-7 -7 Z"
      /></clipPath
      ><clipPath clipPathUnits="userSpaceOnUse" id="clipPath23"
      ><path d="M-7 -7 L19 -7 L19 219 L-7 219 L-7 -7 Z"
      /></clipPath
      ><clipPath clipPathUnits="userSpaceOnUse" id="clipPath24"
      ><path d="M-7 -7 L19 -7 L19 112 L-7 112 L-7 -7 Z"
      /></clipPath
      ><clipPath clipPathUnits="userSpaceOnUse" id="clipPath25"
      ><path d="M-7 -7 L119 -7 L119 1191 L-7 1191 L-7 -7 Z"
      /></clipPath
      ><clipPath clipPathUnits="userSpaceOnUse" id="clipPath26"
      ><path d="M-7 -7 L102 -7 L102 1191 L-7 1191 L-7 -7 Z"
      /></clipPath
      ><clipPath clipPathUnits="userSpaceOnUse" id="clipPath27"
      ><path d="M-7 -7 L19 -7 L19 73 L-7 73 L-7 -7 Z"
      /></clipPath
      ><clipPath clipPathUnits="userSpaceOnUse" id="clipPath28"
      ><path d="M-7 -7 L151 -7 L151 1191 L-7 1191 L-7 -7 Z"
      /></clipPath
      ><clipPath clipPathUnits="userSpaceOnUse" id="clipPath29"
      ><path d="M-7 -7 L19 -7 L19 44 L-7 44 L-7 -7 Z"
      /></clipPath
      ><clipPath clipPathUnits="userSpaceOnUse" id="clipPath30"
      ><path d="M-7 -7 L19 -7 L19 62 L-7 62 L-7 -7 Z"
      /></clipPath
      ><clipPath clipPathUnits="userSpaceOnUse" id="clipPath31"
      ><path d="M-7 -7 L91 -7 L91 1191 L-7 1191 L-7 -7 Z"
      /></clipPath
      ><clipPath clipPathUnits="userSpaceOnUse" id="clipPath32"
      ><path d="M-138 -15 L276 -15 L276 30 L-138 30 L-138 -15 Z"
      /></clipPath
      ><clipPath clipPathUnits="userSpaceOnUse" id="clipPath33"
      ><path d="M-117 -15 L234 -15 L234 30 L-117 30 L-117 -15 Z"
      /></clipPath
      ><clipPath clipPathUnits="userSpaceOnUse" id="clipPath34"
      ><path d="M-154 -15 L308 -15 L308 30 L-154 30 L-154 -15 Z"
      /></clipPath
      ><clipPath clipPathUnits="userSpaceOnUse" id="clipPath35"
      ><path d="M-74 -15 L148 -15 L148 30 L-74 30 L-74 -15 Z"
      /></clipPath
      ><clipPath clipPathUnits="userSpaceOnUse" id="clipPath36"
      ><path d="M-89 -30 L178 -30 L178 60 L-89 60 L-89 -30 Z"
      /></clipPath
      ><clipPath clipPathUnits="userSpaceOnUse" id="clipPath37"
      ><path d="M-106 -15 L212 -15 L212 30 L-106 30 L-106 -15 Z"
      /></clipPath
      ><clipPath clipPathUnits="userSpaceOnUse" id="clipPath38"
      ><path d="M-184 -15 L368 -15 L368 30 L-184 30 L-184 -15 Z"
      /></clipPath
      ><clipPath clipPathUnits="userSpaceOnUse" id="clipPath39"
      ><path d="M-108 -15 L216 -15 L216 30 L-108 30 L-108 -15 Z"
      /></clipPath
      ><clipPath clipPathUnits="userSpaceOnUse" id="clipPath40"
      ><path d="M-91 -15 L182 -15 L182 30 L-91 30 L-91 -15 Z"
      /></clipPath
      ><clipPath clipPathUnits="userSpaceOnUse" id="clipPath41"
      ><path d="M-140 -15 L280 -15 L280 30 L-140 30 L-140 -15 Z"
      /></clipPath
      ><clipPath clipPathUnits="userSpaceOnUse" id="clipPath42"
      ><path d="M-80 -15 L160 -15 L160 30 L-80 30 L-80 -15 Z"
      /></clipPath
      ><clipPath clipPathUnits="userSpaceOnUse" id="clipPath43"
      ><path d="M0 0 L475 0 L475 104 L0 104 L0 0 Z"
      /></clipPath
      ><clipPath clipPathUnits="userSpaceOnUse" id="clipPath44"
      ><path d="M380 30 L380 45 L89 45 L89 30 ZM0 0 L0 104 L475 104 L475 55 L474 55 L474 40 L475 40 L475 0 Z"
      /></clipPath
      ><clipPath clipPathUnits="userSpaceOnUse" id="clipPath45"
      ><path d="M0 0 L409 0 L409 104 L0 104 L0 0 Z"
      /></clipPath
      ><clipPath clipPathUnits="userSpaceOnUse" id="clipPath46"
      ><path d="M316 30 L316 45 L95 45 L95 30 ZM0 0 L0 20 L1 20 L1 35 L0 35 L0 104 L409 104 L409 0 Z"
      /></clipPath
      ><clipPath clipPathUnits="userSpaceOnUse" id="clipPath47"
      ><path d="M0 0 L0 104 L475 104 L475 0 L418 0 L418 39 L53 39 L53 0 Z"
      /></clipPath
      ><clipPath clipPathUnits="userSpaceOnUse" id="clipPath48"
      ><path d="M327 30 L327 45 L140 45 L140 30 ZM0 0 L0 104 L53 104 L53 103 L420 103 L420 104 L475 104 L475 59 L469 59 L469 44 L475 44 L475 0 Z"
      /></clipPath
      ><clipPath clipPathUnits="userSpaceOnUse" id="clipPath49"
      ><path d="M0 0 L415 0 L415 104 L0 104 L0 0 Z"
      /></clipPath
      ><clipPath clipPathUnits="userSpaceOnUse" id="clipPath50"
      ><path d="M327 27 L327 42 L60 42 L60 27 ZM280 77 L280 92 L60 92 L60 77 ZM0 0 L0 104 L415 104 L415 0 Z"
      /></clipPath
      ><clipPath clipPathUnits="userSpaceOnUse" id="clipPath51"
      ><path d="M0 0 L0 104 L118 104 L118 96 L346 96 L346 104 L475 104 L475 0 L420 0 L420 41 L53 41 L53 0 Z"
      /></clipPath
      ><clipPath clipPathUnits="userSpaceOnUse" id="clipPath52"
      ><path d="M346 30 L346 45 L118 45 L118 30 ZM0 0 L0 104 L56 104 L56 81 L408 81 L408 104 L475 104 L475 0 Z"
      /></clipPath
      ><clipPath clipPathUnits="userSpaceOnUse" id="clipPath53"
      ><path d="M0 0 L0 104 L53 104 L53 57 L421 57 L421 104 L438 104 L438 56 L475 56 L475 0 L408 0 L408 42 L56 42 L56 0 Z"
      /></clipPath
      ><clipPath clipPathUnits="userSpaceOnUse" id="clipPath54"
      ><path d="M0 0 L0 104 L475 104 L475 53 L438 53 L438 0 L421 0 L421 46 L53 46 L53 0 Z"
      /></clipPath
      ><clipPath clipPathUnits="userSpaceOnUse" id="clipPath55"
      ><path d="M42 0 L42 38 L0 38 L0 104 L409 104 L409 57 L371 57 L371 42 L409 42 L409 0 L330 0 L330 45 L59 45 L59 0 Z"
      /></clipPath
      ><clipPath clipPathUnits="userSpaceOnUse" id="clipPath56"
      ><path d="M0 0 L883 0 L883 104 L0 104 L0 0 Z"
      /></clipPath
      ><clipPath clipPathUnits="userSpaceOnUse" id="clipPath57"
      ><path d="M583 24 L583 39 L58 39 L58 24 ZM17 0 L17 27 L0 27 L0 104 L59 104 L59 94 L254 94 L254 104 L883 104 L883 54 L841 54 L841 0 Z"
      /></clipPath
      ><clipPath clipPathUnits="userSpaceOnUse" id="clipPath58"
      ><path d="M0 0 L406 0 L406 104 L0 104 L0 0 Z"
      /></clipPath
      ><clipPath clipPathUnits="userSpaceOnUse" id="clipPath59"
      ><path d="M0 0 L0 104 L406 104 L406 49 L352 49 L352 34 L406 34 L406 0 L328 0 L328 44 L54 44 L54 0 Z"
      /></clipPath
      ><clipPath clipPathUnits="userSpaceOnUse" id="clipPath60"
      ><path d="M254 25 L254 40 L59 40 L59 25 ZM0 0 L0 104 L883 104 L883 0 Z"
      /></clipPath
      ><clipPath clipPathUnits="userSpaceOnUse" id="clipPath61"
      ><path d="M407 30 L407 45 L60 45 L60 30 ZM0 0 L0 104 L475 104 L475 0 Z"
      /></clipPath
      ><clipPath clipPathUnits="userSpaceOnUse" id="clipPath62"
      ><path d="M297 30 L297 45 L171 45 L171 30 ZM0 0 L0 104 L59 104 L59 83 L406 83 L406 104 L475 104 L475 54 L434 54 L434 39 L475 39 L475 0 Z"
      /></clipPath
      ><clipPath clipPathUnits="userSpaceOnUse" id="clipPath63"
      ><path d="M220 27 L220 42 L55 42 L55 27 ZM0 0 L0 71 L27 71 L27 104 L409 104 L409 54 L367 54 L367 39 L409 39 L409 0 Z"
      /></clipPath
      ><clipPath clipPathUnits="userSpaceOnUse" id="clipPath64"
      ><path d="M253 31 L253 46 L54 46 L54 31 ZM0 0 L0 104 L883 104 L883 102 L879 102 L879 87 L883 87 L883 60 L840 60 L840 45 L883 45 L883 0 Z"
      /></clipPath
      ><clipPath clipPathUnits="userSpaceOnUse" id="clipPath65"
      ><path d="M0 0 L134 0 L134 124 L0 124 L0 0 Z"
      /></clipPath
      ><clipPath clipPathUnits="userSpaceOnUse" id="clipPath66"
      ><path d="M0 0 L0 124 L134 124 L134 88 L92 88 L92 73 L134 73 L134 46 L53 46 L53 31 L134 31 L134 0 Z"
      /></clipPath
      ><clipPath clipPathUnits="userSpaceOnUse" id="clipPath67"
      ><path d="M0 0 L315 0 L315 104 L0 104 L0 0 Z"
      /></clipPath
      ><clipPath clipPathUnits="userSpaceOnUse" id="clipPath68"
      ><path d="M217 30 L217 45 L92 45 L92 30 ZM258 88 L258 103 L77 103 L77 88 ZM0 0 L0 104 L315 104 L315 0 L248 0 L248 3 L53 3 L53 0 Z"
      /></clipPath
      ><clipPath clipPathUnits="userSpaceOnUse" id="clipPath69"
      ><path d="M0 0 L0 124 L134 124 L134 46 L77 46 L77 31 L134 31 L134 0 Z"
      /></clipPath
      ><clipPath clipPathUnits="userSpaceOnUse" id="clipPath70"
      ><path d="M0 0 L0 104 L475 104 L475 0 L406 0 L406 41 L59 41 L59 0 Z"
      /></clipPath
      ><clipPath clipPathUnits="userSpaceOnUse" id="clipPath71"
      ><path d="M310 30 L310 45 L90 45 L90 30 ZM0 0 L0 89 L41 89 L41 104 L373 104 L373 99 L409 99 L409 64 L373 64 L373 49 L409 49 L409 0 Z"
      /></clipPath
      ><clipPath clipPathUnits="userSpaceOnUse" id="clipPath72"
      ><path d="M0 0 L1102 0 L1102 104 L0 104 L0 0 Z"
      /></clipPath
      ><clipPath clipPathUnits="userSpaceOnUse" id="clipPath73"
      ><path d="M280 28 L280 43 L60 43 L60 28 ZM0 0 L0 104 L1102 104 L1102 59 L1061 59 L1061 44 L1102 44 L1102 0 Z"
      /></clipPath
      ><clipPath clipPathUnits="userSpaceOnUse" id="clipPath74"
      ><path d="M0 0 L335 0 L335 104 L0 104 L0 0 Z"
      /></clipPath
      ><clipPath clipPathUnits="userSpaceOnUse" id="clipPath75"
      ><path d="M275 29 L275 44 L55 44 L55 29 ZM0 0 L0 104 L335 104 L335 52 L293 52 L293 0 Z"
      /></clipPath
      ><clipPath clipPathUnits="userSpaceOnUse" id="clipPath76"
      ><path d="M0 0 L246 0 L246 104 L0 104 L0 0 Z"
      /></clipPath
      ><clipPath clipPathUnits="userSpaceOnUse" id="clipPath77"
      ><path d="M0 0 L0 22 L36 22 L36 37 L0 37 L0 104 L246 104 L246 0 L186 0 L186 45 L54 45 L54 0 Z"
      /></clipPath
      ><clipPath clipPathUnits="userSpaceOnUse" id="clipPath78"
      ><path d="M-132 -67 L264 -67 L264 134 L-132 134 L-132 -67 Z"
      /></clipPath
      ><clipPath clipPathUnits="userSpaceOnUse" id="clipPath79"
      ><path d="M-220 -15 L440 -15 L440 30 L-220 30 L-220 -15 Z"
      /></clipPath
      ><clipPath clipPathUnits="userSpaceOnUse" id="clipPath80"
      ><path d="M-347 -143 L694 -143 L694 286 L-347 286 L-347 -143 Z"
      /></clipPath
      ><clipPath clipPathUnits="userSpaceOnUse" id="clipPath81"
      ><path d="M-181 -15 L362 -15 L362 30 L-181 30 L-181 -15 Z"
      /></clipPath
      ><clipPath clipPathUnits="userSpaceOnUse" id="clipPath82"
      ><path d="M-125 -15 L250 -15 L250 30 L-125 30 L-125 -15 Z"
      /></clipPath
      ><clipPath clipPathUnits="userSpaceOnUse" id="clipPath83"
      ><path d="M-195 -15 L390 -15 L390 30 L-195 30 L-195 -15 Z"
      /></clipPath
      ><clipPath clipPathUnits="userSpaceOnUse" id="clipPath84"
      ><path d="M-199 -15 L398 -15 L398 30 L-199 30 L-199 -15 Z"
      /></clipPath
      ><clipPath clipPathUnits="userSpaceOnUse" id="clipPath85"
      ><path d="M-165 -15 L330 -15 L330 30 L-165 30 L-165 -15 Z"
      /></clipPath
      ><clipPath clipPathUnits="userSpaceOnUse" id="clipPath86"
      ><path d="M-126 -15 L252 -15 L252 30 L-126 30 L-126 -15 Z"
      /></clipPath
      ><clipPath clipPathUnits="userSpaceOnUse" id="clipPath87"
      ><path d="M-347 -15 L694 -15 L694 30 L-347 30 L-347 -15 Z"
      /></clipPath
      ><clipPath clipPathUnits="userSpaceOnUse" id="clipPath88"
      ><path d="M-274 -74 L548 -74 L548 148 L-274 148 L-274 -74 Z"
      /></clipPath
      ><clipPath clipPathUnits="userSpaceOnUse" id="clipPath89"
      ><path d="M-525 -15 L1050 -15 L1050 30 L-525 30 L-525 -15 Z"
      /></clipPath
      ><clipPath clipPathUnits="userSpaceOnUse" id="clipPath90"
      ><path d="M-271 -60 L542 -60 L542 120 L-271 120 L-271 -60 Z"
      /></clipPath
      ><clipPath clipPathUnits="userSpaceOnUse" id="clipPath91"
      ><path d="M-368 -52 L736 -52 L736 104 L-368 104 L-368 -52 Z"
      /></clipPath
      ><clipPath clipPathUnits="userSpaceOnUse" id="clipPath92"
      ><path d="M-352 -55 L704 -55 L704 110 L-352 110 L-352 -55 Z"
      /></clipPath
      ><clipPath clipPathUnits="userSpaceOnUse" id="clipPath93"
      ><path d="M-228 -15 L456 -15 L456 30 L-228 30 L-228 -15 Z"
      /></clipPath
      ><clipPath clipPathUnits="userSpaceOnUse" id="clipPath94"
      ><path d="M-367 -48 L734 -48 L734 96 L-367 96 L-367 -48 Z"
      /></clipPath
      ><clipPath clipPathUnits="userSpaceOnUse" id="clipPath95"
      ><path d="M-267 -15 L534 -15 L534 30 L-267 30 L-267 -15 Z"
      /></clipPath
      ><clipPath clipPathUnits="userSpaceOnUse" id="clipPath96"
      ><path d="M-187 -15 L374 -15 L374 30 L-187 30 L-187 -15 Z"
      /></clipPath
      ><clipPath clipPathUnits="userSpaceOnUse" id="clipPath97"
      ><path d="M-365 -47 L730 -47 L730 94 L-365 94 L-365 -47 Z"
      /></clipPath
      ><clipPath clipPathUnits="userSpaceOnUse" id="clipPath98"
      ><path d="M-221 -15 L442 -15 L442 30 L-221 30 L-221 -15 Z"
      /></clipPath
      ><clipPath clipPathUnits="userSpaceOnUse" id="clipPath99"
      ><path d="M-291 -15 L582 -15 L582 30 L-291 30 L-291 -15 Z"
      /></clipPath
    ></defs
    ><g fill="white" text-rendering="geometricPrecision" fill-opacity="1" stroke-opacity="1" stroke="white"
    ><rect x="0" width="2208" height="1186" y="0" stroke="none"
    /></g
    ><g font-size="11px" transform="translate(41,2)" fill-opacity="1" fill="rgb(122,207,245)" text-rendering="geometricPrecision" image-rendering="optimizeQuality" font-family="sans-serif" stroke="rgb(122,207,245)" stroke-opacity="1"
    ><circle r="5" clip-path="url(#clipPath1)" cx="30" cy="5" stroke="none"
      /><rect x="26" width="8" height="1129" y="50" clip-path="url(#clipPath1)" stroke="none"
    /></g
    ><g stroke-linecap="butt" font-size="11px" transform="translate(41,2)" fill-opacity="1" fill="black" text-rendering="geometricPrecision" image-rendering="optimizeQuality" font-family="sans-serif" stroke-linejoin="round" stroke="black" stroke-opacity="1" stroke-miterlimit="0"
    ><circle fill="none" r="5" clip-path="url(#clipPath1)" cx="30" cy="5"
      /><rect fill="none" x="26" width="8" height="1129" y="50" clip-path="url(#clipPath1)"
      /><line y2="25" fill="none" x1="30" clip-path="url(#clipPath1)" x2="30" y1="10"
      /><line y2="36" fill="none" x1="30" clip-path="url(#clipPath1)" x2="21" y1="25"
      /><line y2="36" fill="none" x1="30" clip-path="url(#clipPath1)" x2="39" y1="25"
      /><line y2="16" fill="none" x1="21" clip-path="url(#clipPath1)" x2="39" y1="16"
    /></g
    ><g font-size="11px" transform="translate(392,2)" fill-opacity="1" fill="rgb(122,207,245)" text-rendering="geometricPrecision" image-rendering="optimizeQuality" font-family="sans-serif" stroke="rgb(122,207,245)" stroke-opacity="1"
    ><rect x="0" width="116" height="35" y="0" clip-path="url(#clipPath2)" stroke="none"
    /></g
    ><g stroke-linecap="butt" font-size="11px" transform="translate(392,2)" fill-opacity="1" fill="black" text-rendering="geometricPrecision" image-rendering="optimizeQuality" font-family="sans-serif" stroke-linejoin="round" stroke="black" stroke-opacity="1" stroke-miterlimit="0"
    ><rect fill="none" x="0" width="116" height="35" y="0" clip-path="url(#clipPath2)"
      /><line clip-path="url(#clipPath2)" fill="none" x1="58" x2="58" y1="35" y2="1180" stroke-linejoin="bevel" stroke-dasharray="8,3"
    /></g
    ><g font-size="11px" transform="translate(686,2)" fill-opacity="1" fill="rgb(122,207,245)" text-rendering="geometricPrecision" image-rendering="optimizeQuality" font-family="sans-serif" stroke="rgb(122,207,245)" stroke-opacity="1"
    ><rect x="0" width="153" height="35" y="0" clip-path="url(#clipPath3)" stroke="none"
    /></g
    ><g stroke-linecap="butt" font-size="11px" transform="translate(686,2)" fill-opacity="1" fill="black" text-rendering="geometricPrecision" image-rendering="optimizeQuality" font-family="sans-serif" stroke-linejoin="round" stroke="black" stroke-opacity="1" stroke-miterlimit="0"
    ><rect fill="none" x="0" width="153" height="35" y="0" clip-path="url(#clipPath3)"
      /><line clip-path="url(#clipPath3)" fill="none" x1="76" x2="76" y1="35" y2="152" stroke-linejoin="bevel" stroke-dasharray="8,3"
      /><line clip-path="url(#clipPath3)" fill="none" x1="76" x2="76" y1="202" y2="1180" stroke-linejoin="bevel" stroke-dasharray="8,3"
    /></g
    ><g font-size="11px" transform="translate(446,120)" fill-opacity="1" fill="rgb(122,207,245)" text-rendering="geometricPrecision" image-rendering="optimizeQuality" font-family="sans-serif" stroke="rgb(122,207,245)" stroke-opacity="1"
    ><rect x="0" width="8" height="168" y="0" clip-path="url(#clipPath4)" stroke="none"
    /></g
    ><g stroke-linecap="butt" font-size="11px" transform="translate(446,120)" fill-opacity="1" fill="black" text-rendering="geometricPrecision" image-rendering="optimizeQuality" font-family="sans-serif" stroke-linejoin="round" stroke="black" stroke-opacity="1" stroke-miterlimit="0"
    ><rect fill="none" x="0" width="8" height="168" y="0" clip-path="url(#clipPath4)"
    /></g
    ><g font-size="11px" transform="translate(759,130)" fill-opacity="1" fill="rgb(122,207,245)" text-rendering="geometricPrecision" image-rendering="optimizeQuality" font-family="sans-serif" stroke="rgb(122,207,245)" stroke-opacity="1"
    ><rect x="0" width="8" height="89" y="0" clip-path="url(#clipPath5)" stroke="none"
    /></g
    ><g stroke-linecap="butt" font-size="11px" transform="translate(759,130)" fill-opacity="1" fill="black" text-rendering="geometricPrecision" image-rendering="optimizeQuality" font-family="sans-serif" stroke-linejoin="round" stroke="black" stroke-opacity="1" stroke-miterlimit="0"
    ><rect fill="none" x="0" width="8" height="89" y="0" clip-path="url(#clipPath5)"
    /></g
    ><g stroke-linecap="butt" font-size="11px" transform="translate(735,154)" fill-opacity="1" fill="black" text-rendering="geometricPrecision" image-rendering="optimizeQuality" font-family="sans-serif" stroke-linejoin="round" stroke="black" stroke-opacity="1" stroke-miterlimit="0"
    ><rect fill="none" x="0" width="267" height="50" y="0" clip-path="url(#clipPath6)"
      /><path fill="none" d="M24 0 L24 9 L18 17 L0 17" clip-path="url(#clipPath6)"
    /></g
    ><g font-size="11px" transform="translate(735,154)" fill-opacity="1" fill="black" text-rendering="geometricPrecision" image-rendering="optimizeQuality" font-family="sans-serif" stroke="black" font-weight="bold" stroke-opacity="1"
    ><text x="5" xml:space="preserve" y="12" clip-path="url(#clipPath7)" stroke="none"
      >ref</text
    ></g
    ><g stroke-linecap="butt" transform="translate(785,159)" fill-opacity="1" fill="black" text-rendering="geometricPrecision" image-rendering="optimizeQuality" font-family="sans-serif" stroke-linejoin="round" stroke="black" stroke-width="0" stroke-opacity="1" stroke-miterlimit="0"
    ><rect fill="none" x="0" width="194" height="40" y="0" clip-path="url(#clipPath9)"
    /></g
    ><g font-size="11px" transform="translate(785,159)" fill-opacity="1" fill="black" text-rendering="geometricPrecision" image-rendering="optimizeQuality" font-family="'Tahoma'" stroke="black" stroke-opacity="1"
    ><path d="M3.5417 12.6966 L4.6146 12.6029 Q4.6875 13.2487 4.9583 13.6654 Q5.2396 14.0716 5.8229 14.332 Q6.4167 14.582 7.1458 14.582 Q7.8021 14.582 8.2917 14.3945 Q8.7917 14.1966 9.0312 13.8633 Q9.2812 13.5195 9.2812 13.1237 Q9.2812 12.7174 9.0417 12.4154 Q8.8125 12.1133 8.2708 11.9154 Q7.9271 11.7799 6.7396 11.4987 Q5.5625 11.207 5.0833 10.957 Q4.4688 10.6341 4.1667 10.1549 Q3.8646 9.6758 3.8646 9.0924 Q3.8646 8.4362 4.2292 7.8737 Q4.6042 7.3112 5.3125 7.0195 Q6.0208 6.7174 6.8958 6.7174 Q7.8438 6.7174 8.5729 7.0299 Q9.3021 7.332 9.6979 7.9362 Q10.0938 8.5299 10.1146 9.2904 L9.0312 9.3737 Q8.9375 8.5508 8.4271 8.1341 Q7.9271 7.7174 6.9375 7.7174 Q5.9062 7.7174 5.4271 8.1029 Q4.9583 8.4779 4.9583 9.0091 Q4.9583 9.4779 5.3021 9.7695 Q5.625 10.0716 7.0104 10.3841 Q8.3958 10.6966 8.9167 10.9362 Q9.6667 11.2799 10.0208 11.8112 Q10.375 12.3424 10.375 13.0299 Q10.375 13.7174 9.9792 14.3216 Q9.5938 14.9258 8.8542 15.2695 Q8.125 15.6029 7.1979 15.6029 Q6.0312 15.6029 5.2396 15.2695 Q4.4583 14.9258 4.0104 14.2487 Q3.5625 13.5612 3.5417 12.6966 ZM11.9271 15.457 L11.9271 6.8633 L14.8854 6.8633 Q15.8854 6.8633 16.4167 6.9883 Q17.1562 7.1549 17.6771 7.6029 Q18.3542 8.1758 18.6875 9.0716 Q19.0312 9.9674 19.0312 11.1133 Q19.0312 12.0924 18.8021 12.8529 Q18.5729 13.6029 18.2083 14.1029 Q17.8542 14.5924 17.4271 14.8841 Q17.0104 15.1654 16.4062 15.3112 Q15.8021 15.457 15.0208 15.457 L11.9271 15.457 ZM13.0625 14.4466 L14.8958 14.4466 Q15.75 14.4466 16.2292 14.2904 Q16.7083 14.1237 17 13.8424 Q17.4062 13.4362 17.625 12.7591 Q17.8542 12.0716 17.8542 11.0924 Q17.8542 9.7487 17.4062 9.0299 Q16.9688 8.3008 16.3333 8.0612 Q15.8854 7.8841 14.8646 7.8841 L13.0625 7.8841 L13.0625 14.4466 ZM19.4896 17.8424 L19.4896 17.082 L26.4792 17.082 L26.4792 17.8424 L19.4896 17.8424 ZM26.9271 15.9779 L27.9583 16.1237 Q28.0208 16.6029 28.3125 16.8216 Q28.7083 17.1133 29.3854 17.1133 Q30.1146 17.1133 30.5104 16.8112 Q30.9166 16.5195 31.0521 15.9987 Q31.1354 15.6758 31.1354 14.6445 Q30.4375 15.457 29.4062 15.457 Q28.125 15.457 27.4166 14.5299 Q26.7187 13.6029 26.7187 12.3112 Q26.7187 11.4154 27.0416 10.6654 Q27.3646 9.9154 27.9791 9.5091 Q28.5937 9.0924 29.4166 9.0924 Q30.5208 9.0924 31.2291 9.9883 L31.2291 9.2383 L32.2083 9.2383 L32.2083 14.6133 Q32.2083 16.0716 31.9062 16.6758 Q31.6146 17.2799 30.9687 17.6237 Q30.3333 17.9779 29.3958 17.9779 Q28.2812 17.9779 27.5937 17.4779 Q26.9062 16.9779 26.9271 15.9779 ZM27.8021 12.2383 Q27.8021 13.457 28.2916 14.0195 Q28.7812 14.582 29.5104 14.582 Q30.2396 14.582 30.7291 14.0299 Q31.2187 13.4674 31.2187 12.2695 Q31.2187 11.1237 30.7083 10.5508 Q30.2083 9.9674 29.4896 9.9674 Q28.7916 9.9674 28.2916 10.5404 Q27.8021 11.1133 27.8021 12.2383 ZM38.0521 13.457 L39.1458 13.5924 Q38.8854 14.5404 38.1875 15.0716 Q37.4896 15.6029 36.4062 15.6029 Q35.0416 15.6029 34.2396 14.7591 Q33.4375 13.9154 33.4375 12.3945 Q33.4375 10.832 34.2396 9.9674 Q35.0521 9.0924 36.3437 9.0924 Q37.5937 9.0924 38.3854 9.9466 Q39.1771 10.7904 39.1771 12.332 Q39.1771 12.4258 39.1666 12.6133 L34.5312 12.6133 Q34.5833 13.6445 35.1041 14.1862 Q35.6354 14.7279 36.4062 14.7279 Q36.9896 14.7279 37.3958 14.4258 Q37.8125 14.1237 38.0521 13.457 ZM34.5833 11.7487 L38.0625 11.7487 Q37.9896 10.9674 37.6666 10.5716 Q37.1562 9.957 36.3541 9.957 Q35.6354 9.957 35.1354 10.4466 Q34.6458 10.9362 34.5833 11.7487 ZM42.7604 14.5091 L42.9166 15.4466 Q42.4687 15.5404 42.1145 15.5404 Q41.5416 15.5404 41.2187 15.3633 Q40.9062 15.1758 40.7812 14.8841 Q40.6562 14.582 40.6562 13.6341 L40.6562 10.0508 L39.875 10.0508 L39.875 9.2383 L40.6562 9.2383 L40.6562 7.6966 L41.6979 7.0612 L41.6979 9.2383 L42.7604 9.2383 L42.7604 10.0508 L41.6979 10.0508 L41.6979 13.6966 Q41.6979 14.1445 41.75 14.2799 Q41.8125 14.4049 41.9375 14.4779 Q42.0625 14.5508 42.302 14.5508 Q42.4687 14.5508 42.7604 14.5091 ZM42.9791 15.457 L46.2812 6.8633 L47.5104 6.8633 L51.0208 15.457 L49.7291 15.457 L48.7291 12.8529 L45.1354 12.8529 L44.1875 15.457 L42.9791 15.457 ZM45.4583 11.9258 L48.375 11.9258 L47.4791 9.5508 Q47.0625 8.4674 46.8645 7.7695 Q46.7083 8.5924 46.4062 9.4049 L45.4583 11.9258 ZM51.7916 15.457 L51.7916 9.2383 L52.7395 9.2383 L52.7395 10.1237 Q53.427 9.0924 54.7187 9.0924 Q55.2812 9.0924 55.75 9.3008 Q56.2291 9.4987 56.4583 9.832 Q56.6979 10.1549 56.7916 10.6029 Q56.8437 10.8945 56.8437 11.6341 L56.8437 15.457 L55.7916 15.457 L55.7916 11.6758 Q55.7916 11.0299 55.6666 10.707 Q55.552 10.3841 55.2291 10.1966 Q54.9166 10.0091 54.5 10.0091 Q53.8229 10.0091 53.3333 10.4362 Q52.8437 10.8633 52.8437 12.0612 L52.8437 15.457 L51.7916 15.457 ZM62.5312 15.457 L62.5312 14.5404 Q61.8124 15.6029 60.5624 15.6029 Q60.0104 15.6029 59.5312 15.3945 Q59.052 15.1758 58.8229 14.8633 Q58.5937 14.5404 58.4999 14.0716 Q58.4374 13.7591 58.4374 13.0924 L58.4374 9.2383 L59.4895 9.2383 L59.4895 12.6862 Q59.4895 13.5091 59.552 13.8008 Q59.6562 14.2174 59.9791 14.457 Q60.302 14.6862 60.7708 14.6862 Q61.2499 14.6862 61.6666 14.4466 Q62.0833 14.207 62.2499 13.7904 Q62.427 13.3633 62.427 12.5716 L62.427 9.2383 L63.4791 9.2383 L63.4791 15.457 L62.5312 15.457 ZM65.1249 15.457 L65.1249 9.2383 L66.0729 9.2383 L66.0729 10.1237 Q66.7604 9.0924 68.052 9.0924 Q68.6145 9.0924 69.0833 9.3008 Q69.5624 9.4987 69.7916 9.832 Q70.0312 10.1549 70.1249 10.6029 Q70.177 10.8945 70.177 11.6341 L70.177 15.457 L69.1249 15.457 L69.1249 11.6758 Q69.1249 11.0299 68.9999 10.707 Q68.8854 10.3841 68.5624 10.1966 Q68.2499 10.0091 67.8333 10.0091 Q67.1562 10.0091 66.6666 10.4362 Q66.177 10.8633 66.177 12.0612 L66.177 15.457 L65.1249 15.457 ZM75.8541 13.1758 L76.8853 13.3112 Q76.7187 14.3841 76.0208 14.9987 Q75.3228 15.6029 74.302 15.6029 Q73.0208 15.6029 72.2395 14.7695 Q71.4687 13.9258 71.4687 12.3737 Q71.4687 11.3633 71.802 10.6133 Q72.1353 9.8529 72.8124 9.4779 Q73.4999 9.0924 74.302 9.0924 Q75.3228 9.0924 75.9583 9.6133 Q76.6041 10.1237 76.7916 11.0612 L75.7603 11.2174 Q75.6145 10.5924 75.2395 10.2799 Q74.8749 9.957 74.3437 9.957 Q73.552 9.957 73.052 10.5299 Q72.552 11.1029 72.552 12.3424 Q72.552 13.5924 73.0312 14.1654 Q73.5103 14.7279 74.2916 14.7279 Q74.9062 14.7279 75.3228 14.3529 Q75.7395 13.9674 75.8541 13.1758 ZM77.802 8.082 L77.802 6.8633 L78.8541 6.8633 L78.8541 8.082 L77.802 8.082 ZM77.802 15.457 L77.802 9.2383 L78.8541 9.2383 L78.8541 15.457 L77.802 15.457 ZM80.0624 12.3424 Q80.0624 10.6133 81.0312 9.7799 Q81.8332 9.0924 82.9791 9.0924 Q84.2707 9.0924 85.0832 9.9362 Q85.8957 10.7799 85.8957 12.2591 Q85.8957 13.457 85.5312 14.1445 Q85.177 14.832 84.4895 15.2174 Q83.802 15.6029 82.9791 15.6029 Q81.677 15.6029 80.8645 14.7695 Q80.0624 13.9258 80.0624 12.3424 ZM81.1457 12.3424 Q81.1457 13.5404 81.6666 14.1341 Q82.1874 14.7279 82.9791 14.7279 Q83.7707 14.7279 84.2916 14.1341 Q84.8124 13.5299 84.8124 12.3112 Q84.8124 11.1549 84.2812 10.5612 Q83.7603 9.9674 82.9791 9.9674 Q82.1874 9.9674 81.6666 10.5612 Q81.1457 11.1549 81.1457 12.3424 ZM86.6978 13.6029 L87.7499 13.4362 Q87.8332 14.0612 88.2291 14.3945 Q88.6353 14.7279 89.3541 14.7279 Q90.0832 14.7279 90.4374 14.4362 Q90.7916 14.1341 90.7916 13.7383 Q90.7916 13.3841 90.4791 13.1758 Q90.2603 13.0404 89.3957 12.8216 Q88.2395 12.5299 87.7916 12.3216 Q87.3437 12.1029 87.1041 11.7279 Q86.8749 11.3424 86.8749 10.8841 Q86.8749 10.4674 87.0624 10.1133 Q87.2603 9.7591 87.5832 9.5299 Q87.8332 9.3424 88.2603 9.2174 Q88.6874 9.0924 89.1666 9.0924 Q89.9062 9.0924 90.4582 9.3112 Q91.0103 9.5195 91.2707 9.8841 Q91.5416 10.2383 91.6353 10.8424 L90.6041 10.9779 Q90.5312 10.4987 90.1978 10.2279 Q89.8645 9.957 89.2499 9.957 Q88.5207 9.957 88.2082 10.1966 Q87.8957 10.4362 87.8957 10.7591 Q87.8957 10.9674 88.0312 11.1341 Q88.1562 11.3008 88.427 11.4154 Q88.5937 11.4674 89.3645 11.6862 Q90.4791 11.9779 90.9166 12.1758 Q91.3645 12.3633 91.6145 12.7279 Q91.8749 13.0924 91.8749 13.6237 Q91.8749 14.1549 91.5624 14.6237 Q91.2603 15.0924 90.677 15.3529 Q90.0937 15.6029 89.3645 15.6029 Q88.1457 15.6029 87.5103 15.1029 Q86.8749 14.5924 86.6978 13.6029 ZM93.2603 15.457 L93.2603 6.8633 L96.4999 6.8633 Q97.3541 6.8633 97.802 6.9466 Q98.4374 7.0508 98.8645 7.3529 Q99.2916 7.6445 99.552 8.1862 Q99.8124 8.7174 99.8124 9.3529 Q99.8124 10.4466 99.1145 11.207 Q98.4166 11.9674 96.6041 11.9674 L94.3957 11.9674 L94.3957 15.457 L93.2603 15.457 ZM94.3957 10.9466 L96.6145 10.9466 Q97.7187 10.9466 98.177 10.5404 Q98.6457 10.1341 98.6457 9.3841 Q98.6457 8.8424 98.3749 8.4674 Q98.1041 8.082 97.6562 7.957 Q97.3645 7.8841 96.5937 7.8841 L94.3957 7.8841 L94.3957 10.9466 ZM105.1874 14.6862 Q104.6041 15.1862 104.052 15.3945 Q103.5103 15.6029 102.8957 15.6029 Q101.8645 15.6029 101.3124 15.1029 Q100.7707 14.5924 100.7707 13.8112 Q100.7707 13.3633 100.9791 12.9883 Q101.1874 12.6029 101.5207 12.3737 Q101.8541 12.1445 102.2812 12.0299 Q102.5937 11.9466 103.2187 11.8737 Q104.4895 11.7174 105.0937 11.5091 Q105.1041 11.2904 105.1041 11.2279 Q105.1041 10.5924 104.802 10.3216 Q104.3957 9.9674 103.6041 9.9674 Q102.8541 9.9674 102.4999 10.2279 Q102.1457 10.4883 101.9791 11.1549 L100.9478 11.0091 Q101.0937 10.3424 101.4062 9.9362 Q101.7291 9.5299 102.3332 9.3112 Q102.9478 9.0924 103.7603 9.0924 Q104.552 9.0924 105.052 9.2799 Q105.552 9.4674 105.7812 9.7591 Q106.0207 10.0404 106.1145 10.4674 Q106.1666 10.7383 106.1666 11.4466 L106.1666 12.8529 Q106.1666 14.3216 106.2291 14.7174 Q106.302 15.1029 106.4999 15.457 L105.3957 15.457 Q105.2291 15.1237 105.1874 14.6862 ZM105.0937 12.332 Q104.5207 12.5716 103.3749 12.7279 Q102.7291 12.8216 102.4582 12.9466 Q102.1874 13.0612 102.0416 13.2904 Q101.8957 13.5091 101.8957 13.7904 Q101.8957 14.207 102.2082 14.4883 Q102.5312 14.7695 103.1457 14.7695 Q103.7603 14.7695 104.2291 14.5091 Q104.7082 14.2383 104.927 13.7799 Q105.0937 13.4154 105.0937 12.7174 L105.0937 12.332 ZM107.7811 15.457 L107.7811 9.2383 L108.7291 9.2383 L108.7291 10.1758 Q109.0936 9.5195 109.3957 9.3112 Q109.7082 9.0924 110.0728 9.0924 Q110.6145 9.0924 111.1561 9.4362 L110.802 10.4154 Q110.4061 10.1862 110.0207 10.1862 Q109.677 10.1862 109.3957 10.3945 Q109.1249 10.6029 109.0103 10.9674 Q108.8332 11.5299 108.8332 12.1966 L108.8332 15.457 L107.7811 15.457 ZM115.8541 14.6862 Q115.2707 15.1862 114.7186 15.3945 Q114.177 15.6029 113.5624 15.6029 Q112.5311 15.6029 111.9791 15.1029 Q111.4374 14.5924 111.4374 13.8112 Q111.4374 13.3633 111.6457 12.9883 Q111.8541 12.6029 112.1874 12.3737 Q112.5207 12.1445 112.9478 12.0299 Q113.2603 11.9466 113.8853 11.8737 Q115.1561 11.7174 115.7603 11.5091 Q115.7707 11.2904 115.7707 11.2279 Q115.7707 10.5924 115.4686 10.3216 Q115.0624 9.9674 114.2707 9.9674 Q113.5207 9.9674 113.1666 10.2279 Q112.8124 10.4883 112.6457 11.1549 L111.6145 11.0091 Q111.7603 10.3424 112.0728 9.9362 Q112.3957 9.5299 112.9999 9.3112 Q113.6145 9.0924 114.427 9.0924 Q115.2186 9.0924 115.7186 9.2799 Q116.2186 9.4674 116.4478 9.7591 Q116.6874 10.0404 116.7811 10.4674 Q116.8332 10.7383 116.8332 11.4466 L116.8332 12.8529 Q116.8332 14.3216 116.8957 14.7174 Q116.9686 15.1029 117.1666 15.457 L116.0624 15.457 Q115.8957 15.1237 115.8541 14.6862 ZM115.7603 12.332 Q115.1874 12.5716 114.0416 12.7279 Q113.3957 12.8216 113.1249 12.9466 Q112.8541 13.0612 112.7082 13.2904 Q112.5624 13.5091 112.5624 13.7904 Q112.5624 14.207 112.8749 14.4883 Q113.1978 14.7695 113.8124 14.7695 Q114.427 14.7695 114.8957 14.5091 Q115.3749 14.2383 115.5936 13.7799 Q115.7603 13.4154 115.7603 12.7174 L115.7603 12.332 ZM117.6457 15.457 L120.9478 6.8633 L122.177 6.8633 L125.6874 15.457 L124.3957 15.457 L123.3957 12.8529 L119.802 12.8529 L118.854 15.457 L117.6457 15.457 ZM120.1249 11.9258 L123.0415 11.9258 L122.1457 9.5508 Q121.729 8.4674 121.5311 7.7695 Q121.3749 8.5924 121.0728 9.4049 L120.1249 11.9258 ZM130.4999 15.457 L130.4999 14.6758 Q129.9061 15.6029 128.7499 15.6029 Q128.0103 15.6029 127.3853 15.1966 Q126.7603 14.7799 126.4165 14.0508 Q126.0728 13.3112 126.0728 12.3529 Q126.0728 11.4154 126.3853 10.6654 Q126.6978 9.9049 127.3124 9.4987 Q127.9374 9.0924 128.7082 9.0924 Q129.2707 9.0924 129.7082 9.332 Q130.1457 9.5716 130.427 9.9466 L130.427 6.8633 L131.4686 6.8633 L131.4686 15.457 L130.4999 15.457 ZM127.1561 12.3529 Q127.1561 13.5508 127.6561 14.1445 Q128.1665 14.7279 128.854 14.7279 Q129.5415 14.7279 130.0207 14.1654 Q130.5103 13.6029 130.5103 12.4362 Q130.5103 11.1654 130.0207 10.5716 Q129.5311 9.9674 128.8124 9.9674 Q128.104 9.9674 127.6249 10.5404 Q127.1561 11.1133 127.1561 12.3529 ZM133.1145 8.0924 L133.1145 6.8633 L134.177 6.8633 L134.177 8.0924 L133.1145 8.0924 ZM131.7811 17.8737 L131.979 16.9779 Q132.302 17.0612 132.479 17.0612 Q132.802 17.0612 132.9582 16.8424 Q133.1145 16.6341 133.1145 15.7695 L133.1145 9.2383 L134.177 9.2383 L134.177 15.8008 Q134.177 16.9466 133.8749 17.3945 Q133.4895 17.9779 132.604 17.9779 Q132.177 17.9779 131.7811 17.8737 ZM139.8644 15.457 L139.8644 14.5404 Q139.1457 15.6029 137.8957 15.6029 Q137.3436 15.6029 136.8644 15.3945 Q136.3853 15.1758 136.1561 14.8633 Q135.9269 14.5404 135.8332 14.0716 Q135.7707 13.7591 135.7707 13.0924 L135.7707 9.2383 L136.8228 9.2383 L136.8228 12.6862 Q136.8228 13.5091 136.8853 13.8008 Q136.9894 14.2174 137.3124 14.457 Q137.6353 14.6862 138.104 14.6862 Q138.5832 14.6862 138.9999 14.4466 Q139.4165 14.207 139.5832 13.7904 Q139.7603 13.3633 139.7603 12.5716 L139.7603 9.2383 L140.8124 9.2383 L140.8124 15.457 L139.8644 15.457 ZM146.4998 15.457 L146.4998 14.6758 Q145.9061 15.6029 144.7498 15.6029 Q144.0103 15.6029 143.3853 15.1966 Q142.7603 14.7799 142.4165 14.0508 Q142.0728 13.3112 142.0728 12.3529 Q142.0728 11.4154 142.3853 10.6654 Q142.6978 9.9049 143.3123 9.4987 Q143.9373 9.0924 144.7082 9.0924 Q145.2707 9.0924 145.7082 9.332 Q146.1457 9.5716 146.4269 9.9466 L146.4269 6.8633 L147.4686 6.8633 L147.4686 15.457 L146.4998 15.457 ZM143.1561 12.3529 Q143.1561 13.5508 143.6561 14.1445 Q144.1665 14.7279 144.854 14.7279 Q145.5415 14.7279 146.0207 14.1654 Q146.5103 13.6029 146.5103 12.4362 Q146.5103 11.1654 146.0207 10.5716 Q145.5311 9.9674 144.8123 9.9674 Q144.104 9.9674 143.6248 10.5404 Q143.1561 11.1133 143.1561 12.3529 ZM149.1353 8.082 L149.1353 6.8633 L150.1873 6.8633 L150.1873 8.082 L149.1353 8.082 ZM149.1353 15.457 L149.1353 9.2383 L150.1873 9.2383 L150.1873 15.457 L149.1353 15.457 ZM155.854 13.1758 L156.8853 13.3112 Q156.7186 14.3841 156.0207 14.9987 Q155.3228 15.6029 154.3019 15.6029 Q153.0207 15.6029 152.2394 14.7695 Q151.4686 13.9258 151.4686 12.3737 Q151.4686 11.3633 151.8019 10.6133 Q152.1353 9.8529 152.8123 9.4779 Q153.4998 9.0924 154.3019 9.0924 Q155.3228 9.0924 155.9582 9.6133 Q156.604 10.1237 156.7915 11.0612 L155.7603 11.2174 Q155.6144 10.5924 155.2394 10.2799 Q154.8748 9.957 154.3436 9.957 Q153.5519 9.957 153.0519 10.5299 Q152.5519 11.1029 152.5519 12.3424 Q152.5519 13.5924 153.0311 14.1654 Q153.5103 14.7279 154.2915 14.7279 Q154.9061 14.7279 155.3228 14.3529 Q155.7394 13.9674 155.854 13.1758 ZM161.854 14.6862 Q161.2707 15.1862 160.7186 15.3945 Q160.1769 15.6029 159.5623 15.6029 Q158.5311 15.6029 157.979 15.1029 Q157.4373 14.5924 157.4373 13.8112 Q157.4373 13.3633 157.6457 12.9883 Q157.854 12.6029 158.1873 12.3737 Q158.5207 12.1445 158.9478 12.0299 Q159.2603 11.9466 159.8853 11.8737 Q161.1561 11.7174 161.7603 11.5091 Q161.7707 11.2904 161.7707 11.2279 Q161.7707 10.5924 161.4686 10.3216 Q161.0623 9.9674 160.2707 9.9674 Q159.5207 9.9674 159.1665 10.2279 Q158.8123 10.4883 158.6457 11.1549 L157.6144 11.0091 Q157.7603 10.3424 158.0728 9.9362 Q158.3957 9.5299 158.9998 9.3112 Q159.6144 9.0924 160.4269 9.0924 Q161.2186 9.0924 161.7186 9.2799 Q162.2186 9.4674 162.4478 9.7591 Q162.6873 10.0404 162.7811 10.4674 Q162.8332 10.7383 162.8332 11.4466 L162.8332 12.8529 Q162.8332 14.3216 162.8957 14.7174 Q162.9686 15.1029 163.1665 15.457 L162.0623 15.457 Q161.8957 15.1237 161.854 14.6862 ZM161.7603 12.332 Q161.1873 12.5716 160.0415 12.7279 Q159.3957 12.8216 159.1248 12.9466 Q158.854 13.0612 158.7082 13.2904 Q158.5623 13.5091 158.5623 13.7904 Q158.5623 14.207 158.8748 14.4883 Q159.1978 14.7695 159.8123 14.7695 Q160.4269 14.7695 160.8957 14.5091 Q161.3748 14.2383 161.5936 13.7799 Q161.7603 13.4154 161.7603 12.7174 L161.7603 12.332 ZM164.4477 15.457 L164.4477 9.2383 L165.3957 9.2383 L165.3957 10.1758 Q165.7602 9.5195 166.0623 9.3112 Q166.3748 9.0924 166.7394 9.0924 Q167.2811 9.0924 167.8227 9.4362 L167.4686 10.4154 Q167.0727 10.1862 166.6873 10.1862 Q166.3436 10.1862 166.0623 10.3945 Q165.7915 10.6029 165.6769 10.9674 Q165.4998 11.5299 165.4998 12.1966 L165.4998 15.457 L164.4477 15.457 Z" stroke="none" clip-path="url(#clipPath10)"
    /></g
    ><g font-size="11px" transform="translate(1350,2)" fill-opacity="1" fill="rgb(122,207,245)" text-rendering="geometricPrecision" image-rendering="optimizeQuality" font-family="sans-serif" stroke="rgb(122,207,245)" stroke-opacity="1"
    ><rect x="0" width="73" height="35" y="0" clip-path="url(#clipPath11)" stroke="none"
    /></g
    ><g stroke-linecap="butt" font-size="11px" transform="translate(1350,2)" fill-opacity="1" fill="black" text-rendering="geometricPrecision" image-rendering="optimizeQuality" font-family="sans-serif" stroke-linejoin="round" stroke="black" stroke-opacity="1" stroke-miterlimit="0"
    ><rect fill="none" x="0" width="73" height="35" y="0" clip-path="url(#clipPath11)"
      /><line clip-path="url(#clipPath11)" fill="none" x1="36" x2="36" y1="35" y2="1180" stroke-linejoin="bevel" stroke-dasharray="8,3"
    /></g
    ><g font-size="11px" transform="translate(1038,2)" fill-opacity="1" fill="rgb(122,207,245)" text-rendering="geometricPrecision" image-rendering="optimizeQuality" font-family="sans-serif" stroke="rgb(122,207,245)" stroke-opacity="1"
    ><rect x="0" width="88" height="35" y="0" clip-path="url(#clipPath12)" stroke="none"
    /></g
    ><g stroke-linecap="butt" font-size="11px" transform="translate(1038,2)" fill-opacity="1" fill="black" text-rendering="geometricPrecision" image-rendering="optimizeQuality" font-family="sans-serif" stroke-linejoin="round" stroke="black" stroke-opacity="1" stroke-miterlimit="0"
    ><rect fill="none" x="0" width="88" height="35" y="0" clip-path="url(#clipPath12)"
      /><line clip-path="url(#clipPath12)" fill="none" x1="44" x2="44" y1="35" y2="1180" stroke-linejoin="bevel" stroke-dasharray="8,3"
    /></g
    ><g font-size="11px" transform="translate(446,373)" fill-opacity="1" fill="rgb(122,207,245)" text-rendering="geometricPrecision" image-rendering="optimizeQuality" font-family="sans-serif" stroke="rgb(122,207,245)" stroke-opacity="1"
    ><rect x="0" width="8" height="132" y="0" clip-path="url(#clipPath13)" stroke="none"
    /></g
    ><g stroke-linecap="butt" font-size="11px" transform="translate(446,373)" fill-opacity="1" fill="black" text-rendering="geometricPrecision" image-rendering="optimizeQuality" font-family="sans-serif" stroke-linejoin="round" stroke="black" stroke-opacity="1" stroke-miterlimit="0"
    ><rect fill="none" x="0" width="8" height="132" y="0" clip-path="url(#clipPath13)"
    /></g
    ><g font-size="11px" transform="translate(1078,419)" fill-opacity="1" fill="rgb(122,207,245)" text-rendering="geometricPrecision" image-rendering="optimizeQuality" font-family="sans-serif" stroke="rgb(122,207,245)" stroke-opacity="1"
    ><rect x="0" width="8" height="12" y="0" clip-path="url(#clipPath14)" stroke="none"
    /></g
    ><g stroke-linecap="butt" font-size="11px" transform="translate(1078,419)" fill-opacity="1" fill="black" text-rendering="geometricPrecision" image-rendering="optimizeQuality" font-family="sans-serif" stroke-linejoin="round" stroke="black" stroke-opacity="1" stroke-miterlimit="0"
    ><rect fill="none" x="0" width="8" height="12" y="0" clip-path="url(#clipPath14)"
    /></g
    ><g font-size="11px" transform="translate(446,555)" fill-opacity="1" fill="rgb(122,207,245)" text-rendering="geometricPrecision" image-rendering="optimizeQuality" font-family="sans-serif" stroke="rgb(122,207,245)" stroke-opacity="1"
    ><rect x="0" width="8" height="110" y="0" clip-path="url(#clipPath15)" stroke="none"
    /></g
    ><g stroke-linecap="butt" font-size="11px" transform="translate(446,555)" fill-opacity="1" fill="black" text-rendering="geometricPrecision" image-rendering="optimizeQuality" font-family="sans-serif" stroke-linejoin="round" stroke="black" stroke-opacity="1" stroke-miterlimit="0"
    ><rect fill="none" x="0" width="8" height="110" y="0" clip-path="url(#clipPath15)"
    /></g
    ><g font-size="11px" transform="translate(1856,736)" fill-opacity="1" fill="rgb(122,207,245)" text-rendering="geometricPrecision" image-rendering="optimizeQuality" font-family="sans-serif" stroke="rgb(122,207,245)" stroke-opacity="1"
    ><rect x="0" width="105" height="35" y="0" clip-path="url(#clipPath16)" stroke="none"
    /></g
    ><g stroke-linecap="butt" font-size="11px" transform="translate(1856,736)" fill-opacity="1" fill="black" text-rendering="geometricPrecision" image-rendering="optimizeQuality" font-family="sans-serif" stroke-linejoin="round" stroke="black" stroke-opacity="1" stroke-miterlimit="0"
    ><rect fill="none" x="0" width="105" height="35" y="0" clip-path="url(#clipPath16)"
      /><line clip-path="url(#clipPath16)" fill="none" x1="52" x2="52" y1="35" y2="446" stroke-linejoin="bevel" stroke-dasharray="8,3"
    /></g
    ><g font-size="11px" transform="translate(759,383)" fill-opacity="1" fill="rgb(122,207,245)" text-rendering="geometricPrecision" image-rendering="optimizeQuality" font-family="sans-serif" stroke="rgb(122,207,245)" stroke-opacity="1"
    ><rect x="0" width="8" height="157" y="0" clip-path="url(#clipPath17)" stroke="none"
    /></g
    ><g stroke-linecap="butt" font-size="11px" transform="translate(759,383)" fill-opacity="1" fill="black" text-rendering="geometricPrecision" image-rendering="optimizeQuality" font-family="sans-serif" stroke-linejoin="round" stroke="black" stroke-opacity="1" stroke-miterlimit="0"
    ><rect fill="none" x="0" width="8" height="157" y="0" clip-path="url(#clipPath17)"
    /></g
    ><g font-size="11px" transform="translate(446,706)" fill-opacity="1" fill="rgb(122,207,245)" text-rendering="geometricPrecision" image-rendering="optimizeQuality" font-family="sans-serif" stroke="rgb(122,207,245)" stroke-opacity="1"
    ><rect x="0" width="8" height="176" y="0" clip-path="url(#clipPath18)" stroke="none"
    /></g
    ><g stroke-linecap="butt" font-size="11px" transform="translate(446,706)" fill-opacity="1" fill="black" text-rendering="geometricPrecision" image-rendering="optimizeQuality" font-family="sans-serif" stroke-linejoin="round" stroke="black" stroke-opacity="1" stroke-miterlimit="0"
    ><rect fill="none" x="0" width="8" height="176" y="0" clip-path="url(#clipPath18)"
    /></g
    ><g font-size="11px" transform="translate(759,714)" fill-opacity="1" fill="rgb(122,207,245)" text-rendering="geometricPrecision" image-rendering="optimizeQuality" font-family="sans-serif" stroke="rgb(122,207,245)" stroke-opacity="1"
    ><rect x="0" width="8" height="146" y="0" clip-path="url(#clipPath19)" stroke="none"
    /></g
    ><g stroke-linecap="butt" font-size="11px" transform="translate(759,714)" fill-opacity="1" fill="black" text-rendering="geometricPrecision" image-rendering="optimizeQuality" font-family="sans-serif" stroke-linejoin="round" stroke="black" stroke-opacity="1" stroke-miterlimit="0"
    ><rect fill="none" x="0" width="8" height="146" y="0" clip-path="url(#clipPath19)"
    /></g
    ><g font-size="11px" transform="translate(1458,2)" fill-opacity="1" fill="rgb(122,207,245)" text-rendering="geometricPrecision" image-rendering="optimizeQuality" font-family="sans-serif" stroke="rgb(122,207,245)" stroke-opacity="1"
    ><rect x="0" width="183" height="35" y="0" clip-path="url(#clipPath20)" stroke="none"
    /></g
    ><g stroke-linecap="butt" font-size="11px" transform="translate(1458,2)" fill-opacity="1" fill="black" text-rendering="geometricPrecision" image-rendering="optimizeQuality" font-family="sans-serif" stroke-linejoin="round" stroke="black" stroke-opacity="1" stroke-miterlimit="0"
    ><rect fill="none" x="0" width="183" height="35" y="0" clip-path="url(#clipPath20)"
      /><line clip-path="url(#clipPath20)" fill="none" x1="91" x2="91" y1="35" y2="1180" stroke-linejoin="bevel" stroke-dasharray="8,3"
    /></g
    ><g font-size="11px" transform="translate(1546,741)" fill-opacity="1" fill="rgb(122,207,245)" text-rendering="geometricPrecision" image-rendering="optimizeQuality" font-family="sans-serif" stroke="rgb(122,207,245)" stroke-opacity="1"
    ><rect x="0" width="8" height="22" y="0" clip-path="url(#clipPath21)" stroke="none"
    /></g
    ><g stroke-linecap="butt" font-size="11px" transform="translate(1546,741)" fill-opacity="1" fill="black" text-rendering="geometricPrecision" image-rendering="optimizeQuality" font-family="sans-serif" stroke-linejoin="round" stroke="black" stroke-opacity="1" stroke-miterlimit="0"
    ><rect fill="none" x="0" width="8" height="22" y="0" clip-path="url(#clipPath21)"
    /></g
    ><g font-size="11px" transform="translate(1546,811)" fill-opacity="1" fill="rgb(122,207,245)" text-rendering="geometricPrecision" image-rendering="optimizeQuality" font-family="sans-serif" stroke="rgb(122,207,245)" stroke-opacity="1"
    ><rect x="0" width="8" height="24" y="0" clip-path="url(#clipPath22)" stroke="none"
    /></g
    ><g stroke-linecap="butt" font-size="11px" transform="translate(1546,811)" fill-opacity="1" fill="black" text-rendering="geometricPrecision" image-rendering="optimizeQuality" font-family="sans-serif" stroke-linejoin="round" stroke="black" stroke-opacity="1" stroke-miterlimit="0"
    ><rect fill="none" x="0" width="8" height="24" y="0" clip-path="url(#clipPath22)"
    /></g
    ><g font-size="11px" transform="translate(446,954)" fill-opacity="1" fill="rgb(122,207,245)" text-rendering="geometricPrecision" image-rendering="optimizeQuality" font-family="sans-serif" stroke="rgb(122,207,245)" stroke-opacity="1"
    ><rect x="0" width="8" height="208" y="0" clip-path="url(#clipPath23)" stroke="none"
    /></g
    ><g stroke-linecap="butt" font-size="11px" transform="translate(446,954)" fill-opacity="1" fill="black" text-rendering="geometricPrecision" image-rendering="optimizeQuality" font-family="sans-serif" stroke-linejoin="round" stroke="black" stroke-opacity="1" stroke-miterlimit="0"
    ><rect fill="none" x="0" width="8" height="208" y="0" clip-path="url(#clipPath23)"
    /></g
    ><g font-size="11px" transform="translate(759,966)" fill-opacity="1" fill="rgb(122,207,245)" text-rendering="geometricPrecision" image-rendering="optimizeQuality" font-family="sans-serif" stroke="rgb(122,207,245)" stroke-opacity="1"
    ><rect x="0" width="8" height="101" y="0" clip-path="url(#clipPath24)" stroke="none"
    /></g
    ><g stroke-linecap="butt" font-size="11px" transform="translate(759,966)" fill-opacity="1" fill="black" text-rendering="geometricPrecision" image-rendering="optimizeQuality" font-family="sans-serif" stroke-linejoin="round" stroke="black" stroke-opacity="1" stroke-miterlimit="0"
    ><rect fill="none" x="0" width="8" height="101" y="0" clip-path="url(#clipPath24)"
    /></g
    ><g font-size="11px" transform="translate(1546,974)" fill-opacity="1" fill="rgb(122,207,245)" text-rendering="geometricPrecision" image-rendering="optimizeQuality" font-family="sans-serif" stroke="rgb(122,207,245)" stroke-opacity="1"
    ><rect x="0" width="8" height="146" y="0" clip-path="url(#clipPath19)" stroke="none"
    /></g
    ><g stroke-linecap="butt" font-size="11px" transform="translate(1546,974)" fill-opacity="1" fill="black" text-rendering="geometricPrecision" image-rendering="optimizeQuality" font-family="sans-serif" stroke-linejoin="round" stroke="black" stroke-opacity="1" stroke-miterlimit="0"
    ><rect fill="none" x="0" width="8" height="146" y="0" clip-path="url(#clipPath19)"
    /></g
    ><g font-size="11px" transform="translate(1715,2)" fill-opacity="1" fill="rgb(122,207,245)" text-rendering="geometricPrecision" image-rendering="optimizeQuality" font-family="sans-serif" stroke="rgb(122,207,245)" stroke-opacity="1"
    ><rect x="0" width="107" height="35" y="0" clip-path="url(#clipPath25)" stroke="none"
    /></g
    ><g stroke-linecap="butt" font-size="11px" transform="translate(1715,2)" fill-opacity="1" fill="black" text-rendering="geometricPrecision" image-rendering="optimizeQuality" font-family="sans-serif" stroke-linejoin="round" stroke="black" stroke-opacity="1" stroke-miterlimit="0"
    ><rect fill="none" x="0" width="107" height="35" y="0" clip-path="url(#clipPath25)"
      /><line clip-path="url(#clipPath25)" fill="none" x1="53" x2="53" y1="35" y2="1180" stroke-linejoin="bevel" stroke-dasharray="8,3"
    /></g
    ><g font-size="11px" transform="translate(1765,1031)" fill-opacity="1" fill="rgb(122,207,245)" text-rendering="geometricPrecision" image-rendering="optimizeQuality" font-family="sans-serif" stroke="rgb(122,207,245)" stroke-opacity="1"
    ><rect x="0" width="8" height="12" y="0" clip-path="url(#clipPath14)" stroke="none"
    /></g
    ><g stroke-linecap="butt" font-size="11px" transform="translate(1765,1031)" fill-opacity="1" fill="black" text-rendering="geometricPrecision" image-rendering="optimizeQuality" font-family="sans-serif" stroke-linejoin="round" stroke="black" stroke-opacity="1" stroke-miterlimit="0"
    ><rect fill="none" x="0" width="8" height="12" y="0" clip-path="url(#clipPath14)"
    /></g
    ><g font-size="11px" transform="translate(2113,2)" fill-opacity="1" fill="rgb(122,207,245)" text-rendering="geometricPrecision" image-rendering="optimizeQuality" font-family="sans-serif" stroke="rgb(122,207,245)" stroke-opacity="1"
    ><rect x="0" width="90" height="35" y="0" clip-path="url(#clipPath26)" stroke="none"
    /></g
    ><g stroke-linecap="butt" font-size="11px" transform="translate(2113,2)" fill-opacity="1" fill="black" text-rendering="geometricPrecision" image-rendering="optimizeQuality" font-family="sans-serif" stroke-linejoin="round" stroke="black" stroke-opacity="1" stroke-miterlimit="0"
    ><rect fill="none" x="0" width="90" height="35" y="0" clip-path="url(#clipPath26)"
      /><line clip-path="url(#clipPath26)" fill="none" x1="45" x2="45" y1="35" y2="1180" stroke-linejoin="bevel" stroke-dasharray="8,3"
    /></g
    ><g font-size="11px" transform="translate(1765,466)" fill-opacity="1" fill="rgb(122,207,245)" text-rendering="geometricPrecision" image-rendering="optimizeQuality" font-family="sans-serif" stroke="rgb(122,207,245)" stroke-opacity="1"
    ><rect x="0" width="8" height="62" y="0" clip-path="url(#clipPath27)" stroke="none"
    /></g
    ><g stroke-linecap="butt" font-size="11px" transform="translate(1765,466)" fill-opacity="1" fill="black" text-rendering="geometricPrecision" image-rendering="optimizeQuality" font-family="sans-serif" stroke-linejoin="round" stroke="black" stroke-opacity="1" stroke-miterlimit="0"
    ><rect fill="none" x="0" width="8" height="62" y="0" clip-path="url(#clipPath27)"
    /></g
    ><g font-size="11px" transform="translate(1938,2)" fill-opacity="1" fill="rgb(122,207,245)" text-rendering="geometricPrecision" image-rendering="optimizeQuality" font-family="sans-serif" stroke="rgb(122,207,245)" stroke-opacity="1"
    ><rect x="0" width="139" height="35" y="0" clip-path="url(#clipPath28)" stroke="none"
    /></g
    ><g stroke-linecap="butt" font-size="11px" transform="translate(1938,2)" fill-opacity="1" fill="black" text-rendering="geometricPrecision" image-rendering="optimizeQuality" font-family="sans-serif" stroke-linejoin="round" stroke="black" stroke-opacity="1" stroke-miterlimit="0"
    ><rect fill="none" x="0" width="139" height="35" y="0" clip-path="url(#clipPath28)"
      /><line clip-path="url(#clipPath28)" fill="none" x1="69" x2="69" y1="35" y2="1180" stroke-linejoin="bevel" stroke-dasharray="8,3"
    /></g
    ><g font-size="11px" transform="translate(2004,483)" fill-opacity="1" fill="rgb(122,207,245)" text-rendering="geometricPrecision" image-rendering="optimizeQuality" font-family="sans-serif" stroke="rgb(122,207,245)" stroke-opacity="1"
    ><rect x="0" width="8" height="33" y="0" clip-path="url(#clipPath29)" stroke="none"
    /></g
    ><g stroke-linecap="butt" font-size="11px" transform="translate(2004,483)" fill-opacity="1" fill="black" text-rendering="geometricPrecision" image-rendering="optimizeQuality" font-family="sans-serif" stroke-linejoin="round" stroke="black" stroke-opacity="1" stroke-miterlimit="0"
    ><rect fill="none" x="0" width="8" height="33" y="0" clip-path="url(#clipPath29)"
    /></g
    ><g font-size="11px" transform="translate(2154,490)" fill-opacity="1" fill="rgb(122,207,245)" text-rendering="geometricPrecision" image-rendering="optimizeQuality" font-family="sans-serif" stroke="rgb(122,207,245)" stroke-opacity="1"
    ><rect x="0" width="8" height="51" y="0" clip-path="url(#clipPath30)" stroke="none"
    /></g
    ><g stroke-linecap="butt" font-size="11px" transform="translate(2154,490)" fill-opacity="1" fill="black" text-rendering="geometricPrecision" image-rendering="optimizeQuality" font-family="sans-serif" stroke-linejoin="round" stroke="black" stroke-opacity="1" stroke-miterlimit="0"
    ><rect fill="none" x="0" width="8" height="51" y="0" clip-path="url(#clipPath30)"
    /></g
    ><g font-size="11px" transform="translate(1212,2)" fill-opacity="1" fill="rgb(122,207,245)" text-rendering="geometricPrecision" image-rendering="optimizeQuality" font-family="sans-serif" stroke="rgb(122,207,245)" stroke-opacity="1"
    ><rect x="0" width="90" height="35" y="0" clip-path="url(#clipPath26)" stroke="none"
    /></g
    ><g stroke-linecap="butt" font-size="11px" transform="translate(1212,2)" fill-opacity="1" fill="black" text-rendering="geometricPrecision" image-rendering="optimizeQuality" font-family="sans-serif" stroke-linejoin="round" stroke="black" stroke-opacity="1" stroke-miterlimit="0"
    ><rect fill="none" x="0" width="90" height="35" y="0" clip-path="url(#clipPath26)"
      /><line clip-path="url(#clipPath26)" fill="none" x1="45" x2="45" y1="35" y2="1180" stroke-linejoin="bevel" stroke-dasharray="8,3"
    /></g
    ><g font-size="11px" transform="translate(936,2)" fill-opacity="1" fill="rgb(122,207,245)" text-rendering="geometricPrecision" image-rendering="optimizeQuality" font-family="sans-serif" stroke="rgb(122,207,245)" stroke-opacity="1"
    ><rect x="0" width="79" height="35" y="0" clip-path="url(#clipPath31)" stroke="none"
    /></g
    ><g stroke-linecap="butt" font-size="11px" transform="translate(936,2)" fill-opacity="1" fill="black" text-rendering="geometricPrecision" image-rendering="optimizeQuality" font-family="sans-serif" stroke-linejoin="round" stroke="black" stroke-opacity="1" stroke-miterlimit="0"
    ><rect fill="none" x="0" width="79" height="35" y="0" clip-path="url(#clipPath31)"
      /><line clip-path="url(#clipPath31)" fill="none" x1="39" x2="39" y1="35" y2="152" stroke-linejoin="bevel" stroke-dasharray="8,3"
      /><line clip-path="url(#clipPath31)" fill="none" x1="39" x2="39" y1="202" y2="1180" stroke-linejoin="bevel" stroke-dasharray="8,3"
    /></g
    ><g font-size="11px" transform="translate(2,37)" fill-opacity="1" fill="black" text-rendering="geometricPrecision" image-rendering="optimizeQuality" font-family="sans-serif" stroke="black" stroke-opacity="1"
    ><text x="10" xml:space="preserve" y="12" clip-path="url(#clipPath32)" stroke="none"
      >Gestror de Organização</text
    ></g
    ><g font-size="11px" transform="translate(392,2)" fill-opacity="1" fill="black" text-rendering="geometricPrecision" image-rendering="optimizeQuality" font-family="sans-serif" stroke="black" stroke-opacity="1"
    ><text x="10" xml:space="preserve" y="12" clip-path="url(#clipPath33)" stroke="none"
      >AdjudicarAnuncioUI</text
    ></g
    ><g font-size="11px" transform="translate(686,2)" fill-opacity="1" fill="black" text-rendering="geometricPrecision" image-rendering="optimizeQuality" font-family="sans-serif" stroke="black" stroke-opacity="1"
    ><text x="9" xml:space="preserve" y="12" clip-path="url(#clipPath34)" stroke="none"
      >AdjudicarAnuncioController</text
    ></g
    ><g font-size="11px" transform="translate(1350,2)" fill-opacity="1" fill="black" text-rendering="geometricPrecision" image-rendering="optimizeQuality" font-family="sans-serif" stroke="black" stroke-opacity="1"
    ><text x="9" xml:space="preserve" y="12" clip-path="url(#clipPath35)" stroke="none"
      >Plataforma</text
    ></g
    ><g font-size="11px" transform="translate(1038,2)" fill-opacity="1" fill="black" text-rendering="geometricPrecision" image-rendering="optimizeQuality" font-family="sans-serif" stroke="black" stroke-opacity="1"
    ><text x="8" xml:space="preserve" y="12" clip-path="url(#clipPath36)" stroke="none"
      >listaAnuncios :</text
      ><text x="9" xml:space="preserve" y="27" clip-path="url(#clipPath36)" stroke="none"
      >ListaAnuncios</text
    ></g
    ><g font-size="11px" transform="translate(1856,736)" fill-opacity="1" fill="black" text-rendering="geometricPrecision" image-rendering="optimizeQuality" font-family="sans-serif" stroke="black" stroke-opacity="1"
    ><text x="10" xml:space="preserve" y="12" clip-path="url(#clipPath37)" stroke="none"
      >AdjudicarAnuncio</text
    ></g
    ><g font-size="11px" transform="translate(1458,2)" fill-opacity="1" fill="black" text-rendering="geometricPrecision" image-rendering="optimizeQuality" font-family="sans-serif" stroke="black" stroke-opacity="1"
    ><text x="10" xml:space="preserve" y="12" clip-path="url(#clipPath38)" stroke="none"
      >regAdj : RegistoAdjudicarAnuncio</text
    ></g
    ><g font-size="11px" transform="translate(1715,2)" fill-opacity="1" fill="black" text-rendering="geometricPrecision" image-rendering="optimizeQuality" font-family="sans-serif" stroke="black" stroke-opacity="1"
    ><text x="9" xml:space="preserve" y="12" clip-path="url(#clipPath39)" stroke="none"
      >anuncio : Anuncio</text
    ></g
    ><g font-size="11px" transform="translate(2113,2)" fill-opacity="1" fill="black" text-rendering="geometricPrecision" image-rendering="optimizeQuality" font-family="sans-serif" stroke="black" stroke-opacity="1"
    ><text x="9" xml:space="preserve" y="12" clip-path="url(#clipPath40)" stroke="none"
      >Classsificacao</text
    ></g
    ><g font-size="11px" transform="translate(1938,2)" fill-opacity="1" fill="black" text-rendering="geometricPrecision" image-rendering="optimizeQuality" font-family="sans-serif" stroke="black" stroke-opacity="1"
    ><text x="9" xml:space="preserve" y="12" clip-path="url(#clipPath41)" stroke="none"
      >prcs : ProcessoSeriacao</text
    ></g
    ><g font-size="11px" transform="translate(1212,2)" fill-opacity="1" fill="black" text-rendering="geometricPrecision" image-rendering="optimizeQuality" font-family="sans-serif" stroke="black" stroke-opacity="1"
    ><text x="10" xml:space="preserve" y="12" clip-path="url(#clipPath40)" stroke="none"
      >flr : Freelancer</text
    ></g
    ><g font-size="11px" transform="translate(936,2)" fill-opacity="1" fill="black" text-rendering="geometricPrecision" image-rendering="optimizeQuality" font-family="sans-serif" stroke="black" stroke-opacity="1"
    ><text x="10" xml:space="preserve" y="12" clip-path="url(#clipPath42)" stroke="none"
      >Candidatura</text
    ></g
    ><g stroke-linecap="butt" font-size="11px" transform="translate(25,70)" fill-opacity="1" fill="black" text-rendering="geometricPrecision" image-rendering="optimizeQuality" font-family="sans-serif" stroke-linejoin="round" stroke="black" stroke-opacity="1"
    ><line y2="50" fill="none" x1="50" clip-path="url(#clipPath44)" x2="421" y1="50"
      /><polygon points=" 421 50 409 44 409 56" clip-path="url(#clipPath44)" stroke="none"
      /><polygon fill="none" points=" 421 50 409 44 409 56" clip-path="url(#clipPath44)"
    /></g
    ><g stroke-linecap="butt" font-size="11px" transform="translate(404,80)" fill-opacity="1" fill="black" text-rendering="geometricPrecision" image-rendering="optimizeQuality" font-family="sans-serif" stroke-linejoin="round" stroke="black" stroke-opacity="1"
    ><line y2="50" fill="none" x1="50" clip-path="url(#clipPath46)" x2="355" y1="50"
      /><polygon points=" 355 50 343 44 343 56" clip-path="url(#clipPath46)" stroke="none"
      /><polygon fill="none" points=" 355 50 343 44 343 56" clip-path="url(#clipPath46)"
    /></g
    ><g fill-opacity="1" text-rendering="geometricPrecision" stroke="black" stroke-linecap="butt" transform="translate(25,230)" stroke-miterlimit="0" stroke-opacity="1" fill="black" stroke-dasharray="8,3" font-family="sans-serif" stroke-linejoin="round" font-size="11px" image-rendering="optimizeQuality"
    ><line y2="50" fill="none" x1="421" clip-path="url(#clipPath47)" x2="50" y1="50"
      /><line clip-path="url(#clipPath47)" fill="none" x1="50" x2="62" y1="50" y2="56" stroke-dasharray="none" stroke-miterlimit="10"
      /><line clip-path="url(#clipPath47)" fill="none" x1="50" x2="62" y1="50" y2="44" stroke-dasharray="none" stroke-miterlimit="10"
    /></g
    ><g stroke-linecap="butt" font-size="11px" transform="translate(25,333)" fill-opacity="1" fill="black" text-rendering="geometricPrecision" image-rendering="optimizeQuality" font-family="sans-serif" stroke-linejoin="round" stroke="black" stroke-opacity="1"
    ><line y2="50" fill="none" x1="50" clip-path="url(#clipPath48)" x2="421" y1="50"
      /><polygon points=" 421 50 409 44 409 56" clip-path="url(#clipPath48)" stroke="none"
      /><polygon fill="none" points=" 421 50 409 44 409 56" clip-path="url(#clipPath48)"
    /></g
    ><g stroke-linecap="butt" font-size="11px" transform="translate(717,369)" fill-opacity="1" fill="black" text-rendering="geometricPrecision" image-rendering="optimizeQuality" font-family="sans-serif" stroke-linejoin="round" stroke="black" stroke-opacity="1"
    ><line y2="50" fill="none" x1="50" clip-path="url(#clipPath50)" x2="361" y1="50"
      /><polygon points=" 361 50 349 44 349 56" clip-path="url(#clipPath50)" stroke="none"
      /><polygon fill="none" points=" 361 50 349 44 349 56" clip-path="url(#clipPath50)"
    /></g
    ><g fill-opacity="1" text-rendering="geometricPrecision" stroke="black" stroke-linecap="butt" transform="translate(25,443)" stroke-miterlimit="0" stroke-opacity="1" fill="black" stroke-dasharray="8,3" font-family="sans-serif" stroke-linejoin="round" font-size="11px" image-rendering="optimizeQuality"
    ><line y2="50" fill="none" x1="421" clip-path="url(#clipPath51)" x2="50" y1="50"
      /><line clip-path="url(#clipPath51)" fill="none" x1="50" x2="62" y1="50" y2="56" stroke-dasharray="none" stroke-miterlimit="10"
      /><line clip-path="url(#clipPath51)" fill="none" x1="50" x2="62" y1="50" y2="44" stroke-dasharray="none" stroke-miterlimit="10"
    /></g
    ><g stroke-linecap="butt" font-size="11px" transform="translate(25,509)" fill-opacity="1" fill="black" text-rendering="geometricPrecision" image-rendering="optimizeQuality" font-family="sans-serif" stroke-linejoin="round" stroke="black" stroke-opacity="1"
    ><line y2="50" fill="none" x1="50" clip-path="url(#clipPath52)" x2="421" y1="50"
      /><polygon points=" 421 50 409 44 409 56" clip-path="url(#clipPath52)" stroke="none"
      /><polygon fill="none" points=" 421 50 409 44 409 56" clip-path="url(#clipPath52)"
    /></g
    ><g fill-opacity="1" text-rendering="geometricPrecision" stroke="black" stroke-linecap="butt" transform="translate(25,603)" stroke-miterlimit="0" stroke-opacity="1" fill="black" stroke-dasharray="8,3" font-family="sans-serif" stroke-linejoin="round" font-size="11px" image-rendering="optimizeQuality"
    ><line y2="50" fill="none" x1="421" clip-path="url(#clipPath53)" x2="50" y1="50"
      /><line clip-path="url(#clipPath53)" fill="none" x1="50" x2="62" y1="50" y2="56" stroke-dasharray="none" stroke-miterlimit="10"
      /><line clip-path="url(#clipPath53)" fill="none" x1="50" x2="62" y1="50" y2="44" stroke-dasharray="none" stroke-miterlimit="10"
    /></g
    ><g stroke-linecap="butt" font-size="11px" transform="translate(25,666)" fill-opacity="1" fill="black" text-rendering="geometricPrecision" image-rendering="optimizeQuality" font-family="sans-serif" stroke-linejoin="round" stroke="black" stroke-opacity="1"
    ><line y2="50" fill="none" x1="50" clip-path="url(#clipPath54)" x2="421" y1="50"
      /><polygon points=" 421 50 409 44 409 56" clip-path="url(#clipPath54)" stroke="none"
      /><polygon fill="none" points=" 421 50 409 44 409 56" clip-path="url(#clipPath54)"
    /></g
    ><g stroke-linecap="butt" font-size="11px" transform="translate(404,674)" fill-opacity="1" fill="black" text-rendering="geometricPrecision" image-rendering="optimizeQuality" font-family="sans-serif" stroke-linejoin="round" stroke="black" stroke-opacity="1"
    ><line y2="50" fill="none" x1="50" clip-path="url(#clipPath55)" x2="355" y1="50"
      /><polygon points=" 355 50 343 44 343 56" clip-path="url(#clipPath55)" stroke="none"
      /><polygon fill="none" points=" 355 50 343 44 343 56" clip-path="url(#clipPath55)"
    /></g
    ><g stroke-linecap="butt" font-size="11px" transform="translate(717,692)" fill-opacity="1" fill="black" text-rendering="geometricPrecision" image-rendering="optimizeQuality" font-family="sans-serif" stroke-linejoin="round" stroke="black" stroke-opacity="1"
    ><line y2="50" fill="none" x1="50" clip-path="url(#clipPath57)" x2="829" y1="50"
      /><polygon points=" 829 50 817 44 817 56" clip-path="url(#clipPath57)" stroke="none"
      /><polygon fill="none" points=" 829 50 817 44 817 56" clip-path="url(#clipPath57)"
    /></g
    ><g fill-opacity="1" text-rendering="geometricPrecision" stroke="black" stroke-linecap="butt" transform="translate(1504,702)" stroke-opacity="1" fill="black" stroke-dasharray="5" font-family="sans-serif" stroke-linejoin="round" font-size="11px" stroke-dashoffset="1" image-rendering="optimizeQuality"
    ><line y2="50" fill="none" x1="50" clip-path="url(#clipPath59)" x2="352" y1="50"
      /><line clip-path="url(#clipPath59)" stroke-dashoffset="0" fill="none" x1="352" x2="340" y1="50" y2="44" stroke-dasharray="none"
      /><line clip-path="url(#clipPath59)" stroke-dashoffset="0" fill="none" x1="352" x2="340" y1="50" y2="56" stroke-dasharray="none"
    /></g
    ><g stroke-linecap="butt" font-size="11px" transform="translate(717,761)" fill-opacity="1" fill="black" text-rendering="geometricPrecision" image-rendering="optimizeQuality" font-family="sans-serif" stroke-linejoin="round" stroke="black" stroke-opacity="1"
    ><line y2="50" fill="none" x1="50" clip-path="url(#clipPath60)" x2="829" y1="50"
      /><polygon points=" 829 50 817 44 817 56" clip-path="url(#clipPath60)" stroke="none"
      /><polygon fill="none" points=" 829 50 817 44 817 56" clip-path="url(#clipPath60)"
    /></g
    ><g fill-opacity="1" text-rendering="geometricPrecision" stroke="black" stroke-linecap="butt" transform="translate(25,820)" stroke-miterlimit="0" stroke-opacity="1" fill="black" stroke-dasharray="8,3" font-family="sans-serif" stroke-linejoin="round" font-size="11px" image-rendering="optimizeQuality"
    ><line y2="50" fill="none" x1="421" clip-path="url(#clipPath61)" x2="50" y1="50"
      /><line clip-path="url(#clipPath61)" fill="none" x1="50" x2="62" y1="50" y2="56" stroke-dasharray="none" stroke-miterlimit="10"
      /><line clip-path="url(#clipPath61)" fill="none" x1="50" x2="62" y1="50" y2="44" stroke-dasharray="none" stroke-miterlimit="10"
    /></g
    ><g stroke-linecap="butt" font-size="11px" transform="translate(25,904)" fill-opacity="1" fill="black" text-rendering="geometricPrecision" image-rendering="optimizeQuality" font-family="sans-serif" stroke-linejoin="round" stroke="black" stroke-opacity="1"
    ><line y2="50" fill="none" x1="50" clip-path="url(#clipPath62)" x2="421" y1="50"
      /><polygon points=" 421 50 409 44 409 56" clip-path="url(#clipPath62)" stroke="none"
      /><polygon fill="none" points=" 421 50 409 44 409 56" clip-path="url(#clipPath62)"
    /></g
    ><g stroke-linecap="butt" font-size="11px" transform="translate(404,916)" fill-opacity="1" fill="black" text-rendering="geometricPrecision" image-rendering="optimizeQuality" font-family="sans-serif" stroke-linejoin="round" stroke="black" stroke-opacity="1"
    ><line y2="50" fill="none" x1="50" clip-path="url(#clipPath63)" x2="355" y1="50"
      /><polygon points=" 355 50 343 44 343 56" clip-path="url(#clipPath63)" stroke="none"
      /><polygon fill="none" points=" 355 50 343 44 343 56" clip-path="url(#clipPath63)"
    /></g
    ><g stroke-linecap="butt" font-size="11px" transform="translate(717,924)" fill-opacity="1" fill="black" text-rendering="geometricPrecision" image-rendering="optimizeQuality" font-family="sans-serif" stroke-linejoin="round" stroke="black" stroke-opacity="1"
    ><line y2="50" fill="none" x1="50" clip-path="url(#clipPath64)" x2="829" y1="50"
      /><polygon points=" 829 50 817 44 817 56" clip-path="url(#clipPath64)" stroke="none"
      /><polygon fill="none" points=" 829 50 817 44 817 56" clip-path="url(#clipPath64)"
    /></g
    ><g stroke-linecap="butt" font-size="11px" transform="translate(1504,938)" fill-opacity="1" fill="black" text-rendering="geometricPrecision" image-rendering="optimizeQuality" font-family="sans-serif" stroke-linejoin="round" stroke="black" stroke-opacity="1"
    ><line y2="50" fill="none" x1="50" clip-path="url(#clipPath66)" x2="80" y1="50"
      /><line y2="70" fill="none" x1="80" clip-path="url(#clipPath66)" x2="80" y1="50"
      /><line y2="70" fill="none" x1="80" clip-path="url(#clipPath66)" x2="50" y1="70"
      /><polygon points=" 50 70 62 76 62 64" clip-path="url(#clipPath66)" stroke="none"
      /><polygon fill="none" points=" 50 70 62 76 62 64" clip-path="url(#clipPath66)"
    /></g
    ><g stroke-linecap="butt" font-size="11px" transform="translate(1504,981)" fill-opacity="1" fill="black" text-rendering="geometricPrecision" image-rendering="optimizeQuality" font-family="sans-serif" stroke-linejoin="round" stroke="black" stroke-opacity="1"
    ><line y2="50" fill="none" x1="50" clip-path="url(#clipPath68)" x2="261" y1="50"
      /><polygon points=" 261 50 249 44 249 56" clip-path="url(#clipPath68)" stroke="none"
      /><polygon fill="none" points=" 261 50 249 44 249 56" clip-path="url(#clipPath68)"
    /></g
    ><g stroke-linecap="butt" font-size="11px" transform="translate(1504,1038)" fill-opacity="1" fill="black" text-rendering="geometricPrecision" image-rendering="optimizeQuality" font-family="sans-serif" stroke-linejoin="round" stroke="black" stroke-opacity="1"
    ><line y2="50" fill="none" x1="50" clip-path="url(#clipPath69)" x2="80" y1="50"
      /><line y2="70" fill="none" x1="80" clip-path="url(#clipPath69)" x2="80" y1="50"
      /><line y2="70" fill="none" x1="80" clip-path="url(#clipPath69)" x2="50" y1="70"
      /><polygon points=" 50 70 62 76 62 64" clip-path="url(#clipPath69)" stroke="none"
      /><polygon fill="none" points=" 50 70 62 76 62 64" clip-path="url(#clipPath69)"
    /></g
    ><g fill-opacity="1" text-rendering="geometricPrecision" stroke="black" stroke-linecap="butt" transform="translate(25,1089)" stroke-miterlimit="0" stroke-opacity="1" fill="black" stroke-dasharray="8,3" font-family="sans-serif" stroke-linejoin="round" font-size="11px" image-rendering="optimizeQuality"
    ><line y2="50" fill="none" x1="421" clip-path="url(#clipPath70)" x2="50" y1="50"
      /><line clip-path="url(#clipPath70)" fill="none" x1="50" x2="62" y1="50" y2="56" stroke-dasharray="none" stroke-miterlimit="10"
      /><line clip-path="url(#clipPath70)" fill="none" x1="50" x2="62" y1="50" y2="44" stroke-dasharray="none" stroke-miterlimit="10"
    /></g
    ><g stroke-linecap="butt" font-size="11px" transform="translate(404,347)" fill-opacity="1" fill="black" text-rendering="geometricPrecision" image-rendering="optimizeQuality" font-family="sans-serif" stroke-linejoin="round" stroke="black" stroke-opacity="1"
    ><line y2="50" fill="none" x1="50" clip-path="url(#clipPath71)" x2="355" y1="50"
      /><polygon points=" 355 50 343 44 343 56" clip-path="url(#clipPath71)" stroke="none"
      /><polygon fill="none" points=" 355 50 343 44 343 56" clip-path="url(#clipPath71)"
    /></g
    ><g stroke-linecap="butt" font-size="11px" transform="translate(717,418)" fill-opacity="1" fill="black" text-rendering="geometricPrecision" image-rendering="optimizeQuality" font-family="sans-serif" stroke-linejoin="round" stroke="black" stroke-opacity="1"
    ><line y2="50" fill="none" x1="50" clip-path="url(#clipPath73)" x2="1048" y1="50"
      /><polygon points=" 1048 50 1036 44 1036 56" clip-path="url(#clipPath73)" stroke="none"
      /><polygon fill="none" points=" 1048 50 1036 44 1036 56" clip-path="url(#clipPath73)"
    /></g
    ><g stroke-linecap="butt" font-size="11px" transform="translate(1723,433)" fill-opacity="1" fill="black" text-rendering="geometricPrecision" image-rendering="optimizeQuality" font-family="sans-serif" stroke-linejoin="round" stroke="black" stroke-opacity="1"
    ><line y2="50" fill="none" x1="50" clip-path="url(#clipPath75)" x2="281" y1="50"
      /><polygon points=" 281 50 269 44 269 56" clip-path="url(#clipPath75)" stroke="none"
      /><polygon fill="none" points=" 281 50 269 44 269 56" clip-path="url(#clipPath75)"
    /></g
    ><g stroke-linecap="butt" font-size="11px" transform="translate(1962,440)" fill-opacity="1" fill="black" text-rendering="geometricPrecision" image-rendering="optimizeQuality" font-family="sans-serif" stroke-linejoin="round" stroke="black" stroke-opacity="1"
    ><line y2="50" fill="none" x1="50" clip-path="url(#clipPath77)" x2="192" y1="50"
      /><polygon points=" 192 50 180 44 180 56" clip-path="url(#clipPath77)" stroke="none"
      /><polygon fill="none" points=" 192 50 180 44 180 56" clip-path="url(#clipPath77)"
    /></g
    ><g font-size="11px" transform="translate(2016,418)" fill-opacity="1" fill="white" text-rendering="geometricPrecision" image-rendering="optimizeQuality" font-family="sans-serif" stroke="white" stroke-opacity="1"
    ><rect x="0" width="132" height="67" y="0" clip-path="url(#clipPath78)" stroke="none"
      /><text fill="black" x="61" xml:space="preserve" y="23" clip-path="url(#clipPath78)" stroke="none"
      >9:</text
      ><text fill="black" x="5" xml:space="preserve" y="38" clip-path="url(#clipPath78)" stroke="none"
      >flr=getFreelancerMaisAd</text
      ><text fill="black" x="24" xml:space="preserve" y="53" clip-path="url(#clipPath78)" stroke="none"
      >equado(anuncio)</text
    ></g
    ><g font-size="11px" transform="translate(1778,462)" fill-opacity="1" fill="white" text-rendering="geometricPrecision" image-rendering="optimizeQuality" font-family="sans-serif" stroke="white" stroke-opacity="1"
    ><rect x="0" width="220" height="15" y="0" clip-path="url(#clipPath79)" stroke="none"
      /><text fill="black" x="9" xml:space="preserve" y="12" clip-path="url(#clipPath79)" stroke="none"
      >8: getFreelancerMaisAdequado(anuncio)</text
    ></g
    ><g font-size="11px" transform="translate(777,446)" fill-opacity="1" fill="white" text-rendering="geometricPrecision" image-rendering="optimizeQuality" font-family="sans-serif" stroke="white" stroke-opacity="1"
    ><rect x="0" width="220" height="15" y="0" clip-path="url(#clipPath79)" stroke="none"
      /><text fill="black" x="9" xml:space="preserve" y="12" clip-path="url(#clipPath79)" stroke="none"
      >7: getFreelancerMaisAdequado(anuncio)</text
    ></g
    ><g font-size="11px" transform="translate(494,377)" fill-opacity="1" fill="white" text-rendering="geometricPrecision" image-rendering="optimizeQuality" font-family="sans-serif" stroke="white" stroke-opacity="1"
    ><rect x="0" width="220" height="15" y="0" clip-path="url(#clipPath79)" stroke="none"
      /><text fill="black" x="9" xml:space="preserve" y="12" clip-path="url(#clipPath79)" stroke="none"
      >5: getFreelancerMaisAdequado(anuncio)</text
    ></g
    ><g font-size="11px" transform="translate(84,987)" fill-opacity="1" fill="white" text-rendering="geometricPrecision" image-rendering="optimizeQuality" font-family="sans-serif" stroke="white" stroke-opacity="1"
    ><rect x="0" width="347" height="143" y="0" clip-path="url(#clipPath80)" stroke="none"
      /><text fill="black" x="11" xml:space="preserve" y="61" clip-path="url(#clipPath80)" stroke="none"
      >25: O sistema gera um número único sequencial(por ano) e atribui</text
      ><text fill="black" x="9" xml:space="preserve" y="76" clip-path="url(#clipPath80)" stroke="none"
      >também a data em que a adjudicação ocorreu, regista os dados da</text
      ><text fill="black" x="26" xml:space="preserve" y="91" clip-path="url(#clipPath80)" stroke="none"
      >atribuição e informa o colaborador do sucesso da operação.</text
    ></g
    ><g font-size="11px" transform="translate(1581,1069)" fill-opacity="1" fill="white" text-rendering="geometricPrecision" image-rendering="optimizeQuality" font-family="sans-serif" stroke="white" stroke-opacity="1"
    ><rect x="0" width="181" height="15" y="0" clip-path="url(#clipPath81)" stroke="none"
      /><text fill="black" x="9" xml:space="preserve" y="12" clip-path="url(#clipPath81)" stroke="none"
      >24: addAdjudicaAnuncio(adjAnu)</text
    ></g
    ><g font-size="11px" transform="translate(1596,1011)" fill-opacity="1" fill="white" text-rendering="geometricPrecision" image-rendering="optimizeQuality" font-family="sans-serif" stroke="white" stroke-opacity="1"
    ><rect x="0" width="125" height="15" y="0" clip-path="url(#clipPath82)" stroke="none"
      /><text fill="black" x="10" xml:space="preserve" y="12" clip-path="url(#clipPath82)" stroke="none"
      >23: adjudicar(adjAnu)</text
    ></g
    ><g font-size="11px" transform="translate(1557,969)" fill-opacity="1" fill="white" text-rendering="geometricPrecision" image-rendering="optimizeQuality" font-family="sans-serif" stroke="white" stroke-opacity="1"
    ><rect x="0" width="195" height="15" y="0" clip-path="url(#clipPath83)" stroke="none"
      /><text fill="black" x="9" xml:space="preserve" y="12" clip-path="url(#clipPath83)" stroke="none"
      >22: validaAdjudicarAnuncio(adjAnu)</text
    ></g
    ><g font-size="11px" transform="translate(771,955)" fill-opacity="1" fill="white" text-rendering="geometricPrecision" image-rendering="optimizeQuality" font-family="sans-serif" stroke="white" stroke-opacity="1"
    ><rect x="0" width="199" height="15" y="0" clip-path="url(#clipPath84)" stroke="none"
      /><text fill="black" x="10" xml:space="preserve" y="12" clip-path="url(#clipPath84)" stroke="none"
      >21: registaAdjudicarAnuncio(adjAnu)</text
    ></g
    ><g font-size="11px" transform="translate(459,943)" fill-opacity="1" fill="white" text-rendering="geometricPrecision" image-rendering="optimizeQuality" font-family="sans-serif" stroke="white" stroke-opacity="1"
    ><rect x="0" width="165" height="15" y="0" clip-path="url(#clipPath85)" stroke="none"
      /><text fill="black" x="9" xml:space="preserve" y="12" clip-path="url(#clipPath85)" stroke="none"
      >20: registaAdjudicarAnuncio()</text
    ></g
    ><g font-size="11px" transform="translate(196,934)" fill-opacity="1" fill="white" text-rendering="geometricPrecision" image-rendering="optimizeQuality" font-family="sans-serif" stroke="white" stroke-opacity="1"
    ><rect x="0" width="126" height="15" y="0" clip-path="url(#clipPath86)" stroke="none"
      /><text fill="black" x="10" xml:space="preserve" y="12" clip-path="url(#clipPath86)" stroke="none"
      >19: O gestor confirma</text
    ></g
    ><g font-size="11px" transform="translate(85,850)" fill-opacity="1" fill="white" text-rendering="geometricPrecision" image-rendering="optimizeQuality" font-family="sans-serif" stroke="white" stroke-opacity="1"
    ><rect x="0" width="347" height="15" y="0" clip-path="url(#clipPath87)" stroke="none"
      /><text fill="black" x="10" xml:space="preserve" y="12" clip-path="url(#clipPath87)" stroke="none"
      >18: O sistema valida e apresenta os dados solicitando confirmação</text
    ></g
    ><g font-size="11px" transform="translate(776,786)" fill-opacity="1" fill="white" text-rendering="geometricPrecision" image-rendering="optimizeQuality" font-family="sans-serif" stroke="white" stroke-opacity="1"
    ><rect x="0" width="195" height="15" y="0" clip-path="url(#clipPath83)" stroke="none"
      /><text fill="black" x="9" xml:space="preserve" y="12" clip-path="url(#clipPath83)" stroke="none"
      >17: validaAdjudicarAnuncio(adjAnu)</text
    ></g
    ><g font-size="11px" transform="translate(1558,672)" fill-opacity="1" fill="white" text-rendering="geometricPrecision" image-rendering="optimizeQuality" font-family="sans-serif" stroke="white" stroke-opacity="1"
    ><rect x="0" width="274" height="74" y="0" clip-path="url(#clipPath88)" stroke="none"
      /><text fill="black" x="129" xml:space="preserve" y="26" clip-path="url(#clipPath88)" stroke="none"
      >16:</text
      ><text fill="black" x="7" xml:space="preserve" y="41" clip-path="url(#clipPath88)" stroke="none"
      >create(anuncio,freelancer,dtInicioTarefa,dtFimTarefa,</text
      ><text fill="black" x="86" xml:space="preserve" y="56" clip-path="url(#clipPath88)" stroke="none"
      >valorRemuneratorio)</text
    ></g
    ><g font-size="11px" transform="translate(775,716)" fill-opacity="1" fill="white" text-rendering="geometricPrecision" image-rendering="optimizeQuality" font-family="sans-serif" stroke="white" stroke-opacity="1"
    ><rect x="0" width="525" height="15" y="0" clip-path="url(#clipPath89)" stroke="none"
      /><text fill="black" x="9" xml:space="preserve" y="12" clip-path="url(#clipPath89)" stroke="none"
      >15: adjAnu = novoAdjudicarAnuncio(anuncio,freelancer,dtInicioTarefa,dtFimTarefa,valorRemuneratorio)</text
    ></g
    ><g font-size="11px" transform="translate(463,659)" fill-opacity="1" fill="white" text-rendering="geometricPrecision" image-rendering="optimizeQuality" font-family="sans-serif" stroke="white" stroke-opacity="1"
    ><rect x="0" width="271" height="60" y="0" clip-path="url(#clipPath90)" stroke="none"
      /><text fill="black" x="127" xml:space="preserve" y="19" clip-path="url(#clipPath90)" stroke="none"
      >14:</text
      ><text fill="black" x="5" xml:space="preserve" y="34" clip-path="url(#clipPath90)" stroke="none"
      >novoAdjudicarAnuncio(anuncio,flr,periodo,valorRemu</text
      ><text fill="black" x="111" xml:space="preserve" y="49" clip-path="url(#clipPath90)" stroke="none"
      >neratorio)</text
    ></g
    ><g font-size="11px" transform="translate(78,660)" fill-opacity="1" fill="white" text-rendering="geometricPrecision" image-rendering="optimizeQuality" font-family="sans-serif" stroke="white" stroke-opacity="1"
    ><rect x="0" width="368" height="52" y="0" clip-path="url(#clipPath91)" stroke="none"
      /><text fill="black" x="10" xml:space="preserve" y="23" clip-path="url(#clipPath91)" stroke="none"
      >13: O gestor vê os dados apresentados e uma possível adjudicação do</text
      ><text fill="black" x="163" xml:space="preserve" y="38" clip-path="url(#clipPath91)" stroke="none"
      >anúncio.</text
    ></g
    ><g font-size="11px" transform="translate(81,590)" fill-opacity="1" fill="white" text-rendering="geometricPrecision" image-rendering="optimizeQuality" font-family="sans-serif" stroke="white" stroke-opacity="1"
    ><rect x="0" width="352" height="55" y="0" clip-path="url(#clipPath92)" stroke="none"
      /><text fill="black" x="13" xml:space="preserve" y="24" clip-path="url(#clipPath92)" stroke="none"
      >12: O sistema vai buscar o período afeto à realização da tarefa e o</text
      ><text fill="black" x="64" xml:space="preserve" y="39" clip-path="url(#clipPath92)" stroke="none"
      >valor remunaratório associados ao freelancer.</text
    ></g
    ><g font-size="11px" transform="translate(143,539)" fill-opacity="1" fill="white" text-rendering="geometricPrecision" image-rendering="optimizeQuality" font-family="sans-serif" stroke="white" stroke-opacity="1"
    ><rect x="0" width="228" height="15" y="0" clip-path="url(#clipPath93)" stroke="none"
      /><text fill="black" x="10" xml:space="preserve" y="12" clip-path="url(#clipPath93)" stroke="none"
      >11: O gestor escolhe o freelancer sugerido</text
    ></g
    ><g font-size="11px" transform="translate(78,436)" fill-opacity="1" fill="white" text-rendering="geometricPrecision" image-rendering="optimizeQuality" font-family="sans-serif" stroke="white" stroke-opacity="1"
    ><rect x="0" width="367" height="48" y="0" clip-path="url(#clipPath94)" stroke="none"
      /><text fill="black" x="15" xml:space="preserve" y="21" clip-path="url(#clipPath94)" stroke="none"
      >10: O sistema apresenta uma sugestão de um freelancer que mais é</text
      ><text fill="black" x="91" xml:space="preserve" y="36" clip-path="url(#clipPath94)" stroke="none"
      >adequado à adjudicação doa anúncio</text
    ></g
    ><g font-size="11px" transform="translate(777,396)" fill-opacity="1" fill="white" text-rendering="geometricPrecision" image-rendering="optimizeQuality" font-family="sans-serif" stroke="white" stroke-opacity="1"
    ><rect x="0" width="267" height="15" y="0" clip-path="url(#clipPath95)" stroke="none"
      /><text fill="black" x="9" xml:space="preserve" y="12" clip-path="url(#clipPath95)" stroke="none"
      >6: anuncio = getAnuncioParaAdjudicarByRef(ref,c)</text
    ></g
    ><g font-size="11px" transform="translate(165,363)" fill-opacity="1" fill="white" text-rendering="geometricPrecision" image-rendering="optimizeQuality" font-family="sans-serif" stroke="white" stroke-opacity="1"
    ><rect x="0" width="187" height="15" y="0" clip-path="url(#clipPath96)" stroke="none"
      /><text fill="black" x="10" xml:space="preserve" y="12" clip-path="url(#clipPath96)" stroke="none"
      >4: O gestor seleciona um anúncio.</text
    ></g
    ><g font-size="11px" transform="translate(78,222)" fill-opacity="1" fill="white" text-rendering="geometricPrecision" image-rendering="optimizeQuality" font-family="sans-serif" stroke="white" stroke-opacity="1"
    ><rect x="0" width="365" height="47" y="0" clip-path="url(#clipPath97)" stroke="none"
      /><text fill="black" x="7" xml:space="preserve" y="13" clip-path="url(#clipPath97)" stroke="none"
      >3: O sistema vai buscar a organização do colaborador, mostra uma lista</text
      ><text fill="black" x="18" xml:space="preserve" y="28" clip-path="url(#clipPath97)" stroke="none"
      >de anúncios disponíveis já referênciados e solicita a escolha de um</text
      ><text fill="black" x="169" xml:space="preserve" y="43" clip-path="url(#clipPath97)" stroke="none"
      >deles</text
    ></g
    ><g font-size="11px" transform="translate(499,110)" fill-opacity="1" fill="white" text-rendering="geometricPrecision" image-rendering="optimizeQuality" font-family="sans-serif" stroke="white" stroke-opacity="1"
    ><rect x="0" width="221" height="15" y="0" clip-path="url(#clipPath98)" stroke="none"
      /><text fill="black" x="10" xml:space="preserve" y="12" clip-path="url(#clipPath98)" stroke="none"
      >2: lAnuncio= getAnunciosParaAdjudicar()</text
    ></g
    ><g font-size="11px" transform="translate(114,100)" fill-opacity="1" fill="white" text-rendering="geometricPrecision" image-rendering="optimizeQuality" font-family="sans-serif" stroke="white" stroke-opacity="1"
    ><rect x="0" width="291" height="15" y="0" clip-path="url(#clipPath99)" stroke="none"
      /><text fill="black" x="10" xml:space="preserve" y="12" clip-path="url(#clipPath99)" stroke="none"
      >1: O gestor inicia a adjudicação manual de um anúncio.</text
    ></g
    ><g font-size="8px" fill-opacity="1" fill="rgb(120,120,120)" text-rendering="geometricPrecision" image-rendering="optimizeQuality" stroke="rgb(120,120,120)" stroke-opacity="1"
    ><text x="0" xml:space="preserve" y="10" stroke="none"
      >Visual Paradigm Standard(João Osório(Instituto Superior de Engenharia do Porto))</text
    ></g
  ></g
></svg
>
